Name,Country,State,Division,BodyweightLbs,WeightClassLbs,BirthDate,Age,Squat1Lbs,Squat2Lbs,Squat3Lbs,Best3SquatLbs,Bench1Lbs,Bench2Lbs,Bench3Lbs,Best3BenchLbs,Deadlift1Lbs,Deadlift2Lbs,Deadlift3Lbs,Best3DeadliftLbs,TotalLbs,Place,Event,Sex,Equipment
Maddi Fagerberg,USA,MA,Amateur Juniors 20-23,115.6,123,,20,,,,150,,,,85,,,,185,420,1,SBD,F,Raw
Galina Stolyarov,USA,MA,Amateur Masters 40-44,134,148,,44,,,,190,,,,115,,,,250,555,1,SBD,F,Raw
Bianca Broomfield,USA,MA,Amateur Open,145.2,148,,26,,,,,,,,155,,,,,155,1,B,F,Raw
Bianca Broomfield,USA,MA,Amateur Open,145.2,148,,26,,,,255,,,,,,,,,255,1,S,F,Raw
Abigail DiScipio,USA,MA,Amateur Masters 40-44,198.2,198,,40,,,,,,,,175,,,,,175,1,B,F,Raw
Olivia McSharry,USA,MA,Amateur Teen 18-19,192,198,,19,,,,375,,,,175,,,,450,1000,1,SBD,F,Wraps
Rachel Rebello,USA,MA,Amateur Masters 40-44,210.8,220,,43,,,,240,,,,115,,,,250,605,1,SBD,F,Raw
Brittney Bing,USA,MA,Amateur Open,218.6,220,,35,,,,350,,,,180,,,,410,940,1,SBD,F,Raw
Annmarie Sherrick,USA,MA,Amateur Masters 45-49,233.2,242,,48,,,,,,,,165,,,,,165,1,B,F,Raw
Patrick Mason,USA,MA,Amateur Masters 65-69,146.8,148,,69,,,,,,,,310,,,,,310,1,B,M,Raw
Sam Fogelgren,USA,MA,Amateur Teen 16-17,148.6,148,,16,,,,260,,,,215,,,,315,790,1,SBD,M,Raw
Harry Wilson,USA,MA,Amateur Teen 16-17,146.2,148,,16,,,,340,,,,275,,,,440,1055,1,SBD,M,Wraps
Anibal G Pedroza,USA,MA,Amateur Open,160.4,165,,36,,,,,,,,330,,,,,330,1,B,M,Raw
Michael Salerno,USA,MA,Amateur Open,156.4,165,,32,,,,290,,,,285,,,,500,1075,1,SBD,M,Raw
AJ Mills,USA,MA,Amateur Open,162.6,165,,32,,,,315,,,,225,,,,405,945,2,SBD,M,Wraps
Bo Caldwell,USA,MA,Amateur Open,161.6,165,,26,,,,420,,,,255,,,,420,1095,1,SBD,M,Wraps
Brayden Melanson,USA,MA,Amateur Teen 16-17,165.3,165,,16,,,,290,,,,200,,,,395,885,1,SBD,M,Wraps
Carlos Gonzalez,USA,MA,Amateur Teen 14-15,153.6,165,,15,,,,295,,,,245,,,,280,820,1,SBD,M,Wraps
Yury Stolyarov,USA,MA,Amateur Masters 40-44,177.2,181,,44,,,,340,,,,245,,,,385,970,1,SBD,M,Raw
George Morgan,USA,MA,Amateur Masters 65-69,175.8,181,,68,,,,,,,,315,,,,,315,1,B,M,Raw
George Morgan,USA,MA,Pro Masters 65-69,175.8,181,,68,,,,,,,,315,,,,,315,1,B,M,Raw
George Morgan,USA,MA,Amateur Open,175.8,181,,68,,,,,,,,315,,,,,315,1,B,M,Raw
Will Taber,USA,MA,Amateur Open,179.6,181,,26,,,,350,,,,215,,,,460,1025,2,SBD,M,Raw
Eduardo Cruz,USA,MA,Amateur Open,181.2,181,,34,,,,405,,,,330,,,,500,1235,1,SBD,M,Raw
Spencer Parish,USA,MA,Amateur Open,173,181,,26,,,,290,,,,200,,,,350,840,1,SBD,M,Wraps
Maxwell Sharkey,USA,MA,Amateur Submasters 33-39,177.4,181,,34,,,,,,,,260,,,,365,625,1,BD,M,Raw
Silas Morris,USA,MA,Amateur Teen 18-19,177.8,181,,18,,,,455,,,,255,,,,545,1255,1,SBD,M,Raw
Charlie Avery,USA,MA,Pro Juniors 20-23,194,198,,22,,,,540,,,,320,,,,540,1400,1,SBD,M,Single-ply
James Avery,USA,MA,Pro Masters 50-54,196,198,,53,,,,460,,,,225,,,,425,1110,1,SBD,M,Single-ply
John Richard,USA,MA,Amateur Masters 55-59,195.4,198,,59,,,,,,,,280,,,,,280,1,B,M,Raw
Enrique Olan,USA,MA,Amateur Open,195,198,,30,,,,405,,,,325,,,,420,1150,1,SBD,M,Raw
Tony Creatura,USA,MA,Elite Open,197.2,198,,30,,,,740,,,,405,,,,660,1805,1,SBD,M,Wraps
Timothy Graham,USA,MA,Amateur Submasters 33-39,187.6,198,,39,,,,,,,,305,,,,,305,1,B,M,Raw
Clay Hatch,USA,MA,Amateur Juniors 20-23,217.4,220,,22,,,,425,,,,290,,,,385,1100,1,SBD,M,Raw
Andrew Durand,USA,MA,Pro Masters 40-44,199.6,220,,43,,,,535,,,,320,,,,585,1440,1,SBD,M,Raw
Michael Galicki,USA,MA,Military Amateur Masters 55-59,218.6,220,,55,,,,440,,,,265,,,,440,1145,1,SBD,M,Wraps
Paul Oslowski,USA,MA,Amateur Masters 65-69,216.2,220,,65,,,,375,,,,360,,,,380,1115,1,SBD,M,Wraps
Rocco Pike,USA,MA,Amateur Open,213.6,220,,23,,,,435,,,,305,,,,500,1240,1,SBD,M,Raw
Michael E Talarski,USA,MA,Amateur Open,204.2,220,,38,,,,345,,,,250,,,,485,1080,2,SBD,M,Wraps
Edson Goncalves,USA,MA,Amateur Open,219.2,220,,35,,,,530,,,,315,,,,545,1390,1,SBD,M,Wraps
Kyle Shotsberger,USA,MA,Military Amateur Open,212.6,220,,31,,,,460,,,,315,,,,500,1275,1,SBD,M,Wraps
Jay Soares,USA,MA,Military Amateur Submasters 33-39,215.4,220,,35,,,,,,,,365,,,,,365,1,B,M,Raw
Kyle Pucci,USA,MA,Amateur Juniors 20-23,230.8,242,,22,,,,,,,,,,,,605,605,1,D,M,Raw
Hunter Wolcott,USA,MA,Amateur Juniors 20-23,237.2,242,,21,,,,530,,,,325,,,,600,1455,1,SBD,M,Wraps
Brian Soldevilla,USA,MA,Pro Masters 50-54,230.2,242,,50,,,,,,,,440,,,,,440,1,B,M,Raw
Ryan Lawson,USA,MA,Pro Open,230.6,242,,43,,,,550,,,,380,,,,650,1580,1,SBD,M,Raw
TJ Vecchiarelli,USA,MA,Amateur Open,238,242,,36,,,,445,,,,300,,,,530,1275,1,SBD,M,Wraps
James Moore,USA,MA,Pro Open,266.2,275,,44,,,,,,,,465,,,,,465,1,B,M,Raw
Wes Page,USA,MA,Amateur Masters 45-49,298.6,308,,47,,,,555,,,,350,,,,595,1500,1,SBD,M,Wraps
David Sexton,USA,MA,Pro Masters 50-54,300,308,,54,,,,560,,,,335,,,,540,1435,1,SBD,M,Raw
Matt Slate,USA,MA,Amateur Masters 40-44,294.4,308,,43,,,,,,,,450,,,,,450,1,B,M,Raw
Matt Slate,USA,MA,Amateur Masters 40-44,294.4,308,,43,,,,,,,,450,,,,560,1010,1,BD,M,Raw
Nick Breen,USA,MA,Elite Open,296,308,,34,,,,725,,,,420,,,,640,1785,1,SBD,M,Wraps
Jose Luis Garcia Jr,USA,MA,Pro Submasters 33-39,307.8,308,,33,,,,520,,,,315,,,,520,1355,1,SBD,M,Wraps
James Mitchell,USA,MA,Amateur Masters 40-44,331.4,308+,,40,,,,,,,,370,,,,,370,1,B,M,Raw
Joseph Vieira Sr,USA,MA,Amateur Masters 50-54,376,308+,,50,,,,650,,,,380,,,,655,1685,1,SBD,M,Wraps
Trenton Prutsman,USA,MA,Amateur Open,350.2,308+,,28,,,,420,,,,255,,,,505,1180,1,SBD,M,Raw
Matt Slate,USA,MA,Amateur Open,294.4,308,,43,,,,,,,,450,,,,560,1010,1,BD,M,Raw
Joseph Vieira Sr,USA,MA,Amateur Open,376,308+,,50,,,,,,,,380,,,,,380,1,B,M,Raw
Joseph Vieira Sr,USA,MA,Amateur Open,376,308+,,50,,,,650,,,,380,,,,655,1685,1,SBD,M,Wraps
