Place,Name,Sex,Age,State,Country,Equipment,Division,BodyweightKg,WeightClassKg,Bench1Kg,Bench2Kg,Bench3Kg,Bench4Kg,Best3BenchKg,Deadlift1Kg,Deadlift2Kg,Deadlift3Kg,Deadlift4Kg,Best3DeadliftKg,TotalKg,Event,BirthDate
2,Agnes Prehn,F,57,HI,,Raw,Class 1,74.84,75,34.93,39.92,,,39.92,,,,,,39.92,B,
2,Agnes Prehn,F,57,HI,,Raw,Masters 54-60,74.84,75,34.93,39.92,,,39.92,,,,,,39.92,B,
3,Agnes Prehn,F,57,HI,,Raw,Class 1,74.84,75,,,,,,82.42,84.91,87.41,,87.41,87.41,D,
2,Agnes Prehn,F,57,HI,,Raw,Masters 54-60,74.84,75,,,,,,82.42,84.91,87.41,,87.41,87.41,D,
1,Agnes Prehn,F,57,HI,,Raw,Class 1,74.84,75,34.93,39.92,,,39.92,82.42,84.91,87.41,,87.41,127.33,BD,
2,Agnes Prehn,F,57,HI,,Raw,Masters 54-60,74.84,75,34.93,39.92,,,39.92,82.42,84.91,87.41,,87.41,127.33,BD,
1,AJ Laverty,F,15,AZ,,Raw,Teen 14-15,43.64,44,27.44,29.94,,,29.94,,,,,,29.94,B,
1,AJ Laverty,F,15,AZ,,Raw,Teen 14-15,43.64,44,,,,,,47.4,52.39,57.47,,57.47,57.47,D,
1,AJ Laverty,F,15,AZ,,Raw,Teen 14-15,43.64,44,27.44,29.94,,,29.94,47.4,52.39,57.47,,57.47,87.41,BD,
1,Al Tanner,M,57,OK,,Single-ply,Masters 54-60,140.16,140+,199.9,,215.37,,215.37,,,,,,215.37,B,
2,Alan Okamoto,M,44,HI,,Raw,Masters 40-46,80.29,82.5,137.44,,,,137.44,,,,,,137.44,B,
2,Alan Okamoto,M,44,HI,,Raw,Masters 40-46,80.29,82.5,,,,,,149.91,157.4,167.47,,167.47,167.47,D,
2,Alan Okamoto,M,44,HI,,Raw,Masters 40-46,80.29,82.5,137.44,,,,137.44,149.91,157.4,167.47,,167.47,304.91,BD,
1,Alejandro Lamperti,M,52,,Argentina,Single-ply,Masters 47-53,88.54,90,119.98,127.46,132.45,,132.45,,,,,,132.45,B,
1,Alejandro Lamperti,M,52,,Argentina,Single-ply,Masters 47-53,88.54,90,,,,,,224.98,234.96,242.45,,242.45,242.45,D,
1,Alejandro Lamperti,M,52,,Argentina,Single-ply,Masters 47-53,88.54,90,119.98,127.46,132.45,,132.45,224.98,234.96,242.45,,242.45,374.9,BD,
1,Alexa Hosley,F,12,UT,,Raw,Teen 12-13,54.98,56,,,,,,59.96,69.94,,,69.94,69.94,D,
1,Alexia Padilla,F,20,WA,,Raw,Juniors 20-25,55.88,56,47.4,49.9,,,49.9,,,,,,49.9,B,
1,Alexia Padilla,F,20,WA,,Raw,Juniors 20-25,55.88,56,,,,,,124.96,,,,124.96,124.96,D,
1,Alexia Padilla,F,20,WA,,Raw,Juniors 20-25,55.88,56,47.4,49.9,,,49.9,124.96,,,,124.96,174.86,BD,
1,Alfred Franke,M,82,NV,,Raw,Disabled,83.37,90,54.98,59.96,67.45,,67.45,,,,,,67.45,B,
1,Alfred Franke,M,82,NV,,Raw,Disabled,83.37,90,,,,,,89.9,94.89,102.38,,102.38,102.38,D,
1,Alfred Franke,M,82,NV,,Raw,Disabled,83.37,90,54.98,59.96,67.45,,67.45,89.9,94.89,102.38,,102.38,169.83,BD,
1,Alisha Howard,F,47,WA,,Single-ply,Law-Fire 40-47,80.74,82.5,,137.94,,,137.94,,,,,,137.94,B,
1,Alisha Howard,F,47,WA,,Single-ply,Law-Fire Open,80.74,82.5,,137.94,,,137.94,,,,,,137.94,B,
2,Allen Heisler,M,50,MT,,Raw,Law-Fire 48-55,129.27,140,159.89,167.47,,,167.47,,,,,,167.47,B,
1,Allen Heisler,M,50,MT,,Raw,Law-Fire 48-55,129.27,140,,,,,,237.46,247.43,,,247.43,247.43,D,
1,Allen Heisler,M,50,MT,,Raw,Law-Fire 48-55,129.27,140,159.89,167.47,,,167.47,237.46,247.43,,,247.43,414.9,BD,
4,Amelia Sparks,F,35,TX,,Raw,Open,109.41,100+,79.92,84.91,,,84.91,,,,,,84.91,B,
2,Amelia Sparks,F,35,TX,,Raw,Submasters 33-39,109.41,100+,79.92,84.91,,,84.91,,,,,,84.91,B,
5,Amelia Sparks,F,35,TX,,Raw,Open,109.41,100+,,,,,,142.43,149.91,152.41,,152.41,152.41,D,
3,Amelia Sparks,F,35,TX,,Raw,Submasters 33-39,109.41,100+,,,,,,142.43,149.91,152.41,,152.41,152.41,D,
4,Amelia Sparks,F,35,TX,,Raw,Open,109.41,100+,79.92,84.91,,,84.91,142.43,149.91,152.41,,152.41,237.32,BD,
1,Amelia Sparks,F,35,TX,,Raw,Submasters 33-39,109.41,100+,79.92,84.91,,,84.91,142.43,149.91,152.41,,152.41,237.32,BD,
1,Ann Dorschel,F,65,WI,,Raw,Masters 61-67,52.89,56,,,,,,97.39,104.87,112.99,,112.99,112.99,D,
1,Annie Bowman,F,43,WA,,Single-ply,Masters 40-46,130.54,100+,132.45,147.42,162.39,,162.39,,,,,,162.39,B,
1,Annie Bowman,F,43,WA,,Single-ply,Open,130.54,100+,132.45,147.42,162.39,,162.39,,,,,,162.39,B,
1,Annie Bowman,F,43,WA,,Single-ply,Masters 40-46,130.54,100+,,,,,,142.43,154.9,,,154.9,154.9,D,
1,Annie Bowman,F,43,WA,,Single-ply,Masters 40-46,130.54,100+,132.45,147.42,162.39,,162.39,142.43,154.9,,,154.9,317.29,BD,
1,Anthony Canedo,M,24,NV,,Raw,Juniors 20-25,99.25,100,174.95,189.92,,,189.92,,,,,,189.92,B,
1,Arthur Nakamura,M,51,OR,,Raw,Law-Fire 48-55,134.26,140,174.95,184.93,189.92,,189.92,,,,,,189.92,B,
4,Avrie Aadahl,F,16,OK,,Raw,Open,73.66,75,47.4,52.39,,,52.39,,,,,,52.39,B,
2,Avrie Aadahl,F,16,OK,,Raw,Teen 16-17,73.66,75,47.4,52.39,,,52.39,,,,,,52.39,B,
1,Avrie Aadahl,F,16,OK,,Raw,Open,73.66,75,,,,,,124.96,,,,124.96,124.96,D,
2,Avrie Aadahl,F,16,OK,,Raw,Teen 16-17,73.66,75,,,,,,124.96,,,,124.96,124.96,D,
1,Avrie Aadahl,F,16,OK,,Raw,Open,73.66,75,47.4,52.39,,,52.39,124.96,,,,124.96,177.35,BD,
1,Avrie Aadahl,F,16,OK,,Raw,Teen 16-17,73.66,75,47.4,52.39,,,52.39,124.96,,,,124.96,177.35,BD,
1,Barron Stone,M,54,TX,,Raw,Law-Fire 48-55,89.81,90,129.95,135.44,,,135.44,,,,,,135.44,B,
1,Barron Stone,M,54,TX,,Raw,Law-Fire 48-55,89.81,90,,,,,,192.41,204.89,214.87,,214.87,214.87,D,
1,Barron Stone,M,54,TX,,Raw,Law-Fire 48-55,89.81,90,129.95,135.44,,,135.44,192.41,204.89,214.87,,214.87,350.31,BD,
1,Ben Dehghan,M,46,WA,,Multi-ply,Masters 40-46,81.56,82.5,,,,,,212.37,239.95,,,239.95,239.95,D,
1,Bernadette Francis,F,48,CA,,Raw,Disabled 2 40-59,57.24,60,,,,,,62.46,69.94,74.93,77.43,74.93,74.93,D,
1,Betty Hansen,F,64,CA,,Multi-ply,Masters 61-67,59.42,60,75.43,78.43,,,78.43,,,,,,78.43,B,
1,Betty Hansen,F,64,CA,,Multi-ply,Open,59.42,60,75.43,78.43,,,78.43,,,,,,78.43,B,
1,Betty Hansen,F,64,CA,,Multi-ply,Masters 61-67,59.42,60,,,,,,122.47,129.95,133.45,134.94,133.45,133.45,D,
1,Betty Hansen,F,64,CA,,Multi-ply,Open,59.42,60,,,,,,122.47,129.95,133.45,,133.45,133.45,D,
1,Betty Hansen,F,64,CA,,Multi-ply,Masters 61-67,59.42,60,75.43,78.43,,,78.43,122.47,129.95,133.45,,133.45,211.88,BD,
1,Betty Hansen,F,64,CA,,Multi-ply,Open,59.42,60,75.43,78.43,,,78.43,122.47,129.95,133.45,134.94,133.45,211.88,BD,
1,Beverly Anolin,F,61,CA,,Single-ply,Masters 61-67,67.86,75,,,,,,167.47,,,,167.47,167.47,D,
2,Beverly Anolin,F,61,CA,,Single-ply,Open,67.86,75,,,,,,167.47,,,,167.47,167.47,D,
1,Billy Caughey,M,39,UT,,Multi-ply,Submasters 33-39,110.59,117.5,137.44,144.92,154.9,,154.9,,,,,,154.9,B,
1,Billy Caughey,M,39,UT,,Multi-ply,Submasters 33-39,110.59,117.5,,,,,,207.38,229.97,237.46,,237.46,237.46,D,
1,Billy Caughey,M,39,UT,,Multi-ply,Submasters 33-39,110.59,117.5,137.44,144.92,154.9,,154.9,207.38,229.97,237.46,,237.46,392.36,BD,
2,Blaine Pyland,M,24,AR,,Raw,Open,66.5,67.5,124.96,132.45,,,132.45,,,,,,132.45,B,
2,Blaine Pyland,M,24,AR,,Raw,Open,66.5,67.5,,,,,,167.47,184.93,,,184.93,184.93,D,
2,Blaine Pyland,M,24,AR,,Raw,Open,66.5,67.5,124.96,132.45,,,132.45,167.47,184.93,,,184.93,317.38,BD,
1,Bob Denton,M,76,AZ,,Raw,Masters 75-79,70.03,75,84.91,87.41,,,87.41,,,,,,87.41,B,
2,Bob Denton,M,76,AZ,,Raw,Masters 75-79,70.03,75,,,,,,110,114.99,119.98,,119.98,119.98,D,
1,Bob Levering,M,63,ID,,Raw,Masters 61-67,87.72,90,129.95,134.94,139.93,,139.93,,,,,,139.93,B,
3,Bode Bitton,M,14,UT,,Raw,Teen 14-15,71.94,75,57.47,,,,57.47,,,,,,57.47,B,
3,Bode Bitton,M,14,UT,,Raw,Teen 14-15,71.94,75,,,,,,92.4,107.37,,,107.37,107.37,D,
1,Brady Hosley,M,41,UT,,Raw,Masters 40-46,114.67,117.5,,,,,,217.5,239.95,257.41,,257.41,257.41,D,
1,Bradyn Balesteri,M,16,WA,,Raw,Teen 16-17,111.86,117.5,99.88,,104.87,,104.87,,,,,,104.87,B,
1,Bradyn Balesteri,M,16,WA,,Raw,Teen 16-17,111.86,117.5,,,,,,179.94,,,,179.94,179.94,D,
1,Bradyn Balesteri,M,16,WA,,Raw,Teen 16-17,111.86,117.5,99.88,,104.87,,104.87,179.94,,,,179.94,284.81,BD,
1,Brandi Kary,F,48,CA,,Single-ply,Open,70.76,75,92.4,,,,92.4,,,,,,92.4,B,
3,Brandi Kary,F,48,CA,,Single-ply,Open,70.76,75,,,,,,139.93,149.91,,,149.91,149.91,D,
1,Brent Gapusan,M,37,WA,,Multi-ply,Open,107.32,110,,,,,,189.92,232.47,,,232.47,232.47,D,
1,Brent Gapusan,M,37,WA,,Multi-ply,Submasters 33-39,107.32,110,,,,,,189.92,232.47,,249.93,232.47,232.47,D,
1,Brett Heirigs,M,29,CA,,Raw,Law-Fire Open,88.63,90,129.95,137.44,,,137.44,,,,,,137.44,B,
2,Brett Heirigs,M,29,CA,,Raw,Law-Fire Open,88.63,90,,,,,,,189.92,199.9,,199.9,199.9,D,
1,Brian Fahrenfeld,M,52,NY,,Single-ply,Masters 47-53,106.32,110,,,,,,249.93,272.47,,,272.47,272.47,D,
4,Brian Leyritz,M,39,WA,,Raw,Submasters 33-39,138.25,140,139.93,144.92,152.41,,152.41,,,,,,152.41,B,
4,Brian Leyritz,M,39,WA,,Raw,Submasters 33-39,138.25,140,,,,,,207.38,222.49,232.47,,232.47,232.47,D,
4,Brian Leyritz,M,39,WA,,Raw,Submasters 33-39,138.25,140,139.93,144.92,152.41,,152.41,207.38,222.49,232.47,,232.47,384.88,BD,
3,Brian Taylor,M,57,UT,,Raw,Masters 54-60,109.68,110,69.94,74.93,79.92,,79.92,,,,,,79.92,B,
3,Brice Lewis,M,25,IL,,Raw,Juniors 20-25,77.79,82.5,,,,,,154.9,177.45,199.9,,199.9,199.9,D,
2,British Evans,F,35,IL,,Raw,Submasters 33-39,88.99,90,44.91,54.98,59.96,,59.96,,,,,,59.96,B,
3,British Evans,F,35,IL,,Raw,Submasters 33-39,88.99,90,,,,,,110,137.44,,,137.44,137.44,D,
1,Broc Bitton,M,18,UT,,Raw,Teen 18-19,71.49,75,92.4,,107.37,,107.37,,,,,,107.37,B,
3,Broc Bitton,M,18,UT,,Raw,Teen 18-19,71.49,75,,,,,,124.96,142.43,162.39,,162.39,162.39,D,
1,Bryan Yager,M,77,CA,,Single-ply,Masters 75-79,58.69,60,34.93,39.92,47.4,,47.4,,,,,,47.4,B,
1,Casen Ramirez,M,14,MN,,Single-ply,Teen 14-15,76.29,82.5,,,,,,134.94,149.91,163.38,,163.38,163.38,D,
1,Caylen Gapusan,F,37,WA,,Multi-ply,Open,97.89,100,94.89,102.38,105.37,,105.37,,,,,,105.37,B,
1,Caylen Gapusan,F,37,WA,,Multi-ply,Submasters 33-39,97.89,100,94.89,102.38,105.37,,105.37,,,,,,105.37,B,
1,Chad Fretts,M,15,WA,,Raw,Teen 14-15,78.29,82.5,62.46,,,,62.46,,,,,,62.46,B,
1,Chad Fretts,M,15,WA,,Raw,Teen 14-15,78.29,82.5,,,,,,,,179.94,,179.94,179.94,D,
1,Chad Fretts,M,15,WA,,Raw,Teen 14-15,78.29,82.5,62.46,,,,62.46,,,179.94,,179.94,242.4,BD,
1,Chad McFarland,M,47,OR,,Multi-ply,Disabled 2 40-59,72.85,75,94.89,102.38,103.87,104.87,103.87,,,,,,103.87,B,
1,Chad McFarland,M,47,OR,,Multi-ply,Disabled 2 40-59,72.85,75,,,,,,174.95,189.92,205.39,,205.39,205.39,D,
1,Chad McFarland,M,47,OR,,Multi-ply,Masters 47-53,72.85,75,,,,,,174.95,189.92,205.39,,205.39,205.39,D,
1,Chad McFarland,M,47,OR,,Multi-ply,Disabled 2 40-59,72.85,75,94.89,102.38,103.87,104.87,103.87,174.95,189.92,205.39,,205.39,309.26,BD,
1,Chad Parson,M,48,MT,,Raw,Masters 47-53,115.12,117.5,174.95,,,,174.95,,,,,,174.95,B,
1,Chad Parson,M,48,MT,,Raw,Masters 47-53,115.12,117.5,,,,,,199.9,214.87,,,214.87,214.87,D,
1,Chad Parson,M,48,MT,,Raw,Masters 47-53,115.12,117.5,174.95,,,,174.95,199.9,214.87,,,214.87,389.82,BD,
1,Charlene Muscio,F,,CA,,Raw,Masters 61-67,71.21,75,,,,,,92.4,94.89,,,94.89,94.89,D,
1,Charles McFarland,M,69,OR,,Single-ply,Masters 68-74,87.54,90,129.95,142.43,,,142.43,,,,,,142.43,B,
1,Charles McFarland,M,69,OR,,Single-ply,Law-Fire 64+,87.54,90,,,,,,224.98,234.96,242.45,,242.45,242.45,D,
1,Charles McFarland,M,69,OR,,Single-ply,Masters 68-74,87.54,90,,,,,,224.98,234.96,242.45,,242.45,242.45,D,
1,Charles McFarland,M,69,OR,,Single-ply,Law-Fire 64+,87.54,90,129.95,142.43,,,142.43,224.98,234.96,242.45,,242.45,384.88,BD,
1,Charles McFarland,M,69,OR,,Single-ply,Masters 68-74,87.54,90,129.95,142.43,,,142.43,224.98,234.96,242.45,,242.45,384.88,BD,
1,Chetram Mahgra,M,65,NY,,Single-ply,Masters 61-67,59.78,60,62.46,69.94,79.92,,79.92,,,,,,79.92,B,
1,Chetram Mahgra,M,65,NY,,Single-ply,Masters 61-67,59.78,60,,,,,,99.88,107.37,114.99,,114.99,114.99,D,
1,Chris Balanga,M,53,CA,,Single-ply,Masters 47-53,73.12,75,179.94,187.42,,,187.42,,,,,,187.42,B,
1,Chris Balanga,M,53,CA,,Single-ply,Masters 47-53,73.12,75,,,,,,227.48,,,,227.48,227.48,D,
1,Chris Balanga,M,53,CA,,Single-ply,Masters 47-53,73.12,75,179.94,187.42,,,187.42,227.48,,,,227.48,414.9,BD,
1,Chrispen Chiwenga,M,47,,Poland,Raw,Class 1,94.08,100,,,,,,199.9,219.99,229.97,,229.97,229.97,D,
3,Clara Castillo,F,28,CA,,Raw,Open,117.21,100+,79.92,87.41,,,87.41,,,,,,87.41,B,
2,Clara Castillo,F,28,CA,,Raw,Open,117.21,100+,,,,,,182.43,189.92,,,189.92,189.92,D,
2,Clara Castillo,F,28,CA,,Raw,Open,117.21,100+,79.92,87.41,,,87.41,182.43,189.92,,,189.92,277.33,BD,
3,Cody Jones,M,17,HI,,Raw,Open,67.13,67.5,72.44,,,,72.44,,,,,,72.44,B,
1,Cody Jones,M,17,HI,,Raw,Teen 16-17,67.13,67.5,72.44,,,,72.44,,,,,,72.44,B,
1,Cody Jones,M,17,HI,,Raw,Open,67.13,67.5,,,,,,189.92,205.39,214.87,,214.87,214.87,D,
1,Cody Jones,M,17,HI,,Raw,Teen 16-17,67.13,67.5,,,,,,189.92,205.39,214.87,,214.87,214.87,D,
3,Cody Jones,M,17,HI,,Raw,Open,67.13,67.5,72.44,,,,72.44,189.92,205.39,214.87,,214.87,287.31,BD,
1,Cody Jones,M,17,HI,,Raw,Teen 16-17,67.13,67.5,72.44,,,,72.44,189.92,205.39,214.87,,214.87,287.31,BD,
2,Cole Revel,M,16,WA,,Raw,Teen 16-17,76.66,82.5,74.93,79.92,,,79.92,,,,,,79.92,B,
3,Cole Revel,M,16,WA,,Raw,Teen 16-17,76.66,82.5,,,,,,124.96,137.44,144.92,,144.92,144.92,D,
2,Cole Revel,M,16,WA,,Raw,Teen 16-17,76.66,82.5,74.93,79.92,,,79.92,124.96,137.44,144.92,,144.92,224.84,BD,
3,Colette Lawlor,F,43,,Ireland,Raw,Masters 40-46,96.98,100,49.9,59.96,,,59.96,,,,,,59.96,B,
2,Colette Lawlor,F,43,,Ireland,Raw,Open,96.98,100,49.9,59.96,,,59.96,,,,,,59.96,B,
1,Colton Parrish,M,21,OK,,Raw,Juniors 20-25,65.41,67.5,84.91,92.4,97.39,,97.39,,,,,,97.39,B,
1,Colton Parrish,M,21,OK,,Raw,Juniors 20-25,65.41,67.5,,,,,,169.96,189.92,,,189.92,189.92,D,
1,Colton Parrish,M,21,OK,,Raw,Juniors 20-25,65.41,67.5,84.91,92.4,97.39,,97.39,169.96,189.92,,,189.92,287.31,BD,
2,Cooper Revel,M,14,WA,,Raw,Teen 14-15,73.66,75,,69.94,,,69.94,,,,,,69.94,B,
2,Cooper Revel,M,14,WA,,Raw,Teen 14-15,73.66,75,,,,,,114.99,,,,114.99,114.99,D,
2,Cooper Revel,M,14,WA,,Raw,Teen 14-15,73.66,75,,69.94,,,69.94,114.99,,,,114.99,184.93,BD,
2,Craig Bitton,M,50,UT,,Raw,Masters 47-53,88.9,90,102.38,,,,102.38,,,,,,102.38,B,
1,Craig Bitton,M,50,UT,,Raw,Masters 47-53,88.9,90,,,,,,159.89,,,,159.89,159.89,D,
1,Dale Lowrimore,M,56,OK,,Raw,Masters 54-60,116.57,117.5,142.43,147.42,154.9,,154.9,,,,,,154.9,B,
2,Dale Lowrimore,M,56,OK,,Raw,Masters 54-60,116.57,117.5,,,,,,204.89,214.87,,,214.87,214.87,D,
1,Dale Lowrimore,M,56,OK,,Raw,Masters 54-60,116.57,117.5,142.43,147.42,154.9,,154.9,204.89,214.87,,,214.87,369.77,BD,
1,Dalilah Schlueter,F,42,HI,,Raw,Class 1,65.77,67.5,42.41,47.4,,,47.4,,,,,,47.4,B,
1,Dalilah Schlueter,F,42,HI,,Raw,Masters 40-46,65.77,67.5,42.41,47.4,,,47.4,,,,,,47.4,B,
1,Dalilah Schlueter,F,42,HI,,Raw,Class 1,65.77,67.5,,,,,,92.4,97.39,102.38,,102.38,102.38,D,
1,Dalilah Schlueter,F,42,HI,,Raw,Masters 40-46,65.77,67.5,,,,,,92.4,97.39,102.38,,102.38,102.38,D,
1,Dalilah Schlueter,F,42,HI,,Raw,Class 1,65.77,67.5,42.41,47.4,,,47.4,92.4,97.39,102.38,,102.38,149.78,BD,
1,Dalilah Schlueter,F,42,HI,,Raw,Masters 40-46,65.77,67.5,42.41,47.4,,,47.4,92.4,97.39,102.38,,102.38,149.78,BD,
1,Dan Guches,M,61,OR,,Raw,Law-Fire 56-63,88.99,90,94.89,104.87,,,104.87,,,,,,104.87,B,
3,Dan Guches,M,61,OR,,Raw,Masters 61-67,88.99,90,94.89,104.87,,,104.87,,,,,,104.87,B,
1,Dan Swift,M,76,IL,,Multi-ply,Disabled 2 60,88.81,90,145.42,149.91,159.89,,159.89,,,,,,159.89,B,
1,Dan Swift,M,76,IL,,Multi-ply,Masters 75-79,88.81,90,145.42,149.91,159.89,,159.89,,,,,,159.89,B,
1,Dana Crosby,F,46,IL,,Raw,Law-Fire 40-47,104.69,100+,67.45,,,,67.45,,,,,,67.45,B,
1,Dana Crosby,F,46,IL,,Raw,Law-Fire Open,104.69,100+,67.45,,,,67.45,,,,,,67.45,B,
2,D'Angelo Brackeen,M,27,TX,,Raw,Open,70.4,75,110,114.99,122.47,,122.47,,,,,,122.47,B,
1,D'Angelo Brackeen,M,27,TX,,Raw,Open,70.4,75,,,,,,202.39,212.37,249.93,,249.93,249.93,D,
1,D'Angelo Brackeen,M,27,TX,,Raw,Open,70.4,75,,114.99,122.47,,122.47,202.39,212.37,249.93,,249.93,372.4,BD,
1,Darren Elisaga,M,44,HI,,Single-ply,Masters 40-46,157.85,140+,319.87,,,,319.87,,,,,,319.87,B,
1,Darren Elisaga,M,44,HI,,Single-ply,Open,157.85,140+,319.87,,,,319.87,,,,,,319.87,B,
1,Dave Aldag,M,65,WI,,Raw,Masters 61-67,65.14,67.5,,,,,,134.94,144.92,,,144.92,144.92,D,
1,Dave Budlong,M,75,OR,,Raw,Masters 75-79,73.94,75,,,,,,139.93,147.42,149.91,,149.91,149.91,D,
1,Dave Higgins,M,71,MN,,Raw,Masters 68-74,65.77,67.5,,,,,,119.98,,,,119.98,119.98,D,
2,Dave Marchant,M,61,UT,,Raw,Masters 61-67,169.19,140+,137.44,147.42,,,147.42,,,,,,147.42,B,
1,Dave Sickler,M,60,WI,,Raw,Masters 54-60,121.93,125,159.89,,,,159.89,,,,,,159.89,B,
2,David Turner,M,53,CA,,Raw,Class 1,97.25,100,142.43,,147.92,,147.92,,,,,,147.92,B,
2,David Turner,M,53,CA,,Raw,Class 1,97.25,100,,,,,,142.43,147.42,154.9,,154.9,154.9,D,
1,David Van Hoorik,M,36,AZ,,Raw,Submasters 33-39,115.85,117.5,157.4,172.46,182.43,,182.43,,,,,,182.43,B,
1,David Van Hoorik,M,36,AZ,,Raw,Submasters 33-39,115.85,117.5,,,,,,239.95,259.91,,,259.91,259.91,D,
1,David Van Hoorik,M,36,AZ,,Raw,Submasters 33-39,115.85,117.5,157.4,172.46,182.43,,182.43,239.95,259.91,,,259.91,442.34,BD,
1,Dean Miller,M,72,UT,,Raw,Masters 68-74,99.97,100,,84.91,,,84.91,,,,,,84.91,B,
2,Dean Miller,M,72,UT,,Raw,Masters 68-74,99.97,100,,,,,,132.45,144.92,154.9,,154.9,154.9,D,
1,DeAnna Dutton,F,63,WA,,Single-ply,Class 1,86,90,74.93,82.42,,,82.42,,,,,,82.42,B,
1,DeAnna Dutton,F,63,WA,,Single-ply,Masters 61-67,86,90,74.93,82.42,,,82.42,,,,,,82.42,B,
1,DeAnna Dutton,F,63,WA,,Single-ply,Class 1,86,90,,,,,,124.96,142.93,149.91,,149.91,149.91,D,
1,DeAnna Dutton,F,63,WA,,Single-ply,Masters 61-67,86,90,,,,,,124.96,142.93,149.91,,149.91,149.91,D,
1,DeAnna Dutton,F,63,WA,,Single-ply,Class 1,86,90,74.93,82.42,,,82.42,124.96,142.93,149.91,,149.91,232.33,BD,
1,DeAnna Dutton,F,63,WA,,Single-ply,Masters 61-67,86,90,74.93,82.42,,,82.42,124.96,142.93,149.91,,149.91,232.33,BD,
2,Deborah Maxwell,F,60,CA,,Raw,Masters 54-60,82.46,82.5,54.98,,,,54.98,,,,,,54.98,B,
2,Deborah Maxwell,F,60,CA,,Raw,Masters 54-60,82.46,82.5,,,,,,92.4,97.39,,,97.39,97.39,D,
2,Debra Winkler,F,38,MN,,Raw,Open,103.87,100+,,,89.9,,89.9,,,,,,89.9,B,
1,Debra Winkler,F,38,MN,,Raw,Submasters 33-39,103.87,100+,,,89.9,,89.9,,,,,,89.9,B,
4,Debra Winkler,F,38,MN,,Raw,Open,103.87,100+,,,,,,159.89,167.47,172.46,,172.46,172.46,D,
2,Debra Winkler,F,38,MN,,Raw,Submasters 33-39,103.87,100+,,,,,,159.89,167.47,172.46,,172.46,172.46,D,
1,Dede Soekardi,F,51,CA,,Single-ply,Masters 47-53,75.75,82.5,114.99,,,,114.99,,,,,,114.99,B,
1,Dede Soekardi,F,51,CA,,Single-ply,Masters 47-53,75.75,82.5,,,,,,154.9,,,,154.9,154.9,D,
1,Dede Soekardi,F,51,CA,,Single-ply,Masters 47-53,75.75,82.5,114.99,,,,114.99,154.9,,,,154.9,269.89,BD,
1,Derek Hess,M,38,WA,,Raw,Submasters 33-39,107.23,110,124.96,132.45,,,132.45,,,,,,132.45,B,
1,Deron Agaran,M,61,HI,,Single-ply,Masters 61-67,77.66,82.5,174.95,177.45,,,177.45,,,,,,177.45,B,
1,Diana Jessica Vallinoto,F,37,,Argentina,Raw,Open,44.91,48,72.44,77.43,79.92,,79.92,,,,,,79.92,B,
1,Diana Jessica Vallinoto,F,37,,Argentina,Raw,Submasters 33-39,44.91,48,72.44,77.43,79.92,,79.92,,,,,,79.92,B,
1,Diana Jessica Vallinoto,F,37,,Argentina,Raw,Open,44.91,48,,,,,,144.92,157.9,,,157.9,157.9,D,
1,Diana Jessica Vallinoto,F,37,,Argentina,Raw,Submasters 33-39,44.91,48,,,,,,144.92,157.9,,,157.9,157.9,D,
1,Diana Jessica Vallinoto,F,37,,Argentina,Raw,Open,44.91,48,72.44,77.43,79.92,,79.92,144.92,157.9,,,157.9,237.82,BD,
1,Diana Jessica Vallinoto,F,37,,Argentina,Raw,Submasters 33-39,44.91,48,72.44,77.43,79.92,,79.92,144.92,157.9,,,157.9,237.82,BD,
1,Donald Bryant,M,66,WA,,Raw,Law-Fire 64+,113.49,117.5,102.38,107.37,,,107.37,,,,,,107.37,B,
1,Donald Ramil,M,50,HI,,Raw,Masters 47-53,72.94,75,152.41,159.89,165.97,,165.97,,,,,,165.97,B,
1,Donald Ramil,M,50,HI,,Raw,Open,72.94,75,152.41,159.89,165.97,,165.97,,,,,,165.97,B,
1,Donovaan Hedgpeth,M,15,WA,,Raw,Teen 14-15,66.86,67.5,,,,,,162.39,,,,162.39,162.39,D,
2,Donovan Ballo,M,42,HI,,Raw,Masters 40-46,116.85,117.5,,182.43,184.93,,184.93,,,,,,184.93,B,
2,Donovan Ballo,M,42,HI,,Raw,Masters 40-46,116.85,117.5,,,,,,227.48,249.93,,,249.93,249.93,D,
1,Donovan Ballo,M,42,HI,,Raw,Masters 40-46,116.85,117.5,,182.43,184.93,,184.93,227.48,249.93,,,249.93,434.86,BD,
1,Duane Burlingame,M,66,IL,,Single-ply,Masters 61-67,92.8,100,,,,,,194.91,204.89,,,204.89,204.89,D,
1,Du Juan Calvo,M,36,TX,,Raw,Submasters 33-39,97.7,100,139.93,149.91,,,149.91,,,,,,149.91,B,
1,Du Juan Calvo,M,36,TX,,Raw,Submasters 33-39,97.7,100,,,,,,189.92,204.89,227.48,,227.48,227.48,D,
1,Du Juan Calvo,M,36,TX,,Raw,Submasters 33-39,97.7,100,139.93,149.91,,,149.91,189.92,204.89,227.48,,227.48,377.39,BD,
1,Duke Gumpfer,M,53,HI,,Single-ply,Law-Fire 48-55,136.08,140,,,,,,234.96,242.45,249.93,,249.93,249.93,D,
1,Duke Gumpfer,M,53,HI,,Single-ply,Law-Fire Open,136.08,140,,,,,,234.96,242.45,249.93,,249.93,249.93,D,
1,Ed Acey,M,81,UT,,Raw,Masters 80-84,120.56,125,84.91,92.4,,,92.4,,,,,,92.4,B,
2,Eddie Morgan,M,70,AR,,Raw,Masters 68-74,109.86,110,,117.48,122.47,,122.47,,,,,,122.47,B,
1,Eddie Morgan,M,70,AR,,Raw,Masters 68-74,109.86,110,,,,,,209.88,219.99,227.48,,227.48,227.48,D,
1,Eddie Morgan,M,70,AR,,Raw,Masters 68-74,109.86,110,,117.48,122.47,,122.47,209.88,219.99,227.48,,227.48,349.95,BD,
1,Eduardo Elgart,M,49,,Argentina,Raw,Masters 47-53,109.95,110,169.96,179.94,189.92,,189.92,,,,,,189.92,B,
3,Eduardo Elgart,M,49,,Argentina,Raw,Masters 47-53,109.95,110,,,,,,199.9,229.97,,,229.97,229.97,D,
1,Elizabeth Cabe,F,56,HI,,Raw,Masters 54-60,42.91,44,34.93,37.42,39.92,,39.92,,,,,,39.92,B,
1,Elizabeth Cabe,F,56,HI,,Raw,Masters 54-60,42.91,44,,,,,,107.37,112.49,117.48,119.98,117.48,117.48,D,
1,Elizabeth Cabe,F,56,HI,,Raw,Masters 54-60,42.91,44,34.93,37.42,39.92,,39.92,107.37,112.49,117.48,119.98,117.48,157.4,BD,
2,Emalee Graham,F,23,UT,,Raw,Juniors 20-25,89.63,90,,,,,,102.38,107.37,110,,110,110,D,
1,Emily Iacopi,F,25,CA,,Raw,Juniors 20-25,70.67,75,54.98,57.47,,,57.47,,,,,,57.47,B,
3,Emily Iacopi,F,25,CA,,Raw,Open,70.67,75,54.98,57.47,,,57.47,,,,,,57.47,B,
1,Emily Iacopi,F,25,CA,,Single-ply,Juniors 20-25,70.67,75,,,,,,164.97,174.95,182.43,,182.43,182.43,D,
1,Emily Iacopi,F,25,CA,,Single-ply,Open,70.67,75,,,,,,164.97,174.95,182.43,,182.43,182.43,D,
1,Emily Vedaa,F,42,OR,,Raw,Masters 40-46,88.72,90,,64.95,69.94,,69.94,,,,,,69.94,B,
1,Emily Vedaa,F,42,OR,,Raw,Masters 40-46,88.72,90,,,,,,124.96,132.45,137.44,,137.44,137.44,D,
1,Eric Jones,M,61,MI,,Raw,Law-Fire 56-63,125.74,140,164.97,167.47,,,167.47,,,,,,167.47,B,
1,Eric Jones,M,61,MI,,Raw,Masters 61-67,125.74,140,164.97,167.47,,,167.47,,,,,,167.47,B,
2,Eric Lind,M,,WA,,Raw,Teen 18-19,71.12,75,89.9,,,,89.9,,,,,,89.9,B,
2,Eric Lind,M,,WA,,Raw,Teen 18-19,71.12,75,,,,,,137.44,147.42,162.39,,162.39,162.39,D,
1,Eric Lind,M,,WA,,Raw,Teen 18-19,71.12,75,89.9,,,,89.9,137.44,147.42,162.39,,162.39,252.29,BD,
1,Erik Dye,M,58,OK,,Multi-ply,Masters 54-60,96.62,100,,,,,,242.45,,,,242.45,242.45,D,
1,Erik Dye,M,58,OK,,Multi-ply,Open,96.62,100,,,,,,242.45,,,,242.45,242.45,D,
1,Erik Straka,M,14,WA,,Raw,Teen 14-15,72.76,75,87.41,,,,87.41,,,,,,87.41,B,
1,Erik Straka,M,14,WA,,Raw,Teen 14-15,72.76,75,,,,,,174.95,184.93,,,184.93,184.93,D,
1,Erik Straka,M,14,WA,,Raw,Teen 14-15,72.76,75,87.41,,,,87.41,174.95,184.93,,,184.93,272.34,BD,
2,Erika Tadio,F,39,HI,,Raw,Open,83.46,90,57.47,,,,57.47,,,,,,57.47,B,
3,Erika Tadio,F,39,HI,,Raw,Submasters 33-39,83.46,90,57.47,,,,57.47,,,,,,57.47,B,
2,Erika Tadio,F,39,HI,,Raw,Open,83.46,90,,,,,,144.92,152.41,154.9,,154.9,154.9,D,
2,Erika Tadio,F,39,HI,,Raw,Submasters 33-39,83.46,90,,,,,,144.92,152.41,154.9,,154.9,154.9,D,
2,Erika Tadio,F,39,HI,,Raw,Open,83.46,90,57.47,,,,57.47,144.92,152.41,154.9,,154.9,212.37,BD,
2,Erika Tadio,F,39,HI,,Raw,Submasters 33-39,83.46,90,57.47,,,,57.47,144.92,152.41,154.9,,154.9,212.37,BD,
2,Ethan Cole,M,38,MT,,Raw,Submasters 33-39,123.29,125,,,,,,239.95,254.92,269.89,,269.89,269.89,D,
1,Eugene Merrill,M,65,AR,,Raw,Masters 61-67,111.95,117.5,,,,,,192.41,204.89,217.5,223.48,217.5,217.5,D,
1,Felicia Thomas,F,57,IN,,Raw,Masters 54-60,96.8,100,59.96,64.95,70.94,,70.94,,,,,,70.94,B,
1,Felicia Thomas,F,57,IN,,Raw,Masters 54-60,96.8,100,,,,,,142.43,157.4,167.47,,167.47,167.47,D,
1,Felicia Thomas,F,57,IN,,Raw,Masters 54-60,96.8,100,59.96,64.95,70.94,,70.94,142.43,157.4,167.47,,167.47,238.41,BD,
5,Felix Jimenez,M,30,TX,,Raw,Open,125.46,140,124.96,,132.45,,132.45,,,,,,132.45,B,
3,Felix Jimenez,M,30,TX,,Raw,Open,125.46,140,,,,,,242.45,254.92,,,254.92,254.92,D,
4,Felix Jimenez,M,30,TX,,Raw,Open,125.46,140,124.96,,132.45,,132.45,242.45,254.92,,,254.92,387.37,BD,
1,Flip Silva Jr,M,52,TX,,Raw,Law-Fire 48-55,107.05,110,182.43,187.42,,,187.42,,,,,,187.42,B,
1,Forest Hofer,M,68,WA,,Raw,Masters 68-74,137.89,140,192.41,199.9,204.89,,204.89,,,,,,204.89,B,
1,Forest Hofer,M,68,WA,,Raw,Open,137.89,140,204.89,,,,204.89,,,,,,204.89,B,
2,Forrest Kerwin,M,17,AZ,,Raw,Teen 16-17,66.77,67.5,62.46,69.94,,,69.94,,,,,,69.94,B,
2,Forrest Kerwin,M,17,AZ,,Raw,Teen 16-17,66.77,67.5,,,,,,102.38,114.99,122.47,,122.47,122.47,D,
2,Forrest Kerwin,M,17,AZ,,Raw,Teen 16-17,66.77,67.5,62.46,69.94,,,69.94,102.38,114.99,122.47,,122.47,192.41,BD,
1,Frank Johnson,M,64,AZ,,Raw,Masters 61-67,96.98,100,122.47,,,,122.47,,,,,,122.47,B,
1,Frank Principati,M,75,AZ,,Raw,Masters 75-79,53.8,56,,,,,,99.88,112.49,,,112.49,112.49,D,
1,Frank Shockley,M,75,OK,,Raw,Masters 75-79,102.24,110,,104.87,112.49,,112.49,,,,,,112.49,B,
1,Frank Shockley,M,75,OK,,Raw,Masters 75-79,102.24,110,,,,,,82.42,102.38,114.99,,114.99,114.99,D,
1,Frank Shockley,M,75,OK,,Raw,Masters 75-79,102.24,110,,104.87,112.49,,112.49,82.42,102.38,114.99,,114.99,227.48,BD,
1,Freddy Crosby,M,48,IL,,Single-ply,Law-Fire 48-55,109.23,110,,,259.91,,259.91,,,,,,259.91,B,
1,Freddy Crosby,M,48,IL,,Single-ply,Law-Fire Open,109.23,110,,,259.91,,259.91,,,,,,259.91,B,
1,Freddy Crosby,M,48,IL,,Single-ply,Law-Fire 48-55,109.23,110,,,,,,249.93,274.97,,,274.97,274.97,D,
1,Freddy Crosby,M,48,IL,,Single-ply,Law-Fire Open,109.23,110,,,,,,249.93,274.97,,,274.97,274.97,D,
1,Freddy Crosby,M,48,IL,,Single-ply,Law-Fire 48-55,109.23,110,,,259.91,,259.91,249.93,274.97,,,274.97,534.88,BD,
1,Freddy Crosby,M,48,IL,,Single-ply,Law-Fire Open,109.23,110,,,259.91,,259.91,249.93,274.97,,,274.97,534.88,BD,
1,Fulton White,M,64,NV,,Single-ply,Masters 61-67,74.93,75,139.93,144.92,,,144.92,,,,,,144.92,B,
1,Fulton White,M,64,NV,,Single-ply,Masters 61-67,74.93,75,,,,,,227.48,239.95,,,239.95,239.95,D,
1,Fulton White,M,64,NV,,Single-ply,Masters 61-67,74.93,75,139.93,144.92,,,144.92,227.48,239.95,,,239.95,384.87,BD,
1,Gary Ferstler,M,68,HI,,Raw,Masters 68-74,86.91,90,92.4,97.39,102.38,,102.38,,,,,,102.38,B,
1,Gary Ferstler,M,68,HI,,Raw,Masters 68-74,86.91,90,,,,,,204.89,229.97,,,229.97,229.97,D,
1,Gary Ferstler,M,68,HI,,Raw,Masters 68-74,86.91,90,92.4,97.39,102.38,,102.38,204.89,229.97,,,229.97,332.35,BD,
1,Gary McFarland,M,60,CA,,Raw,Law-Fire 56-63,109.59,110,189.92,,197.4,,197.4,,,,,,197.4,B,
1,Gary McFarland,M,60,CA,,Raw,Masters 54-60,109.59,110,189.92,,197.4,,197.4,,,,,,197.4,B,
1,Gary Panttila Jr,M,39,AZ,,Raw,Law-Fire Open,139.43,140,184.93,192.41,199.9,,199.9,,,,,,199.9,B,
1,Gary Panttila Jr,M,39,AZ,,Raw,Law-Fire Submasters,139.43,140,184.93,192.41,199.9,,199.9,,,,,,199.9,B,
1,Gary Panttila Jr,M,39,AZ,,Raw,Law-Fire Open,139.43,140,,,,,,274.97,289.94,302.91,,302.91,302.91,D,
1,Gary Panttila Jr,M,39,AZ,,Raw,Law-Fire Submasters,139.43,140,,,,,,274.97,289.94,302.91,,302.91,302.91,D,
1,Gary Panttila Jr,M,39,AZ,,Raw,Law-Fire Open,139.43,140,184.93,192.41,199.9,,199.9,274.97,289.94,302.91,,302.91,502.81,BD,
1,Gary Panttila Jr,M,39,AZ,,Raw,Law-Fire Submasters,139.43,140,184.93,192.41,199.9,,199.9,274.97,289.94,302.91,,302.91,502.81,BD,
2,Gary Panttila Sr,M,69,AZ,,Raw,Masters 68-74,83.91,90,,,,,,129.95,139.93,144.92,,144.92,144.92,D,
1,Gary Witzel,M,77,WA,,Multi-ply,Masters 75-79,59.06,60,49.9,59.96,,,59.96,,,,,,59.96,B,
1,Gary Witzel,M,77,WA,,Multi-ply,Masters 75-79,59.06,60,,,,,,99.88,,102.87,,102.87,102.87,D,
1,Gary Witzel,M,77,WA,,Multi-ply,Masters 75-79,59.06,60,49.9,59.96,,,59.96,99.88,,102.87,,102.87,162.83,BD,
2,Gene Wenzel,M,64,OH,,Raw,Masters 61-67,97.98,100,102.38,,,,102.38,,,,,,102.38,B,
1,Gene Wenzel,M,64,OH,,Raw,Masters 61-67,97.98,100,,,,,,177.45,187.42,195.41,,195.41,195.41,D,
1,Gene Wenzel,M,64,OH,,Raw,Masters 61-67,97.98,100,102.38,,,,102.38,177.45,187.42,195.41,,195.41,297.79,BD,
1,George Ugalde,M,56,HI,,Raw,Masters 54-60,96.52,100,89.9,94.89,107.37,,107.37,,,,,,107.37,B,
3,George Ugalde,M,56,HI,,Raw,Open,96.52,100,89.9,94.89,107.37,,107.37,,,,,,107.37,B,
2,George Ugalde,M,56,HI,,Raw,Masters 54-60,96.52,100,,,,,,124.96,142.43,167.47,,167.47,167.47,D,
3,George Ugalde,M,56,HI,,Raw,Open,96.52,100,,,,,,124.96,142.43,167.47,,167.47,167.47,D,
1,George Ugalde,M,56,HI,,Raw,Masters 54-60,96.52,100,89.9,94.89,107.37,,107.37,124.96,142.43,167.47,,167.47,274.84,BD,
1,George Ugalde,M,56,HI,,Raw,Open,96.52,100,89.9,94.89,107.37,,107.37,124.96,142.43,167.47,,167.47,274.84,BD,
1,Gloria Caughey,F,64,UT,,Raw,Masters 61-67,124.92,100+,69.94,,,,69.94,,,,,,69.94,B,
1,Gordie Groves,M,,AZ,,Raw,Teen 12-13,34.84,44,24.95,25.45,25.95,,25.95,,,,,,25.95,B,
1,Gordie Groves,M,,AZ,,Raw,Teen 12-13,34.84,44,,,,,,44.91,49.9,52.89,,52.89,52.89,D,
1,Gordie Groves,M,,AZ,,Raw,Teen 12-13,34.84,44,24.95,25.45,25.95,,25.95,44.91,49.9,52.89,,52.89,78.84,BD,
1,Gordon Groves,M,59,AZ,,Raw,Law-Fire 56-63,122.56,125,124.96,,,,124.96,,,,,,124.96,B,
1,Gordon Groves,M,59,AZ,,Raw,Law-Fire 56-63,122.56,125,,,,,,189.92,,204.89,227.48,204.89,204.89,D,
1,Gordon Groves,M,59,AZ,,Raw,Law-Fire 56-63,122.56,125,124.96,,,,124.96,189.92,,204.89,227.48,204.89,329.85,BD,
1,Grace Cole,F,25,WA,,Raw,Juniors 20-25,48.53,52,32.43,34.93,,,34.93,,,,,,34.93,B,
1,Gracie Rodney,F,20,HI,,Raw,Juniors 20-25,66.22,67.5,64.95,72.44,,,72.44,,,,,,72.44,B,
2,Gracie Rodney,F,20,HI,,Raw,Open,66.22,67.5,64.95,72.44,,,72.44,,,,,,72.44,B,
1,Gracie Rodney,F,20,HI,,Raw,Juniors 20-25,66.22,67.5,,,,,,124.96,132.45,,,132.45,132.45,D,
3,Gracie Rodney,F,20,HI,,Raw,Open,66.22,67.5,,,,,,124.96,132.45,,,132.45,132.45,D,
1,Gracie Rodney,F,20,HI,,Raw,Juniors 20-25,66.22,67.5,64.95,72.44,,,72.44,124.96,132.45,,,132.45,204.89,BD,
2,Gracie Rodney,F,20,HI,,Raw,Open,66.22,67.5,64.95,72.44,,,72.44,124.96,132.45,,,132.45,204.89,BD,
2,Graham Kerwin,M,15,AZ,,Raw,Teen 14-15,65.95,67.5,47.4,52.39,57.47,,57.47,,,,,,57.47,B,
3,Graham Kerwin,M,15,AZ,,Raw,Teen 14-15,65.95,67.5,,,,,,92.4,99.88,110,,110,110,D,
1,Graham Kerwin,M,15,AZ,,Raw,Teen 14-15,65.95,67.5,47.4,52.39,57.47,,57.47,92.4,99.88,110,,110,167.47,BD,
1,Haloa Paakonia,M,45,HI,,Raw,Masters 40-46,99.7,100,137.44,,142.43,,142.43,,,,,,142.43,B,
1,Haloa Paakonia,M,45,HI,,Multi-ply,Masters 40-46,99.7,100,,,,,,,233.96,,,233.96,233.96,D,
1,Hamilton Archibald,M,42,AR,,Raw,Masters 40-46,99.79,100,,,,,,217.5,229.97,239.95,,239.95,239.95,D,
1,Hannah Jay,F,33,AR,,Raw,Open,73.94,75,92.4,,,,92.4,,,,,,92.4,B,
1,Hannah Jay,F,33,AR,,Raw,Submasters 33-39,73.94,75,92.4,,,,92.4,,,,,,92.4,B,
1,Hobeen Lee,M,34,CA,,Raw,Open,67.31,67.5,,149.91,154.9,,154.9,,,,,,154.9,B,
3,Hobeen Lee,M,34,CA,,Raw,Open,67.31,67.5,,,,,,149.91,167.47,,,167.47,167.47,D,
1,Hobeen Lee,M,34,CA,,Raw,Open,67.31,67.5,,149.91,154.9,,154.9,149.91,167.47,,,167.47,322.37,BD,
2,Holly Gough,F,40,UT,,Raw,Class 1,56.43,60,37.42,,,,37.42,,,,,,37.42,B,
2,Holly Gough,F,40,UT,,Raw,Class 1,56.43,60,,,,,,82.42,92.4,97.39,,97.39,97.39,D,
1,Holly Gough,F,40,UT,,Raw,Class 1,56.43,60,37.42,,,,37.42,82.42,92.4,97.39,,97.39,134.81,BD,
1,Iris Singleton,F,18,WA,,Raw,Teen 18-19,64.05,67.5,67.45,,,,67.45,,,,,,67.45,B,
1,Iris Singleton,F,18,WA,,Raw,Teen 18-19,64.05,67.5,,,,,,144.92,154.9,160.39,,160.39,160.39,D,
1,Iris Singleton,F,18,WA,,Raw,Teen 18-19,64.05,67.5,67.45,,,,67.45,144.92,154.9,160.39,,160.39,227.84,BD,
1,Isaac Silva,M,40,HI,,Raw,Masters 40-46,115.39,117.5,189.92,194.91,207.88,,207.88,,,,,,207.88,B,
1,Isaac Silva,M,40,HI,,Raw,Open,115.39,117.5,189.92,194.91,207.88,,207.88,,,,,,207.88,B,
4,Isaac Silva,M,31,NV,,Raw,Open,93.35,100,82.42,89.9,97.39,,97.39,,,,,,97.39,B,
2,Isaac Silva,M,31,NV,,Raw,Open,93.35,100,,,,,,137.44,167.47,172.46,,172.46,172.46,D,
2,Isaac Silva,M,31,NV,,Raw,Open,93.35,100,82.42,89.9,97.39,,97.39,137.44,167.47,172.46,,172.46,269.85,BD,
3,Ivan Dimitrov,M,16,CA,,Raw,Open,87.45,90,77.43,92.4,,,92.4,,,,,,92.4,B,
3,Ivan Dimitrov,M,16,CA,,Raw,Teen 16-17,87.45,90,77.43,92.4,,,92.4,,,,,,92.4,B,
2,Ivan Dimitrov,M,16,CA,,Raw,Open,87.45,90,,,,,,149.91,169.96,,,169.96,169.96,D,
3,Ivan Dimitrov,M,16,CA,,Raw,Teen 16-17,87.45,90,,,,,,149.91,169.96,,,169.96,169.96,D,
1,Jackie Estes,F,40,OR,,Raw,Masters 40-46,121.02,100+,,,47.4,,47.4,,,,,,47.4,B,
6,Jackie Estes,F,40,OR,,Raw,Open,121.02,100+,,,47.4,,47.4,,,,,,47.4,B,
1,Jackie Estes,F,40,OR,,Raw,Masters 40-46,121.02,100+,,,,,,62.46,79.92,92.4,,92.4,92.4,D,
6,Jackie Estes,F,40,OR,,Raw,Open,121.02,100+,,,,,,62.46,79.92,92.4,,92.4,92.4,D,
1,Jackie Estes,F,40,OR,,Raw,Masters 40-46,121.02,100+,,,47.4,,47.4,62.46,79.92,92.4,,92.4,139.8,BD,
5,Jackie Estes,F,40,OR,,Raw,Open,121.02,100+,,,47.4,,47.4,62.46,79.92,92.4,,92.4,139.8,BD,
1,Jacob Alexander,M,17,MT,,Raw,Teen 16-17,88,90,114.99,117.48,,,117.48,,,,,,117.48,B,
2,Jacob Alexander,M,17,MT,,Raw,Teen 16-17,88,90,,,,,,184.93,,,,184.93,184.93,D,
1,Jacob Alexander,M,17,MT,,Raw,Teen 16-17,88,90,114.99,117.48,,,117.48,184.93,,,,184.93,302.41,BD,
1,Jacqueline Fendler,F,75,MN,,Raw,Disabled 2 60,80.83,82.5,29.94,32.43,34.93,,34.93,,,,,,34.93,B,
1,Jacqueline Fendler,F,75,MN,,Raw,Masters 75-79,80.83,82.5,29.94,32.43,34.93,,34.93,,,,,,34.93,B,
1,James Kelly,M,52,HI,,Raw,Masters 47-53,99.97,100,197.4,,,,197.4,,,,,,197.4,B,
1,James Kelly,M,52,HI,,Raw,Open,99.97,100,197.4,,,,197.4,,,,,,197.4,B,
1,James Menza,M,33,HI,,Raw,Open,118.75,125,144.92,,,,144.92,,,,,,144.92,B,
1,James Menza,M,33,HI,,Raw,Submasters 33-39,118.75,125,144.92,,,,144.92,,,,,,144.92,B,
1,James Menza,M,33,HI,,Raw,Open,118.75,125,,,,,,274.97,287.44,,,287.44,287.44,D,
1,James Menza,M,33,HI,,Raw,Submasters 33-39,118.75,125,,,,,,274.97,287.44,,,287.44,287.44,D,
1,James Menza,M,33,HI,,Raw,Open,118.75,125,144.92,,,,144.92,274.97,287.44,,,287.44,432.36,BD,
1,James Menza,M,33,HI,,Raw,Submasters 33-39,118.75,125,144.92,,,,144.92,274.97,287.44,,,287.44,432.36,BD,
1,James Walker,M,65,FL,,Raw,Masters 61-67,102.6,110,159.89,169.96,,,169.96,,,,,,169.96,B,
1,James Walker,M,65,FL,,Raw,Masters 61-67,102.6,110,,,,,,184.93,189.92,192.41,,192.41,192.41,D,
1,James Walker,M,65,FL,,Raw,Masters 61-67,102.6,110,159.89,169.96,,,169.96,184.93,189.92,192.41,,192.41,362.37,BD,
2,Jane Gerughty,F,61,CA,,Raw,Masters 61-67,124.1,100+,52.39,55.97,57.47,,57.47,,,,,,57.47,B,
1,Jane Gerughty,F,61,CA,,Raw,Masters 61-67,124.1,100+,,,,,,92.4,97.39,102.87,104.87,102.87,102.87,D,
1,Jane Stabile,F,70,MA,,Raw,Masters 68-74,80.74,82.5,,,,,,124.96,137.44,142.43,144.92,142.43,142.43,D,
1,Janesa Yadao,F,34,HI,,Single-ply,Open,75.11,82.5,114.99,119.98,,,119.98,,,,,,119.98,B,
1,Janesa Yadao,F,34,HI,,Single-ply,Submasters 33-39,75.11,82.5,114.99,119.98,,,119.98,,,,,,119.98,B,
1,Janesa Yadao,F,34,HI,,Single-ply,Open,75.11,82.5,,,,,,197.4,204.89,,,204.89,204.89,D,
1,Janesa Yadao,F,34,HI,,Single-ply,Submasters 33-39,75.11,82.5,,,,,,197.4,204.89,,,204.89,204.89,D,
1,Janesa Yadao,F,34,HI,,Single-ply,Open,75.11,82.5,114.99,119.98,,,119.98,197.4,204.89,,,204.89,324.87,BD,
1,Janesa Yadao,F,34,HI,,Single-ply,Submasters 33-39,75.11,82.5,114.99,119.98,,,119.98,197.4,204.89,,,204.89,324.87,BD,
1,Jason Carson,M,50,IL,,Single-ply,Masters 47-53,105.51,110,239.95,,,,239.95,,,,,,239.95,B,
1,Jason Carson,M,50,IL,,Single-ply,Open,105.51,110,239.95,,,,239.95,,,,,,239.95,B,
1,Jason Kaneao,M,51,HI,,Raw,Class 1,88.9,90,152.41,159.89,167.47,,167.47,,,,,,167.47,B,
1,Jason Kaneao,M,51,HI,,Raw,Masters 47-53,88.9,90,152.41,159.89,167.47,,167.47,,,,,,167.47,B,
1,Jeanne Nielsen,F,56,CA,,Single-ply,Masters 54-60,66.95,67.5,114.99,119.98,,,119.98,,,,,,119.98,B,
1,Jeanne Nielsen,F,56,CA,,Single-ply,Open,66.95,67.5,114.99,119.98,,,119.98,,,,,,119.98,B,
1,Jeanne Nielsen,F,56,CA,,Single-ply,Masters 54-60,66.95,67.5,,,,,,179.94,187.92,192.91,,192.91,192.91,D,
1,Jeanne Nielsen,F,56,CA,,Single-ply,Open,66.95,67.5,,,,,,179.94,187.92,192.91,,192.91,192.91,D,
1,Jeanne Nielsen,F,56,CA,,Single-ply,Masters 54-60,66.95,67.5,114.99,119.98,,,119.98,179.94,187.92,192.91,,192.91,312.89,BD,
1,Jeanne Nielsen,F,56,CA,,Single-ply,Open,66.95,67.5,114.99,119.98,,,119.98,179.94,187.92,192.91,,192.91,312.89,BD,
1,Jeff Holz,M,48,NV,,Raw,Law-Fire 48-55,92.62,100,,,,,,204.89,232.47,242.45,,242.45,242.45,D,
1,Jeff Holz,M,48,NV,,Raw,Law-Fire Open,92.62,100,,,,,,204.89,232.47,242.45,,242.45,242.45,D,
5,Jenna Henriques,F,28,HI,,Raw,Open,103.87,100+,,,82.42,,82.42,,,,,,82.42,B,
3,Jenna Henriques,F,28,HI,,Raw,Open,103.87,100+,,,,,,164.97,174.95,182.43,,182.43,182.43,D,
3,Jenna Henriques,F,28,HI,,Raw,Open,103.87,100+,,,82.42,,82.42,164.97,174.95,182.43,,182.43,264.85,BD,
1,Jennifer Genato,F,37,CA,,Raw,Open,48.99,52,57.47,,59.96,,59.96,,,,,,59.96,B,
1,Jennifer Genato,F,37,CA,,Raw,Submasters 33-39,48.99,52,57.47,,59.96,,59.96,,,,,,59.96,B,
1,Jennifer Genato,F,37,CA,,Raw,Open,48.99,52,,,,,,142.43,147.42,,,147.42,147.42,D,
1,Jennifer Genato,F,37,CA,,Raw,Submasters 33-39,48.99,52,,,,,,142.43,147.42,,,147.42,147.42,D,
1,Jennifer Genato,F,37,CA,,Raw,Open,48.99,52,57.47,,59.96,,59.96,142.43,147.42,,,147.42,207.38,BD,
1,Jennifer Genato,F,37,CA,,Raw,Submasters 33-39,48.99,52,57.47,,59.96,,59.96,142.43,147.42,,,147.42,207.38,BD,
4,Jeremy Marose,M,32,AZ,,Raw,Open,81.74,82.5,104.87,,,,104.87,,,,,,104.87,B,
4,Jeremy Marose,M,32,AZ,,Raw,Open,81.74,82.5,,,,,,164.97,172.46,182.43,,182.43,182.43,D,
1,Jeremy Martin,M,25,KS,,Raw,Class 1,66.41,67.5,82.42,92.4,,,92.4,,,,,,92.4,B,
1,Jeremy Martin,M,25,KS,,Raw,Class 1,66.41,67.5,,,,,,122.47,,,,122.47,122.47,D,
1,Jeremy Martin,M,25,KS,,Raw,Class 1,66.41,67.5,82.42,92.4,,,92.4,122.47,,,,122.47,214.87,BD,
1,Jeremy Radke,M,17,WI,,Raw,Open,58.97,60,97.39,104.87,110,,110,,,,,,110,B,
1,Jeremy Radke,M,17,WI,,Raw,Teen 16-17,58.97,60,97.39,104.87,110,,110,,,,,,110,B,
1,Jeremy Radke,M,17,WI,,Raw,Open,58.97,60,,,,,,164.97,179.94,182.93,,182.93,182.93,D,
1,Jeremy Radke,M,17,WI,,Raw,Teen 16-17,58.97,60,,,,,,164.97,179.94,182.93,184.93,182.93,182.93,D,
1,Jeremy Radke,M,17,WI,,Raw,Open,58.97,60,97.39,104.87,110,,110,164.97,179.94,182.93,184.93,182.93,292.93,BD,
1,Jeremy Radke,M,17,WI,,Raw,Teen 16-17,58.97,60,97.39,104.87,110,,110,164.97,179.94,182.93,184.93,182.93,292.93,BD,
1,Jerry Shetka,M,75,MN,,Raw,Masters 75-79,80.83,82.5,,,,,,214.87,232.47,239.95,249.93,239.95,239.95,D,
1,Jim Presley,M,62,CA,,Multi-ply,Masters 61-67,109.13,110,159.89,169.96,,,169.96,,,,,,169.96,B,
2,Jim Presley,M,62,CA,,Multi-ply,Open,109.13,110,159.89,169.96,,,169.96,,,,,,169.96,B,
1,Jim Presley,M,62,CA,,Multi-ply,Masters 61-67,109.13,110,,,,,,209.88,219.99,227.48,,227.48,227.48,D,
2,Jim Presley,M,62,CA,,Multi-ply,Open,109.13,110,,,,,,209.88,219.99,227.48,,227.48,227.48,D,
1,Jim Presley,M,62,CA,,Multi-ply,Masters 61-67,109.13,110,159.89,169.96,,,169.96,209.88,219.99,227.48,,227.48,397.44,BD,
1,Jim Presley,M,62,CA,,Multi-ply,Open,109.13,110,159.89,169.96,,,169.96,209.88,219.99,227.48,,227.48,397.44,BD,
1,Jim Schermerhorn,M,60,AZ,,Raw,Disabled 2 60,134.99,140,,,,,,227.48,249.93,,,249.93,249.93,D,
1,Jim Schermerhorn,M,60,AZ,,Raw,Masters 54-60,134.99,140,,,,,,227.48,249.93,,,249.93,249.93,D,
1,Jo Caldwell,F,53,AZ,,Raw,Law-Fire 48-55,66.5,67.5,92.4,,,,92.4,,,,,,92.4,B,
1,Jo Caldwell,F,53,AZ,,Raw,Masters 47-53,66.5,67.5,92.4,,,,92.4,,,,,,92.4,B,
2,Joanne Saladino,F,35,HI,,Raw,Submasters 33-39,65.95,67.5,74.93,80.42,,,80.42,,,,,,80.42,B,
3,Joanne Saladino,F,35,HI,,Raw,Submasters 33-39,65.95,67.5,,,,,,144.92,152.41,,,152.41,152.41,D,
2,Joanne Saladino,F,35,HI,,Raw,Submasters 33-39,65.95,67.5,74.93,80.42,,,80.42,144.92,152.41,,,152.41,232.83,BD,
1,Joe Mickelson,M,66,WA,,Single-ply,Masters 61-67,151.14,140+,,194.91,,,194.91,,,,,,194.91,B,
2,Joe Mickelson,M,66,WA,,Single-ply,Open,151.14,140+,,194.91,,,194.91,,,,,,194.91,B,
1,Joe Mickelson,M,66,WA,,Single-ply,Masters 61-67,151.14,140+,,,,,,207.38,219.99,227.98,,227.98,227.98,D,
1,Joe Mickelson,M,66,WA,,Single-ply,Open,151.14,140+,,,,,,207.38,219.99,227.98,,227.98,227.98,D,
1,Joe Mickelson,M,66,WA,,Single-ply,Masters 61-67,151.14,140+,,194.91,,,194.91,207.38,219.99,227.98,,227.98,422.89,BD,
1,Joe Mickelson,M,66,WA,,Single-ply,Open,151.14,140+,,194.91,,,194.91,207.38,219.99,227.98,,227.98,422.89,BD,
1,Joey Lewis,M,43,OK,,Multi-ply,Masters 40-46,110.5,117.5,,,184.93,,184.93,,,,,,184.93,B,
1,Joey Lewis,M,43,OK,,Multi-ply,Open,110.5,117.5,,,184.93,,184.93,,,,,,184.93,B,
2,Joey Lewis,M,43,OK,,Multi-ply,Masters 40-46,110.5,117.5,,,,,,209.88,,,,209.88,209.88,D,
2,Joey Lewis,M,43,OK,,Multi-ply,Open,110.5,117.5,,,,,,209.88,,,,209.88,209.88,D,
1,Joey Lewis,M,43,OK,,Multi-ply,Masters 40-46,110.5,117.5,,,184.93,,184.93,209.88,,,,209.88,394.81,BD,
1,Joey Lewis,M,43,OK,,Multi-ply,Open,110.5,117.5,,,184.93,,184.93,209.88,,,,209.88,394.81,BD,
1,John Bennett,M,84,MO,,Raw,Masters 80-84,97.61,100,,,,,,,149.91,,,149.91,149.91,D,
1,John Callahan,M,69,FL,,Raw,Law-Fire 64+,102.51,110,102.38,114.99,,,114.99,,,,,,114.99,B,
3,John Callahan,M,69,FL,,Raw,Masters 68-74,102.51,110,102.38,114.99,,,114.99,,,,,,114.99,B,
1,John Callahan,M,69,FL,,Raw,Law-Fire 64+,102.51,110,,,,,,144.92,167.47,174.95,,174.95,174.95,D,
3,John Callahan,M,69,FL,,Raw,Masters 68-74,102.51,110,,,,,,144.92,167.47,174.95,,174.95,174.95,D,
1,John Callahan,M,69,FL,,Raw,Law-Fire 64+,102.51,110,102.38,114.99,,,114.99,144.92,167.47,174.95,,174.95,289.94,BD,
3,John Callahan,M,69,FL,,Raw,Masters 68-74,102.51,110,102.38,114.99,,,114.99,144.92,167.47,174.95,,174.95,289.94,BD,
2,John Casey,M,61,AZ,,Raw,Masters 61-67,99.16,100,,,,,,124.96,134.94,,,134.94,134.94,D,
1,John Heldt,M,53,NV,,Single-ply,Masters 47-53,150.96,140+,,,,,,237.46,254.92,267.39,,267.39,267.39,D,
1,John Towne,M,68,ID,,Raw,Disabled 2 60,122.11,125,,124.96,137.44,,137.44,,,,,,137.44,B,
2,John Towne,M,68,ID,,Raw,Masters 68-74,122.11,125,,124.96,137.44,,137.44,,,,,,137.44,B,
2,Jonah Martin,M,16,CA,,Raw,Teen 16-17,80.65,82.5,,,,,,144.92,152.41,159.89,,159.89,159.89,D,
1,Jose Solorzano,M,17,TX,,Raw,Teen 16-17,96.8,100,117.48,127.46,,,127.46,,,,,,127.46,B,
1,Jose Solorzano,M,17,TX,,Raw,Teen 16-17,96.8,100,,,,,,192.41,209.88,,,209.88,209.88,D,
1,Jose Solorzano,M,17,TX,,Raw,Teen 16-17,96.8,100,117.48,127.46,,,127.46,192.41,209.88,,,209.88,337.34,BD,
1,Joseph Adams,M,43,UT,,Single-ply,Masters 40-46,104.6,110,232.47,,245.44,,245.44,,,,,,245.44,B,
1,Joseph Adams,M,43,UT,,Single-ply,Masters 40-46,104.6,110,,,,,,,247.43,,,247.43,247.43,D,
1,Joseph Adams,M,43,UT,,Single-ply,Masters 40-46,104.6,110,232.47,,245.44,,245.44,,247.43,,,247.43,492.87,BD,
1,Joseph Romano,M,18,AZ,,Raw,Teen 18-19,72.57,75,,,,,,182.43,192.41,202.39,,202.39,202.39,D,
1,Joseph Straka,M,16,WA,,Raw,Teen 16-17,107.59,110,,,,,,217.5,,,,217.5,217.5,D,
2,Joshua Shoberg,M,16,WA,,Raw,Teen 16-17,99.06,100,92.4,97.39,102.38,,102.38,,,,,,102.38,B,
2,Joshua Shoberg,M,16,WA,,Raw,Teen 16-17,99.06,100,92.4,97.39,102.38,,102.38,217.5,,,,217.5,319.88,BD,
1,Joshua Sisneros,M,33,CA,,Raw,Law-Fire Open,74.39,75,,,,,,219.99,,,,219.99,219.99,D,
2,Joshua Sutorus,M,39,OK,,Raw,Class 1,134.26,140,159.89,,,,159.89,,,,,,159.89,B,
3,Joshua Sutorus,M,39,OK,,Raw,Submasters 33-39,134.26,140,159.89,,,,159.89,,,,,,159.89,B,
2,Joshua Sutorus,M,39,OK,,Raw,Class 1,134.26,140,,,,,,259.91,272.47,,,272.47,272.47,D,
3,Joshua Sutorus,M,39,OK,,Raw,Submasters 33-39,134.26,140,,,,,,259.91,272.47,,,272.47,272.47,D,
2,Joshua Sutorus,M,39,OK,,Raw,Class 1,134.26,140,159.89,,,,159.89,259.91,272.47,,,272.47,432.36,BD,
3,Joshua Sutorus,M,39,OK,,Raw,Submasters 33-39,134.26,140,159.89,,,,159.89,259.91,272.47,,,272.47,432.36,BD,
1,Josie Jackson,F,60,TX,,Single-ply,Masters 54-60,73.3,75,69.94,75.43,77.43,,77.43,,,,,,77.43,B,
1,Josie Jackson,F,60,TX,,Single-ply,Masters 54-60,73.3,75,,,,,,132.45,144.92,,,144.92,144.92,D,
1,Jude Romano,M,14,AZ,,Raw,Teen 14-15,102.97,110,92.4,97.39,102.38,,102.38,,,,,,102.38,B,
1,Jude Romano,M,14,AZ,,Raw,Teen 14-15,102.97,110,,,,,,182.43,197.9,202.39,,202.39,202.39,D,
1,Jude Romano,M,14,AZ,,Raw,Teen 14-15,102.97,110,92.4,97.39,102.38,,102.38,182.43,197.9,202.39,,202.39,304.77,BD,
1,Judith Haggarty,F,49,CA,,Raw,Masters 47-53,50.89,52,64.95,,,,64.95,,,,,,64.95,B,
2,Judith Haggarty,F,49,CA,,Raw,Masters 47-53,50.89,52,,,,,,129.95,,,,129.95,129.95,D,
1,Julio Cesar Berrocal Sanchez,M,52,,Peru,Raw,Disabled 1 40-59,90.4,100,119.98,129.95,132.45,132.95,132.45,,,,,,132.45,B,
1,Justin Salazar,M,44,TX,,Raw,Masters 40-46,81.01,82.5,132.45,137.44,142.43,,142.43,,,,,,142.43,B,
1,Justin Salazar,M,44,TX,,Raw,Masters 40-46,81.01,82.5,,,,,,207.38,214.87,224.98,,224.98,224.98,D,
1,Justin Salazar,M,44,TX,,Raw,Masters 40-46,81.01,82.5,132.45,137.44,142.43,,142.43,207.38,214.87,224.98,,224.98,367.41,BD,
2,Kacie Kamoku,F,44,HI,,Raw,Masters 40-46,99.61,100,64.95,67.45,,,67.45,,,,,,67.45,B,
2,Kacie Kamoku,F,44,HI,,Raw,Masters 40-46,99.61,100,,,,,,129.95,142.43,,,142.43,142.43,D,
2,Kacie Kamoku,F,44,HI,,Raw,Masters 40-46,99.61,100,64.95,67.45,,,67.45,129.95,142.43,,,142.43,209.88,BD,
2,Kamuela Grace,M,14,HI,,Raw,Teen 14-15,109.5,110,84.91,92.4,,,92.4,,,,,,92.4,B,
2,Kamuela Grace,M,14,HI,,Raw,Teen 14-15,109.5,110,,,,,,177.45,189.92,197.9,204.89,197.9,197.9,D,
2,Kamuela Grace,M,14,HI,,Raw,Teen 14-15,109.5,110,84.91,92.4,,,92.4,177.45,189.92,197.9,204.89,197.9,290.3,BD,
3,Karma McMillian,F,55,WI,,Raw,Masters 54-60,78.93,82.5,44.91,47.4,,,47.4,,,,,,47.4,B,
3,Karma McMillian,F,55,WI,,Raw,Open,78.93,82.5,44.91,47.4,,,47.4,,,,,,47.4,B,
3,Karma McMillian,F,55,WI,,Raw,Masters 54-60,78.93,82.5,,,,,,89.9,92.4,94.89,,94.89,94.89,D,
3,Karma McMillian,F,55,WI,,Raw,Open,78.93,82.5,,,,,,89.9,92.4,94.89,,94.89,94.89,D,
2,Karma McMillian,F,55,WI,,Raw,Masters 54-60,78.93,82.5,44.91,47.4,,,47.4,89.9,92.4,94.89,,94.89,142.29,BD,
3,Karma McMillian,F,55,WI,,Raw,Open,78.93,82.5,44.91,47.4,,,47.4,89.9,92.4,94.89,,94.89,142.29,BD,
1,Kathleen Wiese,F,44,CA,,Multi-ply,Disabled 2 40-59,77.11,82.5,32.43,37.42,,42.41,37.42,,,,,,37.42,B,
1,Kathleen Wiese,F,44,CA,,Multi-ply,Disabled 2 40-59,77.11,82.5,,,,,,79.92,87.41,97.39,,97.39,97.39,D,
1,Kathleen Wiese,F,44,CA,,Multi-ply,Disabled 2 40-59,77.11,82.5,32.43,37.42,,42.41,37.42,79.92,87.41,97.39,,97.39,134.81,BD,
2,Kathy Caraccioli,F,57,CA,,Raw,Open,70.22,75,69.94,74.93,79.92,,79.92,,,,,,79.92,B,
2,KeAndre Todd,M,36,OK,,Raw,Submasters 33-39,180.35,140+,169.96,177.45,187.92,,187.92,,,,,,187.92,B,
2,KeAndre Todd,M,36,OK,,Raw,Submasters 33-39,180.35,140+,,,,,,204.89,222.49,237.46,,237.46,237.46,D,
2,KeAndre Todd,M,36,OK,,Raw,Submasters 33-39,180.35,140+,169.96,177.45,187.92,,187.92,204.89,222.49,237.46,,237.46,425.38,BD,
1,Keaton Majors,M,14,AR,,Raw,Teen 14-15,89.81,90,74.93,,,,74.93,,,,,,74.93,B,
1,Keaton Majors,M,14,AR,,Raw,Teen 14-15,89.81,90,,,,,,,102.38,117.48,,117.48,117.48,D,
1,Keaton Majors,M,14,AR,,Raw,Teen 14-15,89.81,90,74.93,,,,74.93,,102.38,117.48,,117.48,192.41,BD,
2,Keira Strout,F,17,AZ,,Raw,Teen 16-17,66.68,67.5,52.39,,,,52.39,,,,,,52.39,B,
1,Keira Strout,F,17,AZ,,Raw,Teen 16-17,66.68,67.5,,,,,,114.99,124.96,,,124.96,124.96,D,
1,Keira Strout,F,17,AZ,,Raw,Teen 16-17,66.68,67.5,52.39,,,,52.39,114.99,124.96,,,124.96,177.35,BD,
1,Keith Cunningham,M,59,WA,,Multi-ply,Masters 54-60,80.92,82.5,119.98,127.46,137.44,,137.44,,,,,,137.44,B,
1,Keith Cunningham,M,59,WA,,Multi-ply,Masters 54-60,80.92,82.5,,,,,,,222.49,,238.45,222.49,222.49,D,
1,Keith Cunningham,M,59,WA,,Multi-ply,Masters 54-60,80.92,82.5,119.98,127.46,137.44,,137.44,,222.49,,238.45,222.49,359.93,BD,
3,Kelle Lederman-Jordan,F,39,AZ,,Raw,Open,66.5,67.5,64.95,67.45,,,67.45,,,,,,67.45,B,
3,Kelle Lederman-Jordan,F,39,AZ,,Raw,Submasters 33-39,66.5,67.5,64.95,67.45,,,67.45,,,,,,67.45,B,
2,Kelle Lederman-Jordan,F,39,AZ,,Raw,Open,66.5,67.5,,,,,,142.43,152.41,159.89,,159.89,159.89,D,
2,Kelle Lederman-Jordan,F,39,AZ,,Raw,Submasters 33-39,66.5,67.5,,,,,,142.43,152.41,159.89,,159.89,159.89,D,
1,Kelsey Henson,F,25,AR,,Raw,Juniors 20-25,79.65,82.5,37.42,,,,37.42,,,,,,37.42,B,
1,Kelsey Henson,F,25,AR,,Raw,Juniors 20-25,79.65,82.5,,,,,,79.92,84.91,102.38,,102.38,102.38,D,
1,Kelsey Henson,F,25,AR,,Raw,Juniors 20-25,79.65,82.5,37.42,,,,37.42,79.92,84.91,102.38,,102.38,139.8,BD,
2,Kelvin Tatum,M,56,TX,,Raw,Open,116.12,117.5,147.42,162.39,167.47,,167.47,,,,,,167.47,B,
1,Kelvin Tatum,M,56,TX,,Raw,Open,116.12,117.5,,,,,,182.43,187.42,207.38,,207.38,207.38,D,
1,Kelvin Tatum,M,56,TX,,Raw,Open,116.12,117.5,147.42,162.39,167.47,,167.47,182.43,187.42,207.38,,207.38,374.85,BD,
3,Kijuana Caffey,F,35,IL,,Raw,Submasters 33-39,118.84,100+,82.42,,,,82.42,,,,,,82.42,B,
1,Kijuana Caffey,F,35,IL,,Raw,Submasters 33-39,118.84,100+,,,,,,164.97,182.43,192.41,,192.41,192.41,D,
1,Kim Flores,F,63,AZ,,Raw,Masters 61-67,58.06,60,42.41,47.4,,,47.4,,,,,,47.4,B,
1,Kim Flores,F,63,AZ,,Raw,Masters 61-67,58.06,60,,,,,,84.91,,,,84.91,84.91,D,
1,Kim Flores,F,63,AZ,,Raw,Masters 61-67,58.06,60,42.41,47.4,,,47.4,84.91,,,,84.91,132.31,BD,
1,Kim Graham,F,53,UT,,Raw,Class 1,77.2,82.5,34.93,,,,34.93,,,,,,34.93,B,
1,Kim Grimes,F,66,CA,,Single-ply,Law-Fire 64+,64.59,67.5,29.94,37.42,42.41,,42.41,,,,,,42.41,B,
1,Kim Grimes,F,66,CA,,Multi-ply,Law-Fire 64+,64.59,67.5,,,,,,79.92,87.41,97.39,102.38,97.39,97.39,D,
1,Kim Jones,F,48,IL,,Raw,Law-Fire 48-55,74.3,75,74.93,82.42,,,82.42,,,,,,82.42,B,
1,Kim Jones,F,48,IL,,Raw,Law-Fire Open,74.3,75,74.93,82.42,,,82.42,,,,,,82.42,B,
1,Kim Jones,F,48,IL,,Raw,Law-Fire 48-55,74.3,75,,,,,,102.38,114.99,124.96,,124.96,124.96,D,
1,Kim Jones,F,48,IL,,Raw,Law-Fire Open,74.3,75,,,,,,102.38,114.99,124.96,,124.96,124.96,D,
1,Kim Jones,F,48,IL,,Raw,Law-Fire 48-55,74.3,75,74.93,82.42,,,82.42,102.38,114.99,124.96,,124.96,207.38,BD,
1,Kim Jones,F,48,IL,,Raw,Law-Fire Open,74.3,75,74.93,82.42,,,82.42,102.38,114.99,124.96,,124.96,207.38,BD,
1,Kris Matsumoto,M,63,HI,,Raw,Masters 61-67,74.66,75,129.95,134.94,,,134.94,,,,,,134.94,B,
1,Kyle Bossom,M,31,WA,,Raw,Open,106.87,110,174.95,184.93,,,184.93,,,,,,184.93,B,
2,Kyle Bossom,M,31,WA,,Raw,Open,106.87,110,,,,,,204.89,217.5,,,217.5,217.5,D,
1,Kyle Bossom,M,31,WA,,Raw,Open,106.87,110,174.95,184.93,,,184.93,204.89,217.5,,,217.5,402.43,BD,
1,Kylie Sandoval,F,20,UT,,Raw,Juniors 20-25,57.24,60,64.95,,,,64.95,,,,,,64.95,B,
1,Laila Jackson,F,17,TX,,Single-ply,Teen 16-17,56.15,60,44.91,52.39,,,52.39,,,,,,52.39,B,
1,Lainey Kelly,F,52,HI,,Raw,Masters 47-53,59.96,60,,69.94,74.93,76.43,74.93,,,,,,74.93,B,
1,Lance Davis,M,56,UT,,Raw,Law-Fire 56-63,99.88,100,,,,,,192.41,207.38,,,207.38,207.38,D,
2,Larry Johnson,M,64,AZ,,Raw,Masters 61-67,88.9,90,104.87,112.49,119.98,,119.98,,,,,,119.98,B,
1,Larry Johnson,M,64,AZ,,Raw,Masters 61-67,88.9,90,,,,,,167.47,174.95,182.43,,182.43,182.43,D,
1,Larry Johnson,M,64,AZ,,Raw,Masters 61-67,88.9,90,104.87,112.49,119.98,,119.98,167.47,174.95,182.43,,182.43,302.41,BD,
1,Leamon Woodley,M,66,WA,,Single-ply,Masters 61-67,86.18,90,127.46,132.45,,,132.45,,,,,,132.45,B,
1,Leamon Woodley,M,66,WA,,Single-ply,Masters 61-67,86.18,90,,,,,,267.39,272.47,,,272.47,272.47,D,
1,Leamon Woodley,M,66,WA,,Single-ply,Masters 61-67,86.18,90,127.46,132.45,,,132.45,267.39,272.47,,,272.47,404.92,BD,
4,Leda Cole,F,38,OK,,Raw,Submasters 33-39,158.67,100+,64.95,69.94,,,69.94,,,,,,69.94,B,
4,Leda Cole,F,38,OK,,Raw,Submasters 33-39,158.67,100+,,,,,,119.98,129.95,142.43,,142.43,142.43,D,
2,Leda Cole,F,38,OK,,Raw,Submasters 33-39,158.67,100+,64.95,69.94,,,69.94,119.98,129.95,142.43,,142.43,212.37,BD,
1,Levi Davis,M,36,WA,,Raw,Class 1,136.89,140,169.96,184.93,194.91,,194.91,,,,,,194.91,B,
2,Levi Davis,M,36,WA,,Raw,Submasters 33-39,136.89,140,169.96,184.93,194.91,,194.91,,,,,,194.91,B,
1,Levi Davis,M,36,WA,,Raw,Class 1,136.89,140,,,,,,249.93,279.96,,,279.96,279.96,D,
1,Levi Davis,M,36,WA,,Raw,Submasters 33-39,136.89,140,,,,,,249.93,279.96,,,279.96,279.96,D,
1,Levi Davis,M,36,WA,,Raw,Class 1,136.89,140,169.96,184.93,194.91,,194.91,249.93,279.96,,,279.96,474.87,BD,
1,Levi Davis,M,36,WA,,Raw,Submasters 33-39,136.89,140,169.96,184.93,194.91,,194.91,249.93,279.96,,,279.96,474.87,BD,
1,Linh Ngo,F,49,WA,,Multi-ply,Class 1,54.7,56,47.4,,,,47.4,,,,,,47.4,B,
1,Linh Ngo,F,49,WA,,Multi-ply,Masters 47-53,54.7,56,47.4,,,,47.4,,,,,,47.4,B,
1,Linh Ngo,F,49,WA,,Multi-ply,Class 1,54.7,56,,,,,,102.38,110,113.49,,113.49,113.49,D,
1,Linh Ngo,F,49,WA,,Multi-ply,Masters 47-53,54.7,56,,,,,,102.38,110,113.49,,113.49,113.49,D,
1,Linh Ngo,F,49,WA,,Multi-ply,Class 1,54.7,56,47.4,,,,47.4,102.38,110,113.49,,113.49,160.89,BD,
1,Linh Ngo,F,49,WA,,Multi-ply,Masters 47-53,54.7,56,47.4,,,,47.4,102.38,110,113.49,,113.49,160.89,BD,
1,Londyn Patrick,F,12,AZ,,Raw,Teen 12-13,43.73,44,39.92,43.41,47.4,,47.4,,,,,,47.4,B,
1,Londyn Patrick,F,12,AZ,,Raw,Teen 12-13,43.73,44,,,,,,59.96,69.94,85.91,,85.91,85.91,D,
1,Londyn Patrick,F,12,AZ,,Raw,Teen 12-13,43.73,44,39.92,43.41,47.4,,47.4,59.96,69.94,85.91,,85.91,133.31,BD,
1,Maci Smith,F,17,UT,,Raw,Teen 16-17,73.66,75,67.45,74.93,,,74.93,,,,,,74.93,B,
1,Maci Smith,F,17,UT,,Raw,Teen 16-17,73.66,75,,,,,,107.37,129.95,142.43,,142.43,142.43,D,
1,Madison Garcia,F,17,TX,,Raw,Teen 16-17,64.32,67.5,64.95,72.44,,,72.44,,,,,,72.44,B,
1,Madison Garcia,F,17,TX,,Single-ply,Teen 16-17,64.32,67.5,,,,,,154.9,167.47,,,167.47,167.47,D,
1,Makala Davis,F,32,AZ,,Raw,Open,134.63,100+,92.4,99.88,110.5,,110.5,,,,,,110.5,B,
1,Makala Davis,F,32,AZ,,Raw,Open,134.63,100+,,,,,,184.93,197.4,218,,218,218,D,
1,Makala Davis,F,32,AZ,,Raw,Open,134.63,100+,92.4,99.88,110.5,,110.5,184.93,197.4,218,,218,328.5,BD,
1,Makana Kamoku,M,21,HI,,Raw,Juniors 20-25,139.16,140,142.43,,147.42,,147.42,,,,,,147.42,B,
1,Makana Kamoku,M,21,HI,,Raw,Juniors 20-25,139.16,140,,,,,,189.92,197.4,212.37,,212.37,212.37,D,
1,Makoa Nakamura,M,24,OR,,Raw,Law-Fire Open,80.74,82.5,137.44,147.92,152.41,,152.41,,,,,,152.41,B,
1,Makoa Nakamura,M,24,OR,,Raw,Law-Fire Open,80.74,82.5,,,,,,247.43,,259.91,,259.91,259.91,D,
1,Manny Burruel,M,69,CA,,Single-ply,Disabled 1 60,103.42,110,37.42,44.91,54.98,,54.98,,,,,,54.98,B,
1,Manny Burruel,M,69,CA,,Raw,Disabled 1 60,103.42,110,,,,,,79.92,94.89,112.49,122.47,112.49,112.49,D,
1,Marco Diaz,M,17,TX,,Raw,Teen 16-17,232.24,140+,164.97,,,,164.97,,,,,,164.97,B,
1,Marco Diaz,M,17,TX,,Raw,Teen 16-17,232.24,140+,,,,,,207.38,227.48,250.43,,250.43,250.43,D,
1,Marco Diaz,M,17,TX,,Raw,Teen 16-17,232.24,140+,164.97,,,,164.97,207.38,227.48,250.43,,250.43,415.4,BD,
2,Maria Villegas-Hoppe,F,51,CA,,Raw,Masters 47-53,65.32,67.5,57.47,,,,57.47,,,,,,57.47,B,
1,Maria Villegas-Hoppe,F,51,CA,,Raw,Masters 47-53,65.32,67.5,,,,,,124.96,132.45,,,132.45,132.45,D,
1,Mariano Miravalles,M,43,,Argentina,Raw,Masters 40-46,89.81,90,,,129.95,,129.95,,,,,,129.95,B,
1,Mariano Miravalles,M,43,,Argentina,Raw,Masters 40-46,89.81,90,,,,,,254.92,264.9,272.97,,272.97,272.97,D,
1,Mariano Miravalles,M,43,,Argentina,Raw,Masters 40-46,89.81,90,,,129.95,,129.95,254.92,264.9,272.97,,272.97,402.92,BD,
2,Mark Guzman,M,34,WA,,Raw,Open,89.9,90,139.93,144.92,152.91,,152.91,,,,,,152.91,B,
1,Mark Guzman,M,34,WA,,Raw,Submasters 33-39,89.9,90,139.93,144.92,152.91,,152.91,,,,,,152.91,B,
3,Mark Guzman,M,34,WA,,Raw,Open,89.9,90,,,,,,124.96,137.44,,,137.44,137.44,D,
2,Mark Guzman,M,34,WA,,Raw,Submasters 33-39,89.9,90,,,,,,124.96,137.44,,,137.44,137.44,D,
1,Mark Guzman,M,34,WA,,Raw,Open,89.9,90,139.93,144.92,152.91,,152.91,124.96,137.44,,,137.44,290.35,BD,
1,Mark Guzman,M,34,WA,,Raw,Submasters 33-39,89.9,90,139.93,144.92,152.91,,152.91,124.96,137.44,,,137.44,290.35,BD,
3,Mark Rakestraw,M,54,CA,,Raw,Law-Fire 48-55,127.91,140,97.39,110,112.49,,112.49,,,,,,112.49,B,
1,Mark Rakestraw,M,54,CA,,Multi-ply,Law-Fire 48-55,127.91,140,,,,,,124.96,132.45,147.92,152.41,147.92,147.92,D,
2,Mark Webber,M,56,WA,,Raw,Masters 54-60,106.5,110,127.46,137.94,139.93,,139.93,,,,,,139.93,B,
1,Mark Webber,M,56,WA,,Raw,Masters 54-60,106.5,110,,,,,,217.5,227.48,,,227.48,227.48,D,
1,Mark Webber,M,56,WA,,Raw,Masters 54-60,106.5,110,127.46,137.94,139.93,,139.93,217.5,227.48,,,227.48,367.41,BD,
1,Marlene Wexler,F,78,MN,,Raw,Disabled 2 60,74.12,75,,,,,,69.94,82.42,92.4,,92.4,92.4,D,
1,Marlene Wexler,F,78,MN,,Raw,Masters 75-79,74.12,75,,,,,,69.94,82.42,92.4,,92.4,92.4,D,
1,Marquita Snow-Whiten,F,39,IL,,Raw,Open,90.17,90+,92.4,,,,92.4,,,,,,92.4,B,
1,Marquita Snow-Whiten,F,39,IL,,Raw,Submasters 33-39,90.17,90+,92.4,,,,92.4,,,,,,92.4,B,
1,Marquita Snow-Whiten,F,39,IL,,Raw,Open,90.17,90+,,,,,,172.46,184.93,192.41,,192.41,192.41,D,
1,Marquita Snow-Whiten,F,39,IL,,Raw,Submasters 33-39,90.17,90+,,,,,,172.46,184.93,192.41,,192.41,192.41,D,
1,Marquita Snow-Whiten,F,39,IL,,Raw,Open,90.17,90+,92.4,,,,92.4,172.46,184.93,192.41,,192.41,284.81,BD,
1,Marquita Snow-Whiten,F,39,IL,,Raw,Submasters 33-39,90.17,90+,92.4,,,,92.4,172.46,184.93,192.41,,192.41,284.81,BD,
1,Marsha Goodman,F,68,AZ,,Raw,Masters 68-74,63.32,67.5,,,,,,99.88,115.48,,,115.48,115.48,D,
2,Mason Sorensen,M,19,WA,,Raw,Teen 18-19,98.61,100,124.96,129.95,,,129.95,,,,,,129.95,B,
1,Mason Sorensen,M,19,WA,,Raw,Teen 18-19,98.61,100,,,,,,249.93,,,,249.93,249.93,D,
1,Mason Sorensen,M,19,WA,,Raw,Teen 18-19,98.61,100,124.96,129.95,,,129.95,249.93,,,,249.93,379.88,BD,
1,Mateo Ramirez,M,23,CA,,Multi-ply,Juniors 20-25,81.37,82.5,127.46,137.44,,,137.44,,,,,,137.44,B,
1,Mateo Ramirez,M,23,CA,,Multi-ply,Juniors 20-25,81.37,82.5,,,,,,174.95,190.42,197.4,,197.4,197.4,D,
1,Mateo Ramirez,M,23,CA,,Multi-ply,Juniors 20-25,81.37,82.5,127.46,137.44,,,137.44,174.95,190.42,197.4,,197.4,334.84,BD,
1,Mathew Carpentier,M,34,AZ,,Raw,Submasters 33-39,88.72,90,,,,,,182.43,192.41,202.39,,202.39,202.39,D,
1,Matt Estes,M,41,OR,,Raw,Disabled 2 40-59,178.08,140+,79.92,,84.91,,84.91,,,,,,84.91,B,
3,Matt Estes,M,41,OR,,Raw,Open,178.08,140+,79.92,,84.91,,84.91,,,,,,84.91,B,
1,Matt Estes,M,41,OR,,Raw,Disabled 2 40-59,178.08,140+,,,,,,79.92,,89.9,,89.9,89.9,D,
3,Matt Estes,M,41,OR,,Raw,Open,178.08,140+,,,,,,79.92,,89.9,,89.9,89.9,D,
1,Matt Estes,M,41,OR,,Raw,Disabled 2 40-59,178.08,140+,79.92,,84.91,,84.91,79.92,,89.9,,89.9,174.81,BD,
1,Matt Maini,M,55,AL,,Raw,Masters 54-60,115.48,117.5,,,,,,259.91,,,,259.91,259.91,D,
1,Matt Slate,M,42,NV,,Raw,Masters 40-46,133.54,140,197.4,199.9,,,199.9,,,,,,199.9,B,
2,Matt Slate,M,42,NV,,Raw,Open,133.54,140,197.4,199.9,,,199.9,,,,,,199.9,B,
1,Matt Slate,M,42,NV,,Raw,Masters 40-46,133.54,140,,,,,,259.91,272.47,279.96,,279.96,279.96,D,
1,Matt Slate,M,42,NV,,Raw,Open,133.54,140,,,,,,259.91,272.47,279.96,,279.96,279.96,D,
1,Matt Slate,M,42,NV,,Raw,Masters 40-46,133.54,140,197.4,199.9,,,199.9,259.91,272.47,279.96,,279.96,479.86,BD,
1,Matt Slate,M,42,NV,,Raw,Open,133.54,140,197.4,199.9,,,199.9,259.91,272.47,279.96,,279.96,479.86,BD,
1,Melissa Milk,F,52,NV,,Raw,Masters 47-53,74.03,75,,,,,,114.99,137.44,,,137.44,137.44,D,
1,Melissa Texeira,F,52,HI,,Raw,Class 1,70.49,75,59.96,62.46,,,62.46,,,,,,62.46,B,
2,Melissa Texeira,F,52,HI,,Raw,Class 1,70.49,75,,,,,,102.38,110,,,110,110,D,
1,Melissa Wong-Yuen,F,42,HI,,Raw,Masters 40-46,54.79,56,48.9,,52.39,,52.39,,,,,,52.39,B,
1,Melissa Wong-Yuen,F,42,HI,,Multi-ply,Masters 40-46,54.79,56,,,,,,121.47,137.44,,,137.44,137.44,D,
3,Mike Desrosiers,M,50,AZ,,Raw,Masters 47-53,103.15,110,147.42,154.9,,,154.9,,,,,,154.9,B,
2,Mike Desrosiers,M,50,AZ,,Raw,Masters 47-53,103.15,110,,,,,,242.45,259.91,,,259.91,259.91,D,
2,Mike Desrosiers,M,50,AZ,,Raw,Masters 47-53,103.15,110,147.42,154.9,,,154.9,242.45,259.91,,,259.91,414.81,BD,
1,Michael Happach,M,57,IL,,Single-ply,Class 1,108.59,110,,209.88,,,209.88,,,,,,209.88,B,
2,Michael Happach,M,57,IL,,Single-ply,Class 1,108.59,110,209.88,,,,209.88,,,,,,209.88,B,
1,Michael Happach,M,57,IL,,Single-ply,Masters 54-60,108.59,110,,209.88,,,209.88,,,,,,209.88,B,
1,Michael Pearson,M,27,WA,,Single-ply,Open,45.18,48,79.92,87.41,,,87.41,,,,,,87.41,B,
1,Michael Pearson,M,27,WA,,Single-ply,Open,45.18,48,,,,,,104.87,112.49,,,112.49,112.49,D,
1,Michael Pearson,M,27,WA,,Single-ply,Open,45.18,48,79.92,87.41,,,87.41,104.87,112.49,,,112.49,199.9,BD,
1,Michiel Breen,M,22,CA,,Raw,Juniors 20-25,80.1,82.5,149.91,,,,149.91,,,,,,149.91,B,
2,Michiel Breen,M,22,CA,,Raw,Open,80.1,82.5,149.91,,,,149.91,,,,,,149.91,B,
2,Michiel Breen,M,22,CA,,Raw,Juniors 20-25,80.1,82.5,,,,,,199.9,214.87,227.48,,227.48,227.48,D,
3,Michiel Breen,M,22,CA,,Raw,Open,80.1,82.5,,,,,,199.9,214.87,227.48,,227.48,227.48,D,
2,Miguel Bacallao,M,29,TX,,Raw,Open,101.79,110,144.92,149.91,,,149.91,,,,,,149.91,B,
1,Miguel Bacallao,M,29,TX,,Raw,Open,101.79,110,,,,,,232.47,237.46,,,237.46,237.46,D,
2,Miguel Bacallao,M,29,TX,,Raw,Open,101.79,110,144.92,149.91,,,149.91,232.47,237.46,,,237.46,387.37,BD,
2,Mike Borelli,M,29,NV,,Raw,Open,115.21,117.5,,,,,,174.95,194.91,,,194.91,194.91,D,
1,Mike Flood,M,73,WA,,Raw,Masters 68-74,73.75,75,,74.93,,,74.93,,,,,,74.93,B,
1,Mike Johnson,M,67,CA,,Multi-ply,Law-Fire 64+,131.9,140,79.92,84.91,,,84.91,,,,,,84.91,B,
1,Mike Johnson,M,67,CA,,Multi-ply,Law-Fire 64+,131.9,140,,,,,,124.96,132.45,140.43,142.43,140.43,140.43,D,
1,Mike Tanner,M,59,OK,,Single-ply,Masters 54-60,89.27,90,124.96,152.41,159.89,,159.89,,,,,,159.89,B,
1,Mike Valdes,M,58,MI,,Raw,Masters 54-60,135.17,140,132.45,,144.92,,144.92,,,,,,144.92,B,
2,Mike Valdes,M,58,MI,,Raw,Masters 54-60,135.17,140,,,,,,122.47,142.43,149.91,,149.91,149.91,D,
1,Mike Valdes,M,58,MI,,Raw,Masters 54-60,135.17,140,132.45,,144.92,,144.92,122.47,142.43,149.91,,149.91,294.83,BD,
1,Miley Anderson,F,15,WA,,Raw,Teen 14-15,55.07,56,47.4,,,,47.4,,,,,,47.4,B,
1,Miley Anderson,F,15,WA,,Raw,Teen 14-15,55.07,56,,,,,,104.87,112.49,,,112.49,112.49,D,
1,Miley Anderson,F,15,WA,,Raw,Teen 14-15,55.07,56,47.4,,,,47.4,104.87,112.49,,,112.49,159.89,BD,
1,Mirian Cobarrubias,F,56,OR,,Raw,Masters 54-60,79.2,82.5,82.42,,,,82.42,,,,,,82.42,B,
2,Mirian Cobarrubias,F,56,OR,,Raw,Open,79.2,82.5,82.42,,,,82.42,,,,,,82.42,B,
1,Mirian Cobarrubias,F,56,OR,,Raw,Masters 54-60,79.2,82.5,,,,,,187.42,197.4,199.9,,199.9,199.9,D,
1,Mirian Cobarrubias,F,56,OR,,Raw,Open,79.2,82.5,,,,,,187.42,197.4,199.9,,199.9,199.9,D,
1,Mirian Cobarrubias,F,56,OR,,Raw,Masters 54-60,79.2,82.5,82.42,,,,82.42,187.42,197.4,199.9,,199.9,282.32,BD,
1,Mirian Cobarrubias,F,56,OR,,Raw,Open,79.2,82.5,82.42,,,,82.42,187.42,197.4,199.9,,199.9,282.32,BD,
1,Misty Rendleman,F,51,OK,,Single-ply,Masters 47-53,56.7,60,97.39,104.87,,,104.87,,,,,,104.87,B,
1,Misty Rendleman,F,51,OK,,Single-ply,Masters 47-53,56.7,60,,,,,,,192.91,202.39,,202.39,202.39,D,
1,Misty Rendleman,F,51,OK,,Single-ply,Masters 47-53,56.7,60,97.39,104.87,,,104.87,,192.91,202.39,,202.39,307.26,BD,
2,Morgan McRae,F,18,UT,,Raw,Teen 18-19,65.23,67.5,34.93,39.92,,,39.92,,,,,,39.92,B,
2,Morgan McRae,F,18,UT,,Raw,Teen 18-19,65.23,67.5,,,,,,84.91,97.39,,,97.39,97.39,D,
1,Nadia Guadarrama,F,23,OR,,Raw,Juniors 20-25,89.9,90,,85.41,,,85.41,,,,,,85.41,B,
1,Nadia Guadarrama,F,23,OR,,Raw,Juniors 20-25,89.9,90,,,,,,184.93,,,,184.93,184.93,D,
1,Nancy-Ann Dooley,F,66,CA,,Raw,Masters 61-67,86.55,90,57.47,,,,57.47,,,,,,57.47,B,
1,Nancy-Ann Dooley,F,66,CA,,Raw,Masters 61-67,86.55,90,,,,,,134.94,142.43,149.91,,149.91,149.91,D,
1,Natalie Caughey,F,33,UT,,Raw,Class 1,93.8,100,47.4,54.98,59.96,,59.96,,,,,,59.96,B,
1,Natalie Caughey,F,33,UT,,Raw,Class 1,93.8,100,,,,,,124.96,132.45,139.93,,139.93,139.93,D,
1,Natalie Caughey,F,33,UT,,Raw,Class 1,93.8,100,47.4,54.98,59.96,,59.96,124.96,132.45,139.93,,139.93,199.89,BD,
1,Natalie McChesney,F,49,CA,,Raw,Masters 47-53,82.28,82.5,57.47,62.46,,,62.46,,,,,,62.46,B,
1,Natalie McChesney,F,49,CA,,Raw,Masters 47-53,82.28,82.5,,,,,,114.99,127.46,,,127.46,127.46,D,
1,Nathan Holz,M,,NV,,Raw,Teen 12-13,44.81,48,24.95,27.44,,,27.44,,,,,,27.44,B,
1,Nathan Holz,M,,NV,,Raw,Teen 12-13,44.81,48,,,,,,39.92,47.4,54.98,,54.98,54.98,D,
1,Nathan Holz,M,,NV,,Raw,Teen 12-13,44.81,48,24.95,27.44,,,27.44,39.92,47.4,54.98,,54.98,82.42,BD,
1,Nicholas Anderson,M,20,AZ,,Raw,Juniors 20-25,123.38,125,,,,,,187.42,,,,187.42,187.42,D,
1,Nick Massey,M,54,CA,,Multi-ply,Masters 54-60,107.95,110,227.48,,,,227.48,,,,,,227.48,B,
1,Nick Massey,M,54,CA,,Multi-ply,Open,107.95,110,227.48,,,,227.48,,,,,,227.48,B,
4,Nick Pastorello,M,26,NV,,Raw,Open,137.62,140,119.98,137.44,142.43,,142.43,,,,,,142.43,B,
2,Nick Pastorello,M,26,NV,,Raw,Open,137.62,140,,,,,,239.95,272.47,277.46,,277.46,277.46,D,
2,Nick Pastorello,M,26,NV,,Raw,Open,137.62,140,119.98,137.44,142.43,,142.43,239.95,272.47,277.46,,277.46,419.89,BD,
1,Nicole Niblett,F,30,AR,,Raw,Open,79.83,82.5,82.42,92.4,,,92.4,,,,,,92.4,B,
2,Nicole Niblett,F,30,AR,,Raw,Open,79.83,82.5,,,,,,147.42,164.97,,,164.97,164.97,D,
2,Nicole Niblett,F,30,AR,,Raw,Open,79.83,82.5,82.42,92.4,,,92.4,147.42,164.97,,,164.97,257.37,BD,
1,Nicole Stathatos,F,30,CA,,Raw,Class 1,71.94,75,,,,,,147.42,,,,147.42,147.42,D,
1,Nikolai White,M,26,AZ,,Single-ply,Open,137.8,140,209.88,,,,209.88,,,,,,209.88,B,
1,Nikolai White,M,26,AZ,,Single-ply,Open,137.8,140,,,,,,297.42,,,,297.42,297.42,D,
1,Nikolai White,M,26,AZ,,Single-ply,Open,137.8,140,209.88,,,,209.88,297.42,,,,297.42,507.3,BD,
1,Nino Domingo,M,60,AZ,,Raw,Masters 54-60,78.29,82.5,52.39,69.94,79.92,,79.92,,,,,,79.92,B,
1,Nino Domingo,M,60,AZ,,Raw,Masters 54-60,78.29,82.5,,,,,,124.96,149.91,,,149.91,149.91,D,
1,Nino Domingo,M,60,AZ,,Raw,Masters 54-60,78.29,82.5,52.39,69.94,79.92,,79.92,124.96,149.91,,,149.91,229.83,BD,
1,Olício dos Santos Filho,M,79,,Brazil,Single-ply,Masters 75-79,89.18,90,,,,,,242.45,252.42,262.4,,262.4,262.4,D,
1,Owen Hadley,M,14,UT,,Raw,Teen 14-15,65.59,67.5,77.43,,,,77.43,,,,,,77.43,B,
2,Owen Hadley,M,14,UT,,Raw,Teen 14-15,65.59,67.5,,,,,,102.38,119.98,129.95,,129.95,129.95,D,
1,Patrick Garrahan,M,65,NV,,Raw,Law-Fire 64+,138.8,140,115.48,122.47,127.46,,127.46,,,,,,127.46,B,
1,Patrick Garrahan,M,65,NV,,Raw,Law-Fire 64+,138.8,140,,,,,,174.95,184.93,,,184.93,184.93,D,
1,Patrick Garrahan,M,65,NV,,Raw,Law-Fire 64+,138.8,140,115.48,122.47,127.46,,127.46,174.95,184.93,,,184.93,312.39,BD,
1,Patrick Young,M,60,ID,,Single-ply,Masters 54-60,81.28,82.5,112.49,124.96,,,124.96,,,,,,124.96,B,
1,Patrick Young,M,60,ID,,Single-ply,Masters 54-60,81.28,82.5,,,,,,184.93,194.91,,,194.91,194.91,D,
1,Patti Davis,F,59,CA,,Raw,Masters 54-60,64.41,67.5,54.98,57.47,,,57.47,,,,,,57.47,B,
1,Patti Davis,F,59,CA,,Raw,Masters 54-60,64.41,67.5,,,,,,87.41,97.39,,,97.39,97.39,D,
2,Paul Downes,M,75,FL,,Raw,Masters 75-79,73.94,75,47.4,52.39,57.47,,57.47,,,,,,57.47,B,
3,Paul Downes,M,75,FL,,Raw,Masters 75-79,73.94,75,,,,,,54.98,64.95,69.94,,69.94,69.94,D,
2,Paulo Shakarian,M,43,AZ,,Raw,Masters 40-46,92.44,100,99.88,110,,,110,,,,,,110,B,
2,Paulo Shakarian,M,43,AZ,,Raw,Masters 40-46,92.44,100,,,,,,,237.46,,,237.46,237.46,D,
1,Paulo Shakarian,M,43,AZ,,Raw,Masters 40-46,92.44,100,99.88,110,,,110,,237.46,,,237.46,347.46,BD,
1,Peach Presley,F,67,CA,,Multi-ply,Masters 61-67,67.04,67.5,94.89,99.88,,105.87,99.88,,,,,,99.88,B,
1,Peach Presley,F,67,CA,,Multi-ply,Open,67.04,67.5,94.89,99.88,,,99.88,,,,,,99.88,B,
1,Peach Presley,F,67,CA,,Multi-ply,Masters 61-67,67.04,67.5,,,,,,142.43,149.91,,,149.91,149.91,D,
1,Peach Presley,F,67,CA,,Multi-ply,Open,67.04,67.5,,,,,,142.43,149.91,,,149.91,149.91,D,
1,Peach Presley,F,67,CA,,Multi-ply,Masters 61-67,67.04,67.5,94.89,99.88,,,99.88,142.43,149.91,,,149.91,249.79,BD,
1,Peach Presley,F,67,CA,,Multi-ply,Open,67.04,67.5,94.89,99.88,,,99.88,142.43,149.91,,,149.91,249.79,BD,
1,Percy Taylor,M,60,TX,,Multi-ply,Masters 54-60,89.18,90,,127.46,132.45,,132.45,,,,,,132.45,B,
1,Percy Taylor,M,60,TX,,Multi-ply,Masters 54-60,89.18,90,,,,,,59.96,,,,59.96,59.96,D,
1,Percy Taylor,M,60,TX,,Multi-ply,Masters 54-60,89.18,90,,127.46,132.45,,132.45,59.96,,,,59.96,192.41,BD,
1,Phillip Davis,M,27,OK,,Raw,Class 1,142.43,140+,110,117.48,,,117.48,,,,,,117.48,B,
1,Phillip Davis,M,27,OK,,Raw,Class 1,142.43,140+,,,,,,177.45,187.42,192.41,,192.41,192.41,D,
1,Phillip Davis,M,27,OK,,Raw,Class 1,142.43,140+,110,117.48,,,117.48,177.45,187.42,192.41,,192.41,309.89,BD,
1,Randy Hilmer,M,59,AR,,Raw,Masters 54-60,89.9,90,147.42,152.41,,,152.41,,,,,,152.41,B,
1,Randy Waldorf,M,71,MN,,Multi-ply,Masters 68-74,81.92,82.5,,,,,,134.94,147.42,,,147.42,147.42,D,
1,Raul Gerardo Rivas Lizano,M,65,,Peru,Raw,Masters 61-67,62.51,67.5,59.96,64.95,69.94,,69.94,,,,,,69.94,B,
2,Raul Gerardo Rivas Lizano,M,65,,Peru,Raw,Masters 61-67,62.51,67.5,,,,,,79.92,89.9,99.88,,99.88,99.88,D,
1,Ricardo Nort,M,50,,Brazil,Raw,Masters 47-53,141.97,140+,179.94,189.92,,,189.92,,,,,,189.92,B,
2,Ricardo Nort,M,50,,Brazil,Raw,Open,141.97,140+,179.94,189.92,,,189.92,,,,,,189.92,B,
1,Ricardo Nort,M,50,,Brazil,Raw,Masters 47-53,141.97,140+,,,,,,279.96,,,,279.96,279.96,D,
2,Ricardo Nort,M,50,,Brazil,Raw,Open,141.97,140+,,,,,,279.96,,,,279.96,279.96,D,
1,Ricardo Nort,M,50,,Brazil,Raw,Masters 47-53,141.97,140+,179.94,189.92,,,189.92,279.96,,,,279.96,469.88,BD,
2,Ricardo Nort,M,50,,Brazil,Raw,Open,141.97,140+,179.94,189.92,,,189.92,279.96,,,,279.96,469.88,BD,
1,Richard Cirigliano,M,68,CA,,Single-ply,Masters 68-74,78.83,82.5,,,,,,192.41,227.48,,,227.48,227.48,D,
1,Richard Graham,M,52,UT,,Raw,Class 1,109.86,110,99.88,107.37,,,107.37,,,,,,107.37,B,
1,Richard Kamoku,M,44,HI,,Multi-ply,Masters 40-46,116.94,117.5,,,,,,309.89,,,,309.89,309.89,D,
1,Richard Kamoku,M,44,HI,,Multi-ply,Open,116.94,117.5,,,,,,309.89,,,,309.89,309.89,D,
2,Richard Scales,M,33,TX,,Raw,Submasters 33-39,117.21,117.5,110,124.96,129.95,,129.95,,,,,,129.95,B,
2,Richard Scales,M,33,TX,,Raw,Submasters 33-39,117.21,117.5,,,,,,184.93,204.89,227.48,,227.48,227.48,D,
2,Richard Scales,M,33,TX,,Raw,Submasters 33-39,117.21,117.5,110,124.96,129.95,,129.95,184.93,204.89,227.48,,227.48,357.43,BD,
1,Rihanna Cuellar,F,14,TX,,Raw,Teen 14-15,79.47,82.5,37.42,,,,37.42,,,,,,37.42,B,
1,Rihanna Cuellar,F,14,TX,,Raw,Teen 14-15,79.47,82.5,,,,,,92.4,107.37,,,107.37,107.37,D,
1,Robert Batko,M,77,MI,,Single-ply,Masters 75-79,82.37,82.5,69.94,,74.93,,74.93,,,,,,74.93,B,
1,Robert Batko,M,77,MI,,Single-ply,Masters 75-79,82.37,82.5,,,,,,169.96,184.93,,,184.93,184.93,D,
1,Robert Batko,M,77,MI,,Single-ply,Masters 75-79,82.37,82.5,69.94,,74.93,,74.93,169.96,184.93,,,184.93,259.86,BD,
1,Robert Hill,M,76,OR,,Raw,Masters 75-79,82.46,82.5,,97.39,,,97.39,,,,,,97.39,B,
1,Robert Jackson,M,67,TX,,Multi-ply,Disabled 2 60,115.48,117.5,102.38,114.99,124.96,,124.96,,,,,,124.96,B,
1,Roberto Rios Jr,M,24,TX,,Raw,Disabled 2 20-39,81.56,82.5,,,85.41,87.41,85.41,,,,,,85.41,B,
1,Roberto Rios Jr,M,24,TX,,Raw,Special Olympian,81.56,82.5,,,85.41,87.41,85.41,,,,,,85.41,B,
1,Roberto Rios Jr,M,24,TX,,Raw,Disabled 2 20-39,81.56,82.5,,,,,,97.39,104.87,114.99,,114.99,114.99,D,
1,Roberto Rios Jr,M,24,TX,,Raw,Special Olympian,81.56,82.5,,,,,,97.39,104.87,114.99,,114.99,114.99,D,
2,Roger Sturdevant,M,73,WI,,Raw,Masters 68-74,96.89,100,57.47,,,,57.47,,,,,,57.47,B,
3,Roger Sturdevant,M,73,WI,,Raw,Masters 68-74,96.89,100,,,,,,104.87,110,112.49,,112.49,112.49,D,
1,Roger Sturdevant,M,73,WI,,Raw,Masters 68-74,96.89,100,57.47,,,,57.47,104.87,110,112.49,,112.49,169.96,BD,
1,Ronald Heldt,M,24,NV,,Raw,Juniors 20-25,151.95,140+,59.96,74.93,,,74.93,,,,,,74.93,B,
1,Ronald Heldt,M,24,NV,,Raw,Juniors 20-25,151.95,140+,,,,,,117.48,144.92,152.41,,152.41,152.41,D,
1,Ronald Heldt,M,24,NV,,Raw,Juniors 20-25,151.95,140+,59.96,74.93,,,74.93,117.48,144.92,152.41,,152.41,227.34,BD,
3,Rowan Clark,M,16,AZ,,Raw,Teen 16-17,60.96,67.5,39.92,44.91,52.39,,52.39,,,,,,52.39,B,
3,Rowan Clark,M,16,AZ,,Raw,Teen 16-17,60.96,67.5,,,,,,59.96,77.43,82.42,,82.42,82.42,D,
3,Rowan Clark,M,16,AZ,,Raw,Teen 16-17,60.96,67.5,39.92,44.91,52.39,,52.39,59.96,77.43,82.42,,82.42,134.81,BD,
1,Ryan Sandoval,M,49,UT,,Single-ply,Masters 47-53,81.1,82.5,184.93,,,,184.93,,,,,,184.93,B,
3,Ryan Sinkler,M,28,MO,,Raw,Open,139.62,140,,159.89,,,159.89,,,,,,159.89,B,
4,Ryan Sinkler,M,28,MO,,Raw,Open,139.62,140,,,,,,184.93,212.37,229.97,,229.97,229.97,D,
3,Ryan Sinkler,M,28,MO,,Raw,Open,139.62,140,,159.89,,,159.89,184.93,212.37,229.97,,229.97,389.86,BD,
1,Ryan Snelling,M,43,MO,,Multi-ply,Masters 40-46,74.66,75,,,,,,237.46,262.4,,,262.4,262.4,D,
1,Ryan Snelling,M,43,MO,,Multi-ply,Open,74.66,75,,,,,,237.46,262.4,,,262.4,262.4,D,
1,Ryan Tenorio,M,37,HI,,Raw,Open,80.83,82.5,144.92,152.41,,,152.41,,,,,,152.41,B,
1,Ryan Tenorio,M,37,HI,,Raw,Submasters 33-39,80.83,82.5,144.92,152.41,,,152.41,,,,,,152.41,B,
2,Ryan Tenorio,M,37,HI,,Raw,Open,80.83,82.5,,,,,,264.9,,,,264.9,264.9,D,
1,Ryan Tenorio,M,37,HI,,Raw,Submasters 33-39,80.83,82.5,,,,,,264.9,,,,264.9,264.9,D,
1,Ryan Tenorio,M,37,HI,,Raw,Open,80.83,82.5,144.92,152.41,,,152.41,264.9,,,,264.9,417.31,BD,
1,Ryan Tenorio,M,37,HI,,Raw,Submasters 33-39,80.83,82.5,144.92,152.41,,,152.41,264.9,,,,264.9,417.31,BD,
1,Sadee Jones,F,30,WA,,Raw,Law-Fire Open,96.62,100,92.4,102.38,110,,110,,,,,,110,B,
1,Sadee Jones,F,30,WA,,Raw,Open,96.62,100,92.4,102.38,110,,110,,,,,,110,B,
1,Sadee Jones,F,30,WA,,Raw,Law-Fire Open,96.62,100,,,,,,182.43,192.41,202.39,207.38,202.39,202.39,D,
1,Sadee Jones,F,30,WA,,Raw,Open,96.62,100,,,,,,182.43,192.41,202.39,207.38,202.39,202.39,D,
1,Sagui Macias,F,51,CA,,Multi-ply,Masters 47-53,63.59,67.5,37.42,42.41,,,42.41,,,,,,42.41,B,
1,Sagui Macias,F,51,CA,,Multi-ply,Masters 47-53,63.59,67.5,,,,,,99.88,110,120.97,122.47,120.97,120.97,D,
2,Sam Gaddis,M,20,AR,,Raw,Juniors 20-25,81.92,82.5,127.46,134.94,140.43,,140.43,,,,,,140.43,B,
3,Sam Gaddis,M,20,AR,,Raw,Open,81.92,82.5,127.46,134.94,140.43,,140.43,,,,,,140.43,B,
1,Sam Gaddis,M,20,AR,,Raw,Juniors 20-25,81.92,82.5,,,,,,249.93,264.9,272.97,,272.97,272.97,D,
1,Sam Gaddis,M,20,AR,,Raw,Open,81.92,82.5,,,,,,249.93,264.9,272.97,,272.97,272.97,D,
1,Sam Gaddis,M,20,AR,,Raw,Juniors 20-25,81.92,82.5,127.46,134.94,140.43,,140.43,249.93,264.9,272.97,,272.97,413.4,BD,
2,Sam Gaddis,M,20,AR,,Raw,Open,81.92,82.5,127.46,134.94,140.43,,140.43,249.93,264.9,272.97,,272.97,413.4,BD,
2,Scott Bromeisl,M,54,WI,,Single-ply,Masters 54-60,174.63,140+,214.87,,,,214.87,,,,,,214.87,B,
2,Scott Bromeisl,M,54,WI,,Single-ply,Masters 54-60,174.63,140+,,,,,,227.48,234.96,242.45,,242.45,242.45,D,
1,Scott Bromeisl,M,54,WI,,Single-ply,Masters 54-60,174.63,140+,214.87,,,,214.87,227.48,234.96,242.45,,242.45,457.32,BD,
1,Scottie Jordan,M,27,AZ,,Raw,Open,88.18,90,157.4,164.97,,,164.97,,,,,,164.97,B,
1,Scottie Jordan,M,27,AZ,,Raw,Open,88.18,90,,,,,,254.92,,,,254.92,254.92,D,
1,Sergio Avitua,M,17,TX,,Raw,Teen 16-17,106.05,110,99.88,112.49,,,112.49,,,,,,112.49,B,
1,Sesolo Cocker,M,31,HI,,Raw,Class 1,96.62,100,172.46,,,,172.46,,,,,,172.46,B,
2,Shaun Straka,M,16,WA,,Raw,Teen 16-17,84.1,90,87.41,94.89,,,94.89,,,,,,94.89,B,
1,Shaun Straka,M,16,WA,,Raw,Teen 16-17,84.1,90,,,,,,187.42,,,,187.42,187.42,D,
2,Shaun Straka,M,16,WA,,Raw,Teen 16-17,84.1,90,87.41,94.89,,,94.89,187.42,,,,187.42,282.31,BD,
1,Shawn Cain,M,36,WA,,Raw,Submasters 33-39,130.91,140,177.45,184.93,197.4,,197.4,,,,,,197.4,B,
2,Shawn Cain,M,36,WA,,Raw,Submasters 33-39,130.91,140,,,,,,264.9,277.46,,,277.46,277.46,D,
2,Shawn Cain,M,36,WA,,Raw,Submasters 33-39,130.91,140,177.45,184.93,197.4,,197.4,264.9,277.46,,,277.46,474.86,BD,
2,Smo Soekardi,M,52,CA,,Raw,Masters 47-53,106.41,110,167.47,,,,167.47,,,,,,167.47,B,
1,Smo Soekardi,M,52,CA,,Raw,Masters 47-53,106.41,110,,,,,,259.91,272.47,,,272.47,272.47,D,
1,Smo Soekardi,M,52,CA,,Raw,Masters 47-53,106.41,110,167.47,,,,167.47,259.91,272.47,,,272.47,439.94,BD,
1,Spencer Shoesmith,M,27,ID,,Single-ply,Open,88.72,90,292.43,,,308.4,292.43,,,,,,292.43,B,
1,Stacy Matsuyama-Sekioka,F,44,HI,,Single-ply,Masters 40-46,59.24,60,,97.39,102.87,,102.87,,,,,,102.87,B,
1,Stacy Matsuyama-Sekioka,F,44,HI,,Single-ply,Open,59.24,60,,97.39,102.87,,102.87,,,,,,102.87,B,
1,Stephanie Rainey,F,45,OK,,Raw,Masters 40-46,70.58,75,,,,,,114.99,117.98,,,117.98,117.98,D,
2,Stephanie Rainey,F,45,OK,,Raw,Open,70.58,75,,,,,,114.99,117.98,,,117.98,117.98,D,
2,Steven Petersen,M,57,TX,,Multi-ply,Masters 54-60,90.81,100,,,,,,182.43,,,,182.43,182.43,D,
2,Steven Petersen,M,57,TX,,Multi-ply,Open,90.81,100,,,,,,182.43,,,,182.43,182.43,D,
1,Steven Rosenberg,M,71,TX,,Raw,Masters 68-74,92.44,100,,,,,,177.45,,,,177.45,177.45,D,
1,Susan Chloupek,F,70,WA,,Single-ply,Class 1,58.79,60,49.9,,,,49.9,,,,,,49.9,B,
1,Susan Chloupek,F,70,WA,,Single-ply,Masters 68-74,58.79,60,49.9,,,,49.9,,,,,,49.9,B,
1,Susan Chloupek,F,70,WA,,Single-ply,Class 1,58.79,60,,,,,,110,119.98,,,119.98,119.98,D,
1,Susan Chloupek,F,70,WA,,Single-ply,Masters 68-74,58.79,60,,,,,,110,119.98,,,119.98,119.98,D,
1,Susan Chloupek,F,70,WA,,Single-ply,Class 1,58.79,60,49.9,,,,49.9,110,119.98,,,119.98,169.88,BD,
1,Susan Chloupek,F,70,WA,,Single-ply,Masters 68-74,58.79,60,49.9,,,,49.9,110,119.98,,,119.98,169.88,BD,
2,Tadhge Conway,M,33,CA,,Raw,Law-Fire Open,88.99,90,129.95,,137.44,,137.44,,,,,,137.44,B,
1,Tadhge Conway,M,33,CA,,Raw,Law-Fire Open,88.99,90,,,,,,232.47,239.95,247.43,253.42,247.43,247.43,D,
1,Tadhge Conway,M,33,CA,,Raw,Law-Fire Open,88.99,90,129.95,,137.44,,137.44,232.47,239.95,247.43,253.42,247.43,384.87,BD,
1,Talon Ota,M,28,HI,,Raw,Class 1,74.12,75,132.45,137.94,,,137.94,,,,,,137.94,B,
1,Talon Ota,M,28,HI,,Raw,Class 1,74.12,75,,,,,,227.48,234.96,,,234.96,234.96,D,
1,Talon Ota,M,28,HI,,Raw,Class 1,74.12,75,132.45,137.94,,,137.94,227.48,234.96,,,234.96,372.9,BD,
1,Tamara Perry,F,47,HI,,Raw,Masters 47-53,99.88,100,62.46,67.45,72.44,,72.44,,,,,,72.44,B,
1,Tamara Perry,F,47,HI,,Raw,Masters 47-53,99.88,100,,,,,,142.43,147.42,154.9,,154.9,154.9,D,
1,Tamara Perry,F,47,HI,,Raw,Masters 47-53,99.88,100,62.46,67.45,72.44,,72.44,142.43,147.42,154.9,,154.9,227.34,BD,
1,Tanya Rono,F,36,AZ,,Raw,Open,64.5,67.5,93.39,97.39,,,97.39,,,,,,97.39,B,
1,Tanya Rono,F,36,AZ,,Raw,Submasters 33-39,64.5,67.5,93.39,97.39,,,97.39,,,,,,97.39,B,
1,Tanya Rono,F,36,AZ,,Raw,Open,64.5,67.5,,,,,,154.9,167.47,,,167.47,167.47,D,
1,Tanya Rono,F,36,AZ,,Raw,Submasters 33-39,64.5,67.5,,,,,,154.9,167.47,,,167.47,167.47,D,
1,Tanya Rono,F,36,AZ,,Raw,Open,64.5,67.5,93.39,97.39,,,97.39,154.9,167.47,,,167.47,264.86,BD,
1,Tanya Rono,F,36,AZ,,Raw,Submasters 33-39,64.5,67.5,93.39,97.39,,,97.39,154.9,167.47,,,167.47,264.86,BD,
1,Ted Stewart,M,67,WY,,Single-ply,Masters 61-67,121.65,125,117.48,122.47,,,122.47,,,,,,122.47,B,
1,Ted Stewart,M,67,WY,,Single-ply,Masters 61-67,121.65,125,,,,,,182.43,199.9,204.89,,204.89,204.89,D,
1,Ted Stewart,M,67,WY,,Single-ply,Masters 61-67,121.65,125,117.48,122.47,,,122.47,182.43,199.9,204.89,,204.89,327.36,BD,
1,Teena Crotty,F,59,AR,,Raw,Disabled 2 40-59,72.57,75,52.39,57.47,59.96,,59.96,,,,,,59.96,B,
1,Teena Crotty,F,59,AR,,Raw,Masters 54-60,72.57,75,52.39,57.47,59.96,,59.96,,,,,,59.96,B,
1,Teena Crotty,F,59,AR,,Raw,Disabled 2 40-59,72.57,75,,,,,,99.88,104.87,,,104.87,104.87,D,
1,Teena Crotty,F,,AR,,Raw,Masters 54-60,72.57,75,,,,,,99.88,104.87,,,104.87,104.87,D,
1,Teena Crotty,F,,AR,,Raw,Disabled 2 40-59,72.57,75,52.39,57.47,59.96,,59.96,99.88,104.87,,,104.87,164.83,BD,
1,Teena Crotty,F,,AR,,Raw,Masters 54-60,72.57,75,52.39,57.47,59.96,,59.96,99.88,104.87,,,104.87,164.83,BD,
1,Teisa Manuofetoa,F,,HI,,Raw,Teen 12-13,115.94,100+,52.39,57.47,62.46,,62.46,,,,,,62.46,B,
1,Teisa Manuofetoa,F,,HI,,Raw,Teen 12-13,115.94,100+,,,,,,129.95,137.94,139.93,142.43,139.93,139.93,D,
1,Teisa Manuofetoa,F,,HI,,Raw,Teen 12-13,115.94,100+,52.39,57.47,62.46,,62.46,129.95,137.94,139.93,142.43,139.93,202.39,BD,
1,Thomas Burke,M,,AZ,,Raw,Masters 54-60,89.09,90,,,,,,232.47,249.93,259.91,,259.91,259.91,D,
1,Thomas Guiney,M,,OK,,Single-ply,Masters 54-60,160.3,140+,,,,,,232.47,242.45,,,242.45,242.45,D,
1,Tiffany Harris,F,,CA,,Raw,Submasters 33-39,81.47,82.5,,,,,,144.92,149.91,,,149.91,149.91,D,
2,Tim Heisler,M,,MT,,Single-ply,Masters 40-46,109.13,110,,,214.87,,214.87,,,,,,214.87,B,
2,Tim Heisler,M,,MT,,Single-ply,Masters 40-46,109.13,110,,,,,,219.99,234.96,,,234.96,234.96,D,
2,Tim Heisler,M,,MT,,Single-ply,Masters 40-46,109.13,110,,,214.87,,214.87,219.99,234.96,,,234.96,449.83,BD,
1,Tim Sparkes,M,,AZ,,Raw,Masters 54-60,99.16,100,,,,,,272.47,282.45,287.44,,287.44,287.44,D,
2,Tim Welton,M,,CO,,Single-ply,Masters 61-67,93.17,100,,,,,,184.93,197.4,,,197.4,197.4,D,
1,Timothy Harrison,M,,IL,,Raw,Teen 12-13,107.86,110,74.93,84.91,92.9,,92.9,,,,,,92.9,B,
1,Timothy Harrison,M,,IL,,Raw,Teen 12-13,107.86,110,,,,,,110,124.96,137.44,,137.44,137.44,D,
1,Timothy Harrison,M,,IL,,Raw,Teen 12-13,107.86,110,74.93,84.91,92.9,,92.9,110,124.96,137.44,,137.44,230.34,BD,
2,Toby Von Bargen,M,,CA,,Raw,Teen 16-17,153.59,140+,124.96,132.45,,,132.45,,,,,,132.45,B,
2,Toby Von Bargen,M,,CA,,Raw,Teen 16-17,153.59,140+,,,,,,184.93,,,,184.93,184.93,D,
1,Todd Johnson,M,,UT,,Raw,Law-Fire 48-55,116.57,117.5,102.38,112.49,114.99,,114.99,,,,,,114.99,B,
1,Todd Johnson,M,,UT,,Raw,Law-Fire 48-55,116.57,117.5,,,,,,207.38,,,,207.38,207.38,D,
1,Todd Johnson,M,,UT,,Raw,Law-Fire 48-55,116.57,117.5,102.38,112.49,114.99,,114.99,207.38,,,,207.38,322.37,BD,
1,Tom Gonnering,M,,AL,,Raw,Masters 68-74,118.66,125,132.95,147.42,159.89,,159.89,,,,,,159.89,B,
1,Tom Gonnering,M,,AL,,Raw,Masters 68-74,118.66,125,,,,,,72.44,102.38,124.96,,124.96,124.96,D,
1,Tom Gonnering,M,,AL,,Raw,Masters 68-74,118.66,125,132.95,147.42,159.89,,159.89,72.44,102.38,124.96,,124.96,284.85,BD,
1,Tom Morgan,M,,AR,,Raw,Masters 68-74,116.57,117.5,74.93,84.91,,,84.91,,,,,,84.91,B,
1,Tommie Parrish,M,,OK,,Raw,Disabled 2 20-39,116.66,117.5,72.44,79.92,,,79.92,,,,,,79.92,B,
1,Tommie Parrish,M,,OK,,Raw,Disabled 2 20-39,116.66,117.5,,,,,,122.47,142.43,152.41,159.89,152.41,152.41,D,
1,Tommie Parrish,M,,OK,,Raw,Disabled 2 20-39,116.66,117.5,72.44,79.92,,,79.92,122.47,142.43,152.41,159.89,152.41,232.33,BD,
1,Tommy Harrison III,M,,IL,,Raw,Teen 18-19,75.84,82.5,54.98,62.46,64.95,,64.95,,,,,,64.95,B,
1,Tommy Harrison III,M,,IL,,Raw,Teen 18-19,75.84,82.5,,,,,,102.38,119.98,129.95,,129.95,129.95,D,
1,Tommy Harrison III,M,,IL,,Raw,Teen 18-19,75.84,82.5,54.98,62.46,64.95,,64.95,102.38,119.98,129.95,,129.95,194.9,BD,
1,Tommy Harrison,M,,IL,,Single-ply,Law-Fire 48-55,116.85,117.5,,,,,,237.46,249.93,,,249.93,249.93,D,
1,Tommy Harrison,M,,IL,,Single-ply,Law-Fire Open,116.85,117.5,,,,,,237.46,249.93,,,249.93,249.93,D,
2,Tonya Patrick,F,,AZ,,Raw,Law-Fire 48-55,67.22,67.5,44.91,49.9,60.46,,60.46,,,,,,60.46,B,
1,Tonya Patrick,F,,AZ,,Raw,Law-Fire 48-55,67.22,67.5,,,,,,137.44,144.92,149.91,,149.91,149.91,D,
1,Tonya Patrick,F,,AZ,,Raw,Law-Fire 48-55,67.22,67.5,44.91,49.9,60.46,,60.46,137.44,144.92,149.91,,149.91,210.37,BD,
1,Trish Romano,F,,AZ,,Raw,Masters 40-46,98.61,100,64.95,69.94,,,69.94,,,,,,69.94,B,
1,Trish Romano,F,,AZ,,Raw,Masters 40-46,98.61,100,,,,,,147.42,157.4,,,157.4,157.4,D,
1,Trish Romano,F,,AZ,,Raw,Masters 40-46,98.61,100,64.95,69.94,,,69.94,147.42,157.4,,,157.4,227.34,BD,
1,Trisha Puou,F,,HI,,Single-ply,Masters 47-53,159.21,100+,129.95,,,,129.95,,,,,,129.95,B,
2,Trisha Puou,F,,HI,,Single-ply,Open,159.21,100+,129.95,,,,129.95,,,,,,129.95,B,
1,Trisha Puou,F,,HI,,Single-ply,Masters 47-53,159.21,100+,,,,,,134.94,144.92,167.47,,167.47,167.47,D,
1,Trisha Puou,F,,HI,,Single-ply,Open,159.21,100+,,,,,,134.94,144.92,167.47,,167.47,167.47,D,
1,Trisha Puou,F,,HI,,Single-ply,Masters 47-53,159.21,100+,129.95,,,,129.95,134.94,144.92,167.47,,167.47,297.42,BD,
1,Trisha Puou,F,,HI,,Single-ply,Open,159.21,100+,129.95,,,,129.95,134.94,144.92,167.47,,167.47,297.42,BD,
1,Troy Pia,M,,WA,,Raw,Disabled 1 40-59,119.02,125,,,,,,170.46,,,,170.46,170.46,D,
1,Tyara Straka,F,,WA,,Raw,Teen 18-19,110.68,100+,110,114.99,,,114.99,,,,,,114.99,B,
1,Tyara Straka,F,,WA,,Raw,Teen 18-19,110.68,100+,,,,,,214.87,,,,214.87,214.87,D,
1,Tyara Straka,F,,WA,,Raw,Teen 18-19,110.68,100+,110,114.99,,,114.99,214.87,,,,214.87,329.86,BD,
2,Vanessa Furman,F,,CA,,Raw,Open,47.45,48,39.92,44.91,,,44.91,,,,,,44.91,B,
2,Vanessa Furman,F,,CA,,Raw,Open,47.45,48,,,,,,77.43,84.91,,,84.91,84.91,D,
1,Vicky Cotter,F,,CA,,Raw,Class 1,59.87,60,60.46,62.46,,,62.46,,,,,,62.46,B,
1,Vicky Cotter,F,,CA,,Raw,Class 1,59.87,60,,,,,,,107.37,,,107.37,107.37,D,
1,Victoria Woods,F,,CA,,Single-ply,Open,86,90,,,,,,167.47,179.94,189.92,,189.92,189.92,D,
1,Wayne Sowers,M,,ME,,Raw,Masters 68-74,105.87,110,142.43,147.42,152.41,,152.41,,,,,,152.41,B,
2,Wayne Sowers,M,,ME,,Raw,Masters 68-74,105.87,110,,,,,,179.94,,184.93,,184.93,184.93,D,
2,Wayne Sowers,M,,ME,,Raw,Masters 68-74,105.87,110,142.43,147.42,152.41,,152.41,179.94,,184.93,,184.93,337.34,BD,
4,Wesley Briggs,M,,AZ,,Raw,Masters 47-53,105.05,110,104.87,137.44,152.91,,152.91,,,,,,152.91,B,
4,Wesley Briggs,M,,AZ,,Raw,Masters 47-53,105.05,110,,,,,,197.4,214.87,227.48,,227.48,227.48,D,
3,Wesley Briggs,M,,AZ,,Raw,Masters 47-53,105.05,110,104.87,137.44,152.91,,152.91,197.4,214.87,227.48,,227.48,380.39,BD,
3,Willa Lewis,F,,OK,,Raw,Masters 40-46,98.52,100,,,,,,87.41,,,,87.41,87.41,D,
1,Willard Crossen Jr,M,,WA,,Single-ply,Law-Fire 64+,112.76,117.5,,,,,,214.87,227.48,,,227.48,227.48,D,
1,William Caughey,M,,UT,,Multi-ply,Masters 61-67,115.3,117.5,79.92,84.91,92.9,,92.9,,,,,,92.9,B,
1,William Caughey,M,,UT,,Multi-ply,Masters 61-67,115.3,117.5,,,,,,124.96,137.44,,,137.44,137.44,D,
1,William Caughey,M,,UT,,Multi-ply,Masters 61-67,115.3,117.5,79.92,84.91,92.9,,92.9,124.96,137.44,,,137.44,230.34,BD,
1,William Prince,M,,NV,,Multi-ply,Masters 85-89,88.27,90,79.92,92.4,94.89,,94.89,,,,,,94.89,B,
1,William Stoffel,M,,TX,,Raw,Masters 40-46,105.14,110,102.38,107.37,112.49,,112.49,,,,,,112.49,B,
1,William Stoffel,M,,TX,,Raw,Masters 40-46,105.14,110,,,,,,169.96,177.45,197.4,,197.4,197.4,D,
1,William Stoffel,M,,TX,,Raw,Masters 40-46,105.14,110,102.38,107.37,112.49,,112.49,169.96,177.45,197.4,,197.4,309.89,BD,
1,William Strout,M,,AZ,,Raw,Teen 16-17,81.65,82.5,,117.48,119.98,,119.98,,,,,,119.98,B,
1,William Strout,M,,AZ,,Raw,Teen 16-17,81.65,82.5,,,,,,202.39,204.89,,,204.89,204.89,D,
1,William Strout,M,,AZ,,Raw,Teen 16-17,81.65,82.5,,117.48,119.98,,119.98,202.39,204.89,,,204.89,324.87,BD,
1,William Swantek,M,,WA,,Raw,Masters 75-79,90.99,100,99.88,104.87,,,104.87,,,,,,104.87,B,
1,William Swantek,M,,WA,,Raw,Masters 75-79,90.99,100,,,,,,159.89,164.97,,,164.97,164.97,D,
1,William Swantek,M,,WA,,Raw,Masters 75-79,90.99,100,99.88,104.87,,,104.87,159.89,164.97,,,164.97,269.84,BD,
2,Wylan Thomas,M,,HI,,Raw,Open,94.71,100,124.96,134.94,,,134.94,,,,,,134.94,B,
1,Wylan Thomas,M,,HI,,Raw,Teen 18-19,94.71,100,124.96,134.94,,,134.94,,,,,,134.94,B,
1,Zach Davis,M,,TX,,Raw,Open,169.37,140+,224.98,229.97,238.95,,238.95,,,,,,238.95,B,
1,Zach Davis,M,,TX,,Raw,Submasters 33-39,169.37,140+,224.98,229.97,238.95,,238.95,,,,,,238.95,B,
1,Zach Davis,M,,TX,,Raw,Open,169.37,140+,,,,,,344.96,364.92,,,364.92,364.92,D,
1,Zach Davis,M,,TX,,Raw,Submasters 33-39,169.37,140+,,,,,,344.96,364.92,,,364.92,364.92,D,
1,Zach Davis,M,,TX,,Raw,Open,169.37,140+,224.98,229.97,238.95,,238.95,344.96,364.92,,,364.92,603.87,BD,
1,Zach Davis,M,,TX,,Raw,Submasters 33-39,169.37,140+,224.98,229.97,238.95,,238.95,344.96,364.92,,,364.92,603.87,BD,
1,Zachary Freemantle,M,,WA,,Raw,Open,98.61,100,,,,,,252.42,262.4,,,262.4,262.4,D,
2,Zachary Jones #2,M,,OK,,Single-ply,Open,89.36,90,192.41,,,,192.41,,,,,,192.41,B,
