Place,Name,Sex,BirthDate,Age,Equipment,Division,BodyweightKg,WeightClassKg,Squat1Kg,Squat2Kg,Squat3Kg,Best3SquatKg,Bench1Kg,Bench2Kg,Bench3Kg,Best3BenchKg,Deadlift1Kg,Deadlift2Kg,Deadlift3Kg,Best3DeadliftKg,TotalKg,Event,Team
1,Lola Trempé,F,1999-05-14,25,Sleeves,Open,51.5,52,105,110,115,115,72.5,77.5,80,80,117.5,125,130,130,325,SBD,Nordic Barbell Club
2,Mayane Ischi,F,2003-11-25,20,Sleeves,Open,51.7,52,107.5,112.5,-117.5,112.5,-62.5,62.5,65,65,122.5,130,-137.5,130,307.5,SBD,CLHM
1,Anouk Wandeler,F,1998-06-12,26,Sleeves,Open,54.2,57,127.5,135,-140.5,135,-70,72.5,77.5,77.5,155,163,-170,163,375.5,SBD,Kraftdreikampf Klub der Sportfreunde
2,Laura Angelica Toso,F,2000-05-09,24,Sleeves,Open,55.8,57,97.5,105,107.5,107.5,57.5,62.5,-65,62.5,130,142.5,150,150,320,SBD,Powerlifting Lausanne
3,Morgane Zbinden,F,1995-08-10,29,Sleeves,Open,55.9,57,105,110,-115,110,55,57.5,-60,57.5,127.5,132.5,137.5,137.5,305,SBD,Powerlifting Lausanne
1,Anna Henzi,F,1992-12-27,31,Sleeves,Open,59.5,63,132.5,140,145,145,95,100,101.5,101.5,155,165,170,170,416.5,SBD,Barbell Club Landquart
2,Katja Aeschbacher,F,1999-10-14,25,Sleeves,Open,62.6,63,-147.5,147.5,-152.5,147.5,85,-87.5,87.5,87.5,177.5,-187.5,-187.5,177.5,412.5,SBD,Outcast Strength System
3,Cinzia Zeltner,F,1985-04-16,39,Sleeves,Open,62.2,63,-125,130,-135,130,65,70,-72.5,70,170,185,192.5,192.5,392.5,SBD,Schwerathletik Nordwest
4,Victoria Rimensberger,F,1990-10-05,34,Sleeves,Open,62.6,63,145,150,-155,150,70,75,-77.5,75,160,167.5,-172.5,167.5,392.5,SBD,Powerlifting Lausanne
5,Noémi Weiss,F,1995-09-23,29,Sleeves,Open,61.6,63,122.5,127.5,-132.5,127.5,70,-72.5,-72.5,70,155,160,165,165,362.5,SBD,Outcast Strength System
6,Carina Hess,F,1999-12-30,24,Sleeves,Open,63,63,117.5,125,-132.5,125,67.5,70,72.5,72.5,150,160,165,165,362.5,SBD,Powerlifting Wil
7,Larissa Bischof,F,2000-04-11,24,Sleeves,Open,63,63,-122.5,122.5,130,130,75,-80,-80,75,140,150,-157.5,150,355,SBD,Outcast Strength System
8,Manon Kluvers,F,2004-03-11,20,Sleeves,Open,62.5,63,120,127.5,-135,127.5,72.5,-77.5,-77.5,72.5,140,150,-155,150,350,SBD,424 Barbell Powerlifting club
9,Volahanta Rakotoniaina,F,1978-07-13,46,Sleeves,Open,62,63,110,120,125,125,50,55,-57.5,55,135,140,150,150,330,SBD,Atlas Gym
1,Chiara Luraschi,F,1997-12-20,26,Sleeves,Open,66.5,69,160,167.5,172.5,172.5,85,-87.5,87.5,87.5,192.5,201,206,206,466,SBD,Kraftdreikampf Klub der Sportfreunde
2,Andrea Marx,F,1993-03-27,31,Sleeves,Open,67.8,69,140,150,155,155,85,90,92.5,92.5,170,185,192.5,192.5,440,SBD,Schwerathletik Nordwest
3,Jana Wolf,F,1990-11-18,33,Sleeves,Open,63.9,69,160,170,-178,170,70,77.5,82.5,82.5,170,180,185,185,437.5,SBD,Outcast Strength System
4,Verónica Gattuso,F,1999-03-08,25,Sleeves,Open,67.1,69,142.5,150,155,155,80,85,87.5,87.5,170,180,-190,180,422.5,SBD,Kraftdreikampf Klub der Sportfreunde
5,Deborah Pungitore,F,1990-07-27,34,Sleeves,Open,68.8,69,137.5,145,150,150,87.5,92.5,95,95,155,165,172.5,172.5,417.5,SBD,Elemental Athletes
6,Anja Buchmann,F,2003-08-01,21,Sleeves,Open,65.4,69,122.5,130,-135,130,80,85,87.5,87.5,160,182.5,185,185,402.5,SBD,Kraftdreikampf Klub der Sportfreunde
7,Ceyda Raza,F,1996-08-15,28,Sleeves,Open,67.9,69,145,-152.5,-152.5,145,82.5,85,87.5,87.5,145,152.5,160,160,392.5,SBD,Outcast Strength System
8,Lou Malika Derder,F,1999-05-05,25,Sleeves,Open,67.9,69,102.5,-110,-112.5,102.5,85,90,-95,90,120,127.5,-132.5,127.5,320,SBD,Powerlifting Lausanne
1,Nadine Schöb,F,1999-02-12,25,Sleeves,Open,74.7,76,160,170,180,180,80,-85,85,85,185,200.5,207,207,472,SBD,Powerlifting Winti
2,Laura Rettig,F,1992-06-02,32,Sleeves,Open,70.9,76,135,145,152.5,152.5,77.5,82.5,85,85,175,187.5,190,190,427.5,SBD,Neuchâtel Force
3,Marine Schnetz,F,1994-06-06,30,Sleeves,Open,74.9,76,140,150,157.5,157.5,85,92.5,97.5,97.5,150,162.5,172.5,172.5,427.5,SBD,Perfgym
4,Tamara Thoma,F,1993-08-18,31,Sleeves,Open,71.1,76,122.5,127.5,130,130,85,90,-92.5,90,152.5,162.5,170,170,390,SBD,Elemental Athletes
5,Nadine Schrutt,F,1994-04-17,30,Sleeves,Open,74.5,76,127.5,132.5,135,135,62.5,65,-67.5,65,147.5,155,162.5,162.5,362.5,SBD,One Rep Strength
1,Gabriela Tamassia,F,1993-07-30,31,Sleeves,Open,93.1,84+,150,157.5,165,165,97.5,102.5,-107.5,102.5,165,175,185,185,452.5,SBD,Elemental Athletes
2,Jasna Thomi,F,1990-07-07,34,Sleeves,Open,87.7,84+,142.5,152.5,-160,152.5,82.5,87.5,92.5,92.5,167.5,177.5,187.5,187.5,432.5,SBD,Bienna Powerlifting
3,Vitoria Blaser,F,1995-03-08,29,Sleeves,Open,106.6,84+,152.5,160,-165,160,62.5,67.5,70,70,160,170,180,180,410,SBD,Atlas Gym
DQ,Stefanie Glanzmann,F,1981-12-15,42,Sleeves,Open,89.3,84+,-135,-135,-135,,67.5,70,72.5,72.5,180,-190,-190,180,,SBD,Outcast Strength System
1,Victor Gaultier,M,1998-07-18,26,Sleeves,Open,58.3,59,150,160,-167.5,160,140,145,-160,145,170,180,190,190,495,SBD,Kraftdreikampf Klub der Sportfreunde
1,Romain Mendes,M,1992-03-06,32,Sleeves,Open,64.6,66,190,200,-205,200,135,140,143,143,210,220,230,230,573,SBD,Geneva Powerlifting
2,Leonardo Ravasini,M,2001-01-29,23,Sleeves,Open,65.5,66,192.5,203,210,210,122.5,127.5,130,130,205,220,-235,220,560,SBD,Kraftdreikampf Klub der Sportfreunde
1,Alain Jost,M,1997-09-11,27,Sleeves,Open,73.3,74,225.5,238,-243,238,152.5,160,-165,160,277.5,294,297.5,297.5,695.5,SBD,Outcast Strength System
2,Adel Al Lanqawi,M,1999-06-21,25,Sleeves,Open,73.6,74,210,220,-225,220,165,-172,-172,165,280,294.5,-311,294.5,679.5,SBD,CLHM
3,Aurélien Delille,M,2003-11-28,20,Sleeves,Open,73.7,74,210,220,227.5,227.5,140,145,-150,145,235,250,-257.5,250,622.5,SBD,Powerlifting Lausanne
4,Kevin Meirino,M,,,Sleeves,Open,73.9,74,190,-200,-200,190,135,140,-147.5,140,237.5,245,255,255,585,SBD,Atlas Gym
5,Mathias Vigh,M,2007-01-03,17,Sleeves,Open,68.9,74,180,190,205,205,110,115,120,120,222.5,240,-250,240,565,SBD,Nordic Barbell Club
6,Mattéo Charvin,M,2004-01-24,20,Sleeves,Open,72.7,74,170,-182.5,182.5,182.5,95,100,107.5,107.5,200,210,215,215,505,SBD,Powerlifting Lausanne
1,Patrick Kürzi,M,1999-01-22,25,Sleeves,Open,82.1,83,250,262.5,268,268,175,185,188,188,285,300,305.5,305.5,761.5,SBD,Outcast Strength System
2,Vasco Artino,M,1986-03-25,38,Sleeves,Open,81.8,83,225,237.5,247.5,247.5,130,140,145,145,275,295,306,306,698.5,SBD,Barbell Club Landquart
3,Sven Sigrist,M,1988-07-03,36,Sleeves,Open,81.9,83,222.5,237.5,247.5,247.5,145,152.5,-157.5,152.5,257.5,275,-285,275,675,SBD,Elemental Athletes
4,Adrian van Schie,M,1993-07-23,31,Sleeves,Open,82.2,83,232.5,245,-255,245,115,122.5,127.5,127.5,242.5,257.5,270,270,642.5,SBD,Kraftdreikampf Klub der Sportfreunde
5,Federico Gandola,M,2001-12-24,22,Sleeves,Open,80.6,83,210,222.5,-230,222.5,132.5,140,-147.5,140,260,275,-300,275,637.5,SBD,Kraftdreikampf Klub der Sportfreunde
6,Iliyan Zlatkov,M,1990-07-04,34,Sleeves,Open,82.2,83,217.5,225,-232.5,225,127.5,137.5,140,140,235,252.5,260,260,625,SBD,Kraftdreikampf Klub der Sportfreunde
7,Anthony Fornachon,M,2000-03-14,24,Sleeves,Open,81.7,83,205,212.5,220,220,132.5,137.5,-140,137.5,247.5,260,265,265,622.5,SBD,Nordic Barbell Club
8,Dominik Mühlematter,M,1999-07-01,25,Sleeves,Open,82.7,83,200,-210,-215,200,142.5,150,152.5,152.5,215,225,230,230,582.5,SBD,Beo Barbell Club
9,Mathias Braun,M,1977-10-21,46,Sleeves,Open,82,83,215,-225,-230,215,125,135,-137.5,135,210,220,-227.5,220,570,SBD,Schwerathletik Nordwest
10,Matthias Balla,M,1999-02-13,25,Sleeves,Open,81.3,83,177.5,190,-195,190,110,117.5,-122.5,117.5,230,245,250,250,557.5,SBD,Outcast Strength System
1,Colin Morales,M,1997-11-07,26,Sleeves,Open,92.8,93,252.5,266,271,271,152.5,160,165,165,280,295,-300,295,731,SBD,Outcast Strength System
2,Axel Mermin,M,1994-06-28,30,Sleeves,Open,92.6,93,230,245,-252.5,245,175,182.5,-188,182.5,265,280,292.5,292.5,720,SBD,Geneva Powerlifting
3,Thomas Fujise,M,2002-04-13,22,Sleeves,Open,92.2,93,245,257.5,270,270,170,182.5,-190,182.5,255,265,-275,265,717.5,SBD,Geneva Powerlifting
4,Aurélien Fontova-Beccucci,M,1998-02-23,26,Sleeves,Open,92.3,93,222.5,235,240,240,135,140,142.5,142.5,295,307.5,317.5,317.5,700,SBD,Geneva Powerlifting
5,Alessandro Lurati,M,1996-05-10,28,Sleeves,Open,89.5,93,230,242.5,-252.5,242.5,152.5,157.5,165,165,270,290,-310,290,697.5,SBD,Nordic Barbell Club
6,Alexandre Arnaud,M,1998-05-07,26,Sleeves,Open,90.6,93,252.5,-268,-268,252.5,155,-160,160,160,270,282.5,-295,282.5,695,SBD,CLHM
7,Maximilian Becker,M,1993-01-12,31,Sleeves,Open,91.7,93,245,257.5,-268.5,257.5,157.5,-162.5,162.5,162.5,235,250,-255,250,670,SBD,Elemental Athletes
8,Liam Martin,M,2000-05-07,24,Sleeves,Open,92.2,93,230,-242.5,-255,230,162.5,170,-172.5,170,245,260,-270,260,660,SBD,Geneva Powerlifting
9,Severin Woodtli,M,1997-06-28,27,Sleeves,Open,92.6,93,-225,225,240,240,127.5,135,-140,135,242.5,257.5,265,265,640,SBD,Kraftdreikampf Klub der Sportfreunde
10,Samuel Geiser,M,1993-03-03,31,Sleeves,Open,91.9,93,210,217.5,222.5,222.5,132.5,137.5,140,140,255,-265,265,265,627.5,SBD,Bienna Powerlifting
11,Damien Erriquez,M,1998-09-25,26,Sleeves,Open,91.9,93,212.5,225,230,230,135,137.5,145,145,235,250,-257.5,250,625,SBD,Geneva Powerlifting
12,Raphael Reinalter,M,2000-09-17,24,Sleeves,Open,92.7,93,200,210,215,215,155,-160,-160,155,230,245,-260,245,615,SBD,Outcast Strength System
13,Samuel Schumacher,M,1994-07-23,30,Sleeves,Open,92.8,93,200,212.5,-220,212.5,135,142.5,147.5,147.5,215,237.5,250,250,610,SBD,Schwerathletik Nordwest
14,Mateusz Fido,M,1999-01-14,25,Sleeves,Open,89.1,93,200,215,-220,215,145,147.5,-155,147.5,230,-245,245,245,607.5,SBD,One Rep Strength
15,Matthieu Perret,M,1998-05-09,26,Sleeves,Open,93,93,190,205,220,220,130,140,147.5,147.5,200,225,240,240,607.5,SBD,Nordic Barbell Club
16,Mathieu Seignert,M,1994-07-18,30,Sleeves,Open,92.6,93,205,-217.5,-220,205,127.5,132.5,137.5,137.5,215,230,235,235,577.5,SBD,Powerlifting Lausanne
1,Vladimir Mbassi,M,1990-12-20,33,Sleeves,Open,104.5,105,262.5,277.5,292.5,292.5,215,227.5,234,234,315,335,350,350,876.5,SBD,Powerlifting Lausanne
2,Erik Schwarzenbach,M,2003-04-08,21,Sleeves,Open,103.4,105,252.5,267.5,275,275,162.5,172.5,-180,172.5,252.5,267.5,275,275,722.5,SBD,Elemental Athletes
3,Dario Herrsche,M,1993-07-16,31,Sleeves,Open,103.3,105,265,282.5,295,295,117.5,127.5,137.5,137.5,255,-272.5,272.5,272.5,705,SBD,Schwerathletik Nordwest
4,Felix Schelbert,M,1995-02-16,29,Sleeves,Open,102.4,105,235,250,260,260,147.5,155,-160,155,255,267.5,275,275,690,SBD,One Rep Strength
5,Erik Fridén,M,1995-03-29,29,Sleeves,Open,97.3,105,215,230,240,240,145,152.5,160,160,260,282.5,-300,282.5,682.5,SBD,Geneva Powerlifting
6,Dennis Goodtzov,M,1996-11-22,27,Sleeves,Open,95.3,105,227.5,240,250,250,147.5,-155,155,155,272.5,-295,-300,272.5,677.5,SBD,Outcast Strength System
7,Oliver Hurter,M,1996-03-22,28,Sleeves,Open,99.8,105,217.5,230,240,240,130,137.5,-142.5,137.5,240,252.5,262.5,262.5,640,SBD,Elemental Athletes
8,Marc Grepper,M,1989-03-20,35,Sleeves,Open,103.3,105,-215,227.5,-237.5,227.5,142.5,-150,-150,142.5,242.5,-255,-255,242.5,612.5,SBD,Barbell Club Landquart
DQ,Sebastian Traub,M,1994-04-20,30,Sleeves,Open,104.7,105,255,-270,270,270,162.5,167.5,-172.5,167.5,-250,-262.5,-262.5,,,SBD,Kraftdreikampf Klub der Sportfreunde
1,Daniele Pola,M,1997-10-10,27,Sleeves,Open,115.5,120,280,300,-310,300,185,195,205,205,260,275,-285,275,780,SBD,Barbell Club Landquart
2,Tom Thoma,M,1988-02-25,36,Sleeves,Open,113.2,120,247.5,262.5,275,275,167.5,175,180,180,275,-290,290,290,745,SBD,Elemental Athletes
3,Mathias Emberger,M,1999-08-23,25,Sleeves,Open,109.8,120,270,285,-295,285,150,160,165,165,270,285,-290,285,735,SBD,Elemental Athletes
4,Alexandre Simik,M,1995-11-24,28,Sleeves,Open,118.3,120,215,225,-235,225,150,160,-165,160,260,270,-275,270,655,SBD,Perfgym
5,Jonas Arnold,M,1999-05-28,25,Sleeves,Open,112,120,-240,240,-270,240,150,157.5,-165,157.5,230,250,-265,250,647.5,SBD,Barbell Club Landquart
6,Matteo Besançon,M,1994-11-24,29,Sleeves,Open,112.6,120,200,210,-220,210,135,140,145,145,260,280,-300,280,635,SBD,Powerlifting Lausanne
1,Yao Han Ang,M,1987-01-15,37,Sleeves,Open,129,120+,275,290,300,300,175,185,190,190,270,280,-292.5,280,770,SBD,One Rep Strength
2,Clément Bourqui,M,,,Sleeves,Open,149.2,120+,275,-277.5,-277.5,275,170,-180,-180,170,245,-255,255,255,700,SBD,Nordic Barbell Club
3,Mario Wanger,M,1989-06-21,35,Sleeves,Open,124.2,120+,225,237.5,247.5,247.5,150,-157.5,162.5,162.5,250,-265,-265,250,660,SBD,Barbell Club Landquart
