Name,Sex,Equipment,Division,BodyweightKg,WeightClassKg,Age,Squat1Kg,Squat2Kg,Squat3Kg,Best3SquatKg,Bench1Kg,Bench2Kg,Bench3Kg,Best3BenchKg,Deadlift1Kg,Deadlift2Kg,Deadlift3Kg,Best3DeadliftKg,TotalKg,Place,BirthDate,Tested,Event
Mel Coller,F,Wraps,Open,54.4,56,32,125,135,-140,135,60,65,67.5,67.5,132.5,140,147.5,147.5,350,1,1990-11-22,Yes,SBD
Alyrah Forrest,F,Wraps,Open,71.8,75,27,185,195,200,200,90,92.5,95,95,195,205,-210,205,500,1,1996-02-21,Yes,SBD
Teija Ackerman,F,Wraps,Open,74.64,75,21,170,180,-185,180,92.5,-100,-100,92.5,160,170,-180,170,442.5,2,2002-03-11,Yes,SBD
Donna White,F,Wraps,Open,78.8,82.5,49,120,130,135,135,60,-67.5,-70,60,160,165,-170,165,360,1,1974-05-03,Yes,SBD
Aaliyah Biju,F,Raw,Open,47.3,48,11,,,,,,,,,70,75,80,80,80,1,2012-10-16,Yes,D
Maia Macatangay,F,Raw,Open,51.04,52,21,87.5,95,100,100,50,55,-57.5,55,105,110,115,115,270,1,2001-12-25,Yes,SBD
Ella Green,F,Raw,Open,55.48,56,21,97.5,105,-110,105,65,70,72.5,72.5,107.5,115,122.5,122.5,300,1,2002-06-28,Yes,SBD
Bam Srisombun,F,Raw,Open,59.34,60,24,110,115,-120,115,45,50,-52.5,50,132.5,140,-145,140,305,1,1999-04-29,Yes,SBD
Janelle Bowhay,F,Raw,Open,65.6,67.5,36,100,107.5,112.5,112.5,55,60,62.5,62.5,127.5,137.5,142.5,142.5,317.5,1,1987-08-15,Yes,SBD
Maddi Skinner,F,Raw,Open,66.52,67.5,26,95,102.5,107.5,107.5,72.5,77.5,80,80,110,120,127.5,127.5,315,2,1997-10-11,Yes,SBD
Nicole Goddard-Kawiti,F,Raw,Open,66.84,67.5,27,105,110,-115,110,52.5,55,-57.5,55,135,142.5,145,145,310,3,1996-02-20,Yes,SBD
Noha Tsor,F,Raw,Open,65.56,67.5,23,90,95,-100,95,52.5,60,-62.5,60,115,122.5,130,130,285,4,2000-07-22,Yes,SBD
Neva Flynn,F,Raw,Open,74.66,75,22,140,150,155,155,80,85,87.5,87.5,160,172.5,180,180,422.5,1,2001-03-14,Yes,SBD
Lee-Anne McCormack,F,Raw,Open,71.86,75,44,135,145,-155,145,85,90,-92.5,90,167.5,177.5,185,185,420,2,1979-06-26,Yes,SBD
Liorah Ayalon,F,Raw,Open,71.28,75,31,100,110,120,120,52.5,55,60,60,145,155,165,165,345,3,1992-02-20,Yes,SBD
Dana McCrea,F,Raw,Open,73.5,75,24,105,115,120,120,52.5,55,57.5,57.5,140,150,160,160,337.5,4,1999-02-01,Yes,SBD
Alison Rorke,F,Raw,Open,72.3,75,23,100,110,115,115,47.5,52.5,55,55,110,120,125,125,295,5,1999-12-08,Yes,SBD
Charlotte-Anne Herring,F,Raw,Open,72.28,75,30,90,100,-102.5,100,45,50,52.5,52.5,115,130,-140,130,282.5,6,1993-09-30,Yes,SBD
Nicci Makin,F,Raw,Open,79.26,82.5,39,125,132.5,140,140,65,70,-75,70,145,155,162.5,162.5,372.5,1,1984-06-01,Yes,SBD
Sarah Brown #6,F,Raw,Open,77.7,82.5,31,125,130,132.5,132.5,72.5,-77.5,-77.5,72.5,135,140,-145,140,345,2,1991-11-18,Yes,SBD
Simone Forbes,F,Raw,Open,79.42,82.5,19,100,110,-120,110,47.5,50,52.5,52.5,110,120,125,125,287.5,3,2003-11-21,Yes,SBD
Courtney Fletcher,F,Raw,Open,83.3,90,19,,,,,57.5,60,-65,60,,,,,60,1,2004-06-29,Yes,B
Amelia Higgins,F,Raw,Open,93.6,100,24,105,115,-120,115,50,-52.5,52.5,52.5,140,-150,-150,140,307.5,1,1998-11-12,Yes,SBD
Joshua Hersee,M,Wraps,Open,80.3,82.5,25,120,-130,130,130,75,-82.5,82.5,82.5,145,152.5,-160,152.5,365,1,1998-09-14,Yes,SBD
Luke O'Shea #2,M,Wraps,Open,98.5,100,26,-250,260,270,270,130,135,-137.5,135,250,-265,-265,250,655,1,1997-10-15,Yes,SBD
Ethan de Rome,M,Wraps,Open,107.72,110,31,215,225,237.5,237.5,127.5,135,142.5,142.5,215,227.5,240,240,620,1,1992-04-30,Yes,SBD
Wesley Arconati,M,Raw,Open,63.34,67.5,18,115,125,-132.5,125,90,-95,-95,90,150,165,-172.5,165,380,1,2004-11-14,Yes,SBD
Scott Wong #1,M,Raw,Open,73.78,75,20,150,165,180,180,100,110,-115,110,190,202.5,210,210,500,1,2003-01-15,Yes,SBD
Bronson Bullock,M,Raw,Open,71.54,75,27,160,170,-180,170,100,-105,-105,100,200,207.5,220,220,490,2,1996-04-22,Yes,SBD
Samuel Jones,M,Raw,Open,74.74,75,27,140,150,155,155,90,95,-100,95,180,190,-200,190,440,3,1996-06-10,Yes,SBD
Connor Stanley,M,Raw,Open,72.34,75,23,-120,-130,135,135,90,95,-100,95,180,190,-200,190,420,4,2000-01-05,Yes,SBD
Kade Silverthorne,M,Raw,Open,82.1,82.5,19,220,230,-240,230,125,132.5,-140,132.5,257.5,270,-282.5,270,632.5,1,2003-12-19,Yes,SBD
Tim McGill,M,Raw,Open,80.8,82.5,22,205,215,-222.5,215,130,-132.5,-132.5,130,230,240,-250,240,585,2,2001-10-16,Yes,SBD
Samuel Grace,M,Raw,Open,81,82.5,25,190,200,215,215,135,-142.5,142.5,142.5,190,205,-220,205,562.5,3,1997-12-22,Yes,SBD
Richard Weinz,M,Raw,Open,81.08,82.5,35,175,190,200,200,-105,115,-120,115,205,215,-225,215,530,4,1988-06-18,Yes,SBD
Peter Toohey,M,Raw,Open,81.6,82.5,39,-180,-180,180,180,125,-132.5,137.5,137.5,190,200,210,210,527.5,5,1984-06-29,Yes,SBD
Dane Hill,M,Raw,Open,79.94,82.5,30,167.5,177.5,185,185,110,-115,115,115,205,215,225,225,525,6,1993-10-18,Yes,SBD
Ryan Fletcher,M,Raw,Open,79.6,82.5,30,125,135,140,140,100,-110,-110,100,170,182.5,-190,182.5,422.5,7,1993-07-23,Yes,SBD
Alessandro O'Shea-Arcuri,M,Raw,Open,77.1,82.5,21,110,117.5,127.5,127.5,75,80,-87.5,80,140,150,160,160,367.5,8,2002-10-30,Yes,SBD
Nick Olive,M,Raw,Open,89.6,90,32,220,230,240,240,165,175,-181,175,230,250,260,260,675,1,1991-05-02,Yes,SBD
Jordan Pirrone,M,Raw,Open,87.6,90,24,225,240,-247.5,240,132.5,140,147.5,147.5,250,270,-277.5,270,657.5,2,1999-05-17,Yes,SBD
Joseph Lu #1,M,Raw,Open,88.24,90,30,210,220,230,230,130,140,145,145,250,265,275,275,650,3,1993-01-08,Yes,SBD
Saxon Carides,M,Raw,Open,88.88,90,31,200,210,-220,210,125,132.5,135,135,220,230,240,240,585,4,1992-06-05,Yes,SBD
James Vanderwal,M,Raw,Open,88,90,23,175,190,-200,190,100,107.5,112.5,112.5,205,225,232.5,232.5,535,5,2000-06-08,Yes,SBD
Maxim Bonython,M,Raw,Open,85,90,21,165,-175,180,180,100,105,110,110,-195,200,210,210,500,6,2002-06-12,Yes,SBD
Jai Fisher,M,Raw,Open,86.72,90,21,150,160,170,170,107.5,115,-122.5,115,195,-210,210,210,495,7,2002-08-13,Yes,SBD
Dylan Simpson,M,Raw,Open,85.58,90,30,140,150,-160,150,85,92.5,-100,92.5,180,190,-200,190,432.5,8,1993-01-21,Yes,SBD
Riley Allsop,M,Raw,Open,89.56,90,20,210,,,210,127.5,132.5,-140,132.5,75,,,75,417.5,9,2003-05-31,Yes,SBD
Ben Robins,M,Raw,Open,87.78,90,29,247.5,260,272.5,272.5,135,-142.5,150,150,-267.5,,,,,DQ,1994-05-17,Yes,SBD
Luca Roperti,M,Raw,Open,91.62,100,22,-240,240,255,255,130,132.5,135,135,240,255,270,270,,DD,2001-07-01,Yes,SBD
Harrison Nicholson,M,Raw,Open,97.5,100,25,200,210,220,220,132.5,140,-145,140,272.5,287.5,-300,287.5,647.5,1,1998-10-22,Yes,SBD
Nathan Norman,M,Raw,Open,99.22,100,30,220,-230,230,230,145,-150,-150,145,245,260,267.5,267.5,642.5,2,1993-04-02,Yes,SBD
Arni Ubiparipovic,M,Raw,Open,95.16,100,23,190,200,-210,200,95,100,-105,100,190,200,-210,200,500,3,2000-05-06,Yes,SBD
Thomas Martin,M,Raw,Open,98.3,100,17,150,165,180,180,95,100,-105,100,175,185,200,200,480,4,2006-08-14,Yes,SBD
Saxon Saville,M,Raw,Open,99.16,100,24,145,155,167.5,167.5,95,100,-107.5,100,190,202.5,212.5,212.5,480,5,1998-11-30,Yes,SBD
Duane Fabian,M,Raw,Open,97.66,100,25,-245,-245,-245,,,,,,,,,,,DQ,1998-07-21,Yes,SBD
Toese Fautua,M,Raw,Open,109.82,110,32,-272.5,272.5,292.5,292.5,165,172.5,182.5,182.5,265,275,-285,275,750,1,1991-09-18,Yes,SBD
Josh Folden,M,Raw,Open,106.22,110,38,-140,-155,-165,,95,-100,100,100,170,180,190,190,,DQ,1985-09-16,Yes,SBD
James Shaw,M,Raw,Open,107.8,110,32,,,,,150,160,-167.5,160,,,,,160,1,1991-09-01,Yes,B
Dylan Falzon,M,Raw,Open,122.8,125,26,255,265,-272.5,265,157.5,162.5,-167.5,162.5,265,275,-290,275,702.5,1,1997-07-24,Yes,SBD
