Division,WeightClassKg,Place,Name,Team,BodyweightKg,Best3SquatKg,Best3BenchKg,Best3DeadliftKg,TotalKg,Equipment,Event,Sex,BirthDate
Girls,44.23,1,Clarissa Rodriguez,Los Fresnos,43.86,149.69,77.11,122.47,349.27,Unlimited,SBD,F,
Girls,44.23,2,Samantha Rodriguez,Mission,43.82,122.47,61.23,124.74,308.44,Unlimited,SBD,F,
Girls,44.23,3,Victoria Rodriguez,Los Fresnos,43.27,120.2,68.04,117.93,306.17,Unlimited,SBD,F,
Girls,44.23,4,Hailey Galarza,San Benito,44.18,115.67,63.5,102.06,281.23,Unlimited,SBD,F,
Girls,44.23,5,Glenda Ortiz,Los Fresnos,41.1,115.67,52.16,108.86,276.69,Unlimited,SBD,F,
Girls,44.23,6,Aniah Gonzales,Del Rio,37.97,111.13,56.7,97.52,265.35,Unlimited,SBD,F,
Girls,44.23,7,Saniyah Chandler,Beaumont West Brook,43,102.06,54.43,108.86,265.35,Unlimited,SBD,F,
Girls,44.23,8,Yarithza Barron,Weslaco,43.77,99.79,52.16,113.4,265.35,Unlimited,SBD,F,
Girls,44.23,9,Tracy To,Wylie,43.23,97.52,58.97,104.33,260.82,Unlimited,SBD,F,
Girls,44.23,10,Michaela Grimm,Copperas Cove,40.6,99.79,49.9,97.52,247.21,Unlimited,SBD,F,
Girls,44.23,11,Zakiyah Piper,Waxahachie,44,90.72,52.16,97.52,240.4,Unlimited,SBD,F,
Girls,44.23,12,Julia Pereira,Del Valle,43.91,97.52,47.63,92.99,238.14,Unlimited,SBD,F,
Girls,44.23,13,Sarai Williams,Royse City,43.95,86.18,45.36,104.33,235.87,Unlimited,SBD,F,
Girls,44.23,14,Aliya Aguila,Wylie East,43.14,86.18,49.9,95.25,231.33,Unlimited,SBD,F,
Girls,44.23,15,Jazmin Adair,Waller,43.95,97.52,47.63,86.18,231.33,Unlimited,SBD,F,
Girls,44.23,16,Celina Lugo,Odessa,42.23,79.38,34.02,83.91,197.31,Unlimited,SBD,F,
Girls,47.85,1,Kailyn Lomas,Del Rio,45.72,142.88,63.5,138.35,344.73,Unlimited,SBD,F,
Girls,47.85,2,Valeria Villarreal,PSJA,47.08,129.27,63.5,151.95,344.73,Unlimited,SBD,F,
Girls,47.85,3,Valeria Quiroz,Weslaco,47.76,136.08,77.11,131.54,344.73,Unlimited,SBD,F,
Girls,47.85,4,Chloe Juarez,Del Rio,46.9,147.42,68.04,117.93,333.39,Unlimited,SBD,F,
Girls,47.85,5,Alyssa Baker,San Benito,47.45,124.74,65.77,138.35,328.85,Unlimited,SBD,F,
Girls,47.85,6,Kaylee Barajaz,Dickinson,45.95,127.01,58.97,131.54,317.51,Unlimited,SBD,F,
Girls,47.85,7,Lauren Schweiss,Weatherford,46.95,133.81,52.16,122.47,308.44,Unlimited,SBD,F,
Girls,47.85,8,Cindy Yang,Beaumont West Brook,46.58,102.06,72.57,120.2,294.84,Unlimited,SBD,F,
Girls,47.85,9,Kassidy Stoker,Dickinson,47.22,127.01,54.43,113.4,294.84,Unlimited,SBD,F,
Girls,47.85,10,Evalyn Velasquez,Buda Johnson,47.31,106.59,58.97,117.93,283.5,Unlimited,SBD,F,
Girls,47.85,11,Jaden Reed,Beaumont West Brook,47.49,102.06,61.23,115.67,278.96,Unlimited,SBD,F,
Girls,47.85,12,Jolie Campbell,Wylie,47.67,102.06,70.31,99.79,272.16,Unlimited,SBD,F,
Girls,47.85,13,Lori Vasquez,Del Valle,47.72,115.67,49.9,86.18,251.74,Unlimited,SBD,F,
Girls,47.85,14,Kyla Barauskas,Midland Legacy,46.49,92.99,47.63,102.06,242.67,Unlimited,SBD,F,
Girls,47.85,DQ,Sulyanette Figueroa,Royse City,47.4,92.99,,,,Unlimited,SBD,F,
Girls,47.85,DQ,Emerie Pharr,Wolfforth Frenship,47.45,,,,,Unlimited,SBD,F,
Girls,47.85,DQ,Jade Guzman,Edinburg,47.4,,,,,Unlimited,SBD,F,
Girls,47.85,DQ,Kaitlyn Lozano,Edinburg North,46.99,108.86,52.16,,,Unlimited,SBD,F,
Girls,51.94,1,Alondra Salas,Los Fresnos,50.62,138.35,77.11,154.22,369.68,Unlimited,SBD,F,
Girls,51.94,2,Bethany Prior,Conroe The Woodlands,50.71,140.61,88.45,129.27,358.34,Unlimited,SBD,F,
Girls,51.94,3,Samantha Espinoza,Weslaco,50.35,142.88,86.18,127.01,356.07,Unlimited,SBD,F,
Girls,51.94,4,Thalia Gonzalez,Wylie,50.58,131.54,79.38,129.27,340.19,Unlimited,SBD,F,
Girls,51.94,5,Graciella Estrada,Harlingen,51.21,140.61,72.57,127.01,340.19,Unlimited,SBD,F,
Girls,51.94,6,Nina Nguyen,Wylie,50.3,129.27,81.65,127.01,337.93,Unlimited,SBD,F,
Girls,51.94,7,Ashlee DeHoyos,Fort Worth Boswell,51.89,120.2,77.11,131.54,328.85,Unlimited,SBD,F,
Girls,51.94,8,Natalie Crim,Wylie,51.57,131.54,74.84,117.93,324.32,Unlimited,SBD,F,
Girls,51.94,9,Zaira Gracia,Los Fresnos,51.17,122.47,74.84,117.93,315.25,Unlimited,SBD,F,
Girls,51.94,10,Ava Krawczynski,Los Fresnos,51.53,122.47,63.5,129.27,315.25,Unlimited,SBD,F,
Girls,51.94,11,Chohlis Callaghan,San Antonio East Central,49.85,124.74,68.04,113.4,306.17,Unlimited,SBD,F,
Girls,51.94,12,Gabby Diaz,Del Rio,50.76,111.13,68.04,127.01,306.17,Unlimited,SBD,F,
Girls,51.94,13,Azelia Lara,Dickinson,50.94,129.27,56.7,117.93,303.91,Unlimited,SBD,F,
Girls,51.94,14,Jocelyn Sandoval,Odessa Permian,51.26,115.67,63.5,115.67,294.84,Unlimited,SBD,F,
Girls,51.94,15,Leah Brown,Midland Legacy,51.39,99.79,63.5,129.27,292.57,Unlimited,SBD,F,
Girls,51.94,16,Chloe Flores,Copperas Cove,51.66,97.52,58.97,106.59,263.08,Unlimited,SBD,F,
Girls,51.94,DQ,Mikayla DeLuna,pflugerville weiss,49.35,,,,,Unlimited,SBD,F,
Girls,51.94,DQ,Astryd Aparicio,Edinburg Economedes,50.71,129.27,83.91,,,Unlimited,SBD,F,
Girls,51.94,DQ,Angel Nguyen,Royse City,51.21,,,,,Unlimited,SBD,F,
Girls,51.94,DQ,Juliana Cruz,Prosper,51.44,133.81,70.31,,,Unlimited,SBD,F,
Girls,51.94,DQ,Aubrey Medina,Weslaco,51.71,,,,,Unlimited,SBD,F,
Girls,51.94,DQ,Angeni Rather,Wylie,51.94,127.01,,,,Unlimited,SBD,F,
Girls,56.02,1,Jaylen Dehoyas,San Angelo Central,54.98,185.97,86.18,165.56,437.72,Unlimited,SBD,F,
Girls,56.02,2,Jo Villanueva,Weslaco,54.2,142.88,83.91,165.56,392.36,Unlimited,SBD,F,
Girls,56.02,3,A Mya Moss,Copperas Cove,55.16,138.35,79.38,147.42,365.14,Unlimited,SBD,F,
Girls,56.02,4,Et Mbuan,Royse City,55.11,145.15,72.57,138.35,356.07,Unlimited,SBD,F,
Girls,56.02,5,Aubrey Cantu,Harlingen,55.11,129.27,97.52,124.74,351.53,Unlimited,SBD,F,
Girls,56.02,6,Tatum Gehring,Wylie,55.57,124.74,95.25,127.01,347,Unlimited,SBD,F,
Girls,56.02,7,Allison Saavedra,Los Fresnos,54.93,129.27,79.38,136.08,344.73,Unlimited,SBD,F,
Girls,56.02,8,Lydia Fontane,Bishop Lynch,54.61,133.81,63.5,142.88,340.19,Unlimited,SBD,F,
Girls,56.02,9,Taryn Biezen,Prosper,54.61,120.2,95.25,113.4,328.85,Unlimited,SBD,F,
Girls,56.02,10,Ava Morrow,Harlingen,54.3,129.27,70.31,127.01,326.59,Unlimited,SBD,F,
Girls,56.02,11,Olivia Cancino,Edinburg North,54.16,122.47,74.84,127.01,324.32,Unlimited,SBD,F,
Girls,56.02,12,Victoria Reyes #2,Midland,55.29,127.01,61.23,136.08,324.32,Unlimited,SBD,F,
Girls,56.02,13,Joselyn Baro,Royse City,55.66,129.27,56.7,127.01,312.98,Unlimited,SBD,F,
Girls,56.02,14,Delainey Dallavis,Conroe The Woodlands,53.12,136.08,61.23,111.13,308.44,Unlimited,SBD,F,
Girls,56.02,15,Evelyn Leon,Del Valle,54.39,104.33,47.63,115.67,267.62,Unlimited,SBD,F,
Girls,56.02,DQ,Jazmine Cruz,Edinburg Economedes,53.75,131.54,,,,Unlimited,SBD,F,
Girls,56.02,DQ,Fernanda Arellano,Los Fresnos,55.52,133.81,81.65,,,Unlimited,SBD,F,
Girls,56.02,DQ,Kaelyn Miller,Conroe The Woodlands,55.84,,,,,Unlimited,SBD,F,
Girls,56.02,DQ,Mia Ramirez,Brownsville Rivera,55.93,149.69,,,,Unlimited,SBD,F,
Girls,60.1,1,Angelina De Leon,Edinburg Economedes,58.01,170.1,108.86,158.76,437.72,Unlimited,SBD,F,
Girls,60.1,2,Leandra Machuca,San Benito,59.19,188.24,81.65,163.29,433.18,Unlimited,SBD,F,
Girls,60.1,3,Ava Borders,Wylie,58.88,163.29,120.2,142.88,426.38,Unlimited,SBD,F,
Girls,60.1,4,Ruth Lacayo,Conroe,59.47,163.29,81.65,147.42,392.36,Unlimited,SBD,F,
Girls,60.1,5,Isabella Ortega,Wylie,57.88,161.03,83.91,138.35,383.29,Unlimited,SBD,F,
Girls,60.1,6,Sabrina Le,Wylie,57.79,142.88,72.57,158.76,374.21,Unlimited,SBD,F,
Girls,60.1,7,Zoe Tesi,Weatherford,60.1,136.08,92.99,140.61,369.68,Unlimited,SBD,F,
Girls,60.1,8,Allison Oviedo,Los Fresnos,60.01,145.15,72.57,142.88,360.61,Unlimited,SBD,F,
Girls,60.1,9,Gabrielle Ocasio,Prosper,59.01,124.74,92.99,138.35,356.07,Unlimited,SBD,F,
Girls,60.1,10,Danica Rivera,Edinburg,59.38,140.61,79.38,127.01,347,Unlimited,SBD,F,
Girls,60.1,11,Isabella Pacheco,Conroe Caney Creek,57.52,142.88,65.77,131.54,340.19,Unlimited,SBD,F,
Girls,60.1,12,Lyndsay Giles,Waxahachie,58.88,115.67,65.77,145.15,326.59,Unlimited,SBD,F,
Girls,60.1,13,Hailey Hinojosa,Buda Johnson,57.79,129.27,68.04,124.74,322.05,Unlimited,SBD,F,
Girls,60.1,14,Kyan Ramos,Copperas Cove,58.24,117.93,72.57,111.13,301.64,Unlimited,SBD,F,
Girls,60.1,15,Hannah Escobedo,Wolfforth Frenship,59.06,104.33,74.84,106.59,285.76,Unlimited,SBD,F,
Girls,60.1,DQ,Lucinda Estrada,Harlingen,60.06,149.69,,,,Unlimited,SBD,F,
Girls,60.1,DQ,Anna Moreland,Tyler Legacy,59.78,122.47,,,,Unlimited,SBD,F,
Girls,60.1,DQ,Rochely Banuelos,Odessa Permian,57.88,124.74,,,,Unlimited,SBD,F,
Girls,60.1,DQ,Monika Vargas,Weslaco,58.79,183.7,68.04,156.49,,Unlimited,SBD,F,
Girls,67.36,1,Madison Garcia,PSJA,65.59,185.97,117.93,179.17,483.08,Unlimited,SBD,F,
Girls,67.36,2,Janie Stevenson,Prosper,66.32,165.56,117.93,161.03,444.52,Unlimited,SBD,F,
Girls,67.36,3,McKenna Seaman,Prosper,65.41,140.61,124.74,174.63,439.98,Unlimited,SBD,F,
Girls,67.36,4,Rheanna Rodriguez,Weslaco,66,179.17,106.59,149.69,435.45,Unlimited,SBD,F,
Girls,67.36,5,Jaedyn Smith,Wylie,66.45,172.37,115.67,147.42,435.45,Unlimited,SBD,F,
Girls,67.36,6,Fatima Amaya,Royse City,67.18,170.1,104.33,156.49,430.91,Unlimited,SBD,F,
Girls,67.36,7,Alexandra Nichols,Wylie,65.5,167.83,106.59,154.22,428.64,Unlimited,SBD,F,
Girls,67.36,8,Macie Riley,Clute Brazoswood,66.72,165.56,90.72,165.56,421.84,Unlimited,SBD,F,
Girls,67.36,9,Valeria Rangel,Alvin,64.59,174.63,90.72,147.42,412.77,Unlimited,SBD,F,
Girls,67.36,10,Alyssa Nino,San Benito,64.82,154.22,90.72,154.22,399.16,Unlimited,SBD,F,
Girls,67.36,11,Mia Dominguez,PSJA,65.45,154.22,81.65,136.08,371.95,Unlimited,SBD,F,
Girls,67.36,12,Delaney Martinez,Los Fresnos,66.18,156.49,70.31,138.35,365.14,Unlimited,SBD,F,
Girls,67.36,13,Venessa Egorah,North Forney,63.91,149.69,81.65,131.54,362.87,Unlimited,SBD,F,
Girls,67.36,14,Addisyn Schmidt,Wylie,66,142.88,90.72,127.01,360.61,Unlimited,SBD,F,
Girls,67.36,15,Bella Loos,Keller Central,62.87,115.67,83.91,142.88,342.46,Unlimited,SBD,F,
Girls,67.36,16,Chloe Wells,Midland,65.63,115.67,68.04,131.54,315.25,Unlimited,SBD,F,
Girls,67.36,17,Sophia Salinas,Midland,65.86,113.4,58.97,111.13,283.5,Unlimited,SBD,F,
Girls,67.36,DQ,Samantha Trujillo,Conroe,65.5,,,,,Unlimited,SBD,F,
Girls,67.36,DQ,Kamryn Louk,Buda Johnson,65.18,,,,,Unlimited,SBD,F,
Girls,67.36,DQ,Azucena Rodriguez,Del Valle,62.91,167.83,74.84,,,Unlimited,SBD,F,
Girls,67.36,DQ,Suily Perez,Edinburg Economedes,63.32,129.27,,,,Unlimited,SBD,F,
Girls,67.36,DQ,Mya Villa,Edinburg Economedes,64.41,,,,,Unlimited,SBD,F,
Girls,67.36,DQ,Mia Kelly,Wylie,66.68,167.83,102.06,,,Unlimited,SBD,F,
Girls,75.07,1,Christy Richardson,Dickinson,73.75,190.51,108.86,172.37,471.74,Unlimited,SBD,F,
Girls,75.07,2,Luci Lambert,Fort Worth Boswell,72.35,188.24,99.79,170.1,458.13,Unlimited,SBD,F,
Girls,75.07,3,Azlynn Mueller,Waco Midway,72.85,183.7,92.99,167.83,444.52,Unlimited,SBD,F,
Girls,75.07,4,Priscilla Mendoza,Los Fresnos,70.67,176.9,97.52,167.83,442.25,Unlimited,SBD,F,
Girls,75.07,5,Arianna Marin,Los Fresnos,71.89,185.97,102.06,147.42,435.45,Unlimited,SBD,F,
Girls,75.07,6,Jalynn Mitchell,San Antonio East Central,74.3,174.63,83.91,158.76,417.3,Unlimited,SBD,F,
Girls,75.07,7,Elise Chavez,San Antonio East Central,72.8,188.24,79.38,142.88,410.5,Unlimited,SBD,F,
Girls,75.07,8,Nikai Draper,Prosper,72.8,151.95,81.65,158.76,392.36,Unlimited,SBD,F,
Girls,75.07,9,Gabrielle Batiste,Wylie East,74.16,154.22,99.79,138.35,392.36,Unlimited,SBD,F,
Girls,75.07,10,Nathaly Ramirez,Alvin,70.85,158.76,74.84,154.22,387.82,Unlimited,SBD,F,
Girls,75.07,11,Yanelle Munoz,Wylie,71.35,165.56,79.38,142.88,387.82,Unlimited,SBD,F,
Girls,75.07,12,Jada Ceballos,Edinburg Economedes,73.07,158.76,92.99,136.08,387.82,Unlimited,SBD,F,
Girls,75.07,13,Eve Jakubauskas,Buda Johnson,70.31,154.22,88.45,142.88,385.55,Unlimited,SBD,F,
Girls,75.07,14,Holly Mullins,Conroe The Woodlands,73.26,142.88,90.72,147.42,381.02,Unlimited,SBD,F,
Girls,75.07,15,Da'Lea Benton,Beaumont West Brook,72.89,131.54,74.84,161.03,367.41,Unlimited,SBD,F,
Girls,75.07,16,Caroline Greco,Wylie,73.21,136.08,88.45,129.27,353.8,Unlimited,SBD,F,
Girls,75.07,DQ,Claire McDonald,Wolfforth Frenship,71.49,131.54,49.9,,,Unlimited,SBD,F,
Girls,75.07,DQ,Lael Johnson,North Crowley,74.25,158.76,,,,Unlimited,SBD,F,
Girls,75.07,DQ,Anna Albritton,Tyler Legacy,72.62,122.47,,,,Unlimited,SBD,F,
Girls,75.07,DQ,Valeria Garcia,Pasadena Memorial,74.93,,,,,Unlimited,SBD,F,
Girls,75.07,DQ,Nana Ampem,Odessa,73.71,149.69,,,,Unlimited,SBD,F,
Girls,82.33,1,Emily Phillips,Wylie,82.1,188.24,140.61,167.83,496.68,Unlimited,SBD,F,
Girls,82.33,2,Lynette Herrera,Edinburg,80.51,204.12,106.59,174.63,485.34,Unlimited,SBD,F,
Girls,82.33,3,Fabiola Martinez,Dickinson,79.92,190.51,106.59,176.9,474,Unlimited,SBD,F,
Girls,82.33,4,Milka Folly-Gah,Keller Central,79.79,197.31,83.91,174.63,455.86,Unlimited,SBD,F,
Girls,82.33,5,Ameerah Gonzales,Brownsville Hanna,77.79,172.37,97.52,149.69,419.57,Unlimited,SBD,F,
Girls,82.33,6,Alex Davis #2,Wylie East,82.33,174.63,95.25,138.35,408.23,Unlimited,SBD,F,
Girls,82.33,7,Chasadie Rodriguez,Harlingen,78.97,158.76,102.06,136.08,396.89,Unlimited,SBD,F,
Girls,82.33,8,Karoline Ramos,Mission,81.56,161.03,92.99,136.08,390.09,Unlimited,SBD,F,
Girls,82.33,9,Tiandra Acquaye,Wylie,77.02,165.56,83.91,136.08,385.55,Unlimited,SBD,F,
Girls,82.33,10,Michaela Onwodi,Dickinson,81.65,170.1,81.65,129.27,381.02,Unlimited,SBD,F,
Girls,82.33,11,Scarlett Whitacre,Royse City,76.75,154.22,72.57,149.69,376.48,Unlimited,SBD,F,
Girls,82.33,12,Amaya Eseroma,Copperas Cove,77.25,147.42,81.65,140.61,369.68,Unlimited,SBD,F,
Girls,82.33,13,Courtney Addy,Copperas Cove,75.48,131.54,65.77,151.95,349.27,Unlimited,SBD,F,
Girls,82.33,DQ,Ashley Molina,Edinburg Economedes,78.56,176.9,,,,Unlimited,SBD,F,
Girls,82.33,DQ,Aubrey Pulliam,Midland,80.24,,,,,Unlimited,SBD,F,
Girls,82.33,DQ,Claire Little,Temple,82.1,,,,,Unlimited,SBD,F,
Girls,82.33,DQ,Natalia Valles,Odessa,82.1,,,,,Unlimited,SBD,F,
Girls,82.33,DQ,Harlee Henson,Royse City,77.93,142.88,79.38,,,Unlimited,SBD,F,
Girls,90.04,1,Kimberly Almazan,Los Fresnos,85.64,204.12,127.01,176.9,508.02,Unlimited,SBD,F,
Girls,90.04,2,Ayah Bnider,Dickinson,88.13,190.51,138.35,172.37,501.22,Unlimited,SBD,F,
Girls,90.04,3,Nevaeh Baca,San Antonio East Central,88.5,201.85,102.06,149.69,453.59,Unlimited,SBD,F,
Girls,90.04,4,Makayla Atkinson,Los Fresnos,89.81,179.17,124.74,149.69,453.59,Unlimited,SBD,F,
Girls,90.04,5,Ariana Memik,Harlingen,88.09,183.7,104.33,149.69,437.72,Unlimited,SBD,F,
Girls,90.04,6,Dyanara Alvear,Weslaco,88.13,172.37,108.86,154.22,435.45,Unlimited,SBD,F,
Girls,90.04,7,Taylor Brown,Katy,82.78,174.63,79.38,174.63,428.64,Unlimited,SBD,F,
Girls,90.04,8,Izabella Granado,Midland,87.82,158.76,92.99,156.49,408.23,Unlimited,SBD,F,
Girls,90.04,9,Stephanie Mendoza,Del Valle,88.54,174.63,86.18,147.42,408.23,Unlimited,SBD,F,
Girls,90.04,10,Karsom Adams,Waxahachie,88.54,154.22,83.91,156.49,394.63,Unlimited,SBD,F,
Girls,90.04,11,Alondra Acuna,Alvin,90.04,158.76,74.84,136.08,369.68,Unlimited,SBD,F,
Girls,90.04,12,Jaizlynne Kuhlmann,Odessa Permian,89.27,140.61,83.91,138.35,362.87,Unlimited,SBD,F,
Girls,90.04,13,Prunelle Ngilo,Fort Worth Chisholm Trail,83.64,158.76,61.23,138.35,358.34,Unlimited,SBD,F,
Girls,90.04,14,Gabrielle Simmons,Killeen Harker Heights,88.5,133.81,83.91,133.81,351.53,Unlimited,SBD,F,
Girls,90.04,15,Esmeralda Guillen,North Forney,87.14,113.4,68.04,136.08,317.51,Unlimited,SBD,F,
Girls,90.04,DQ,Giselle Haylett,Conroe,89.99,185.97,111.13,,,Unlimited,SBD,F,
Girls,90.04,DQ,Kamryn Smith,Wylie,89.81,,,,,Unlimited,SBD,F,
Girls,100.02,1,Haley Gardella,Royse City,100.02,208.65,122.47,188.24,519.36,Unlimited,SBD,F,
Girls,100.02,2,Jolina Toala,Copperas Cove,97.79,197.31,102.06,176.9,476.27,Unlimited,SBD,F,
Girls,100.02,3,Karelly Jimenez,Brownsville Hanna,98.11,174.63,133.81,167.83,476.27,Unlimited,SBD,F,
Girls,100.02,4,Elsa Raya,Brownsville Hanna,95.44,174.63,145.15,149.69,469.47,Unlimited,SBD,F,
Girls,100.02,5,MaameOsaa Nketia,Wylie,94.53,190.51,79.38,174.63,444.52,Unlimited,SBD,F,
Girls,100.02,6,Elise Perez,Wylie,97.48,158.76,122.47,145.15,426.38,Unlimited,SBD,F,
Girls,100.02,7,Harmonie Wilson,San Antonio East Central,94.62,163.29,102.06,140.61,405.97,Unlimited,SBD,F,
Girls,100.02,8,Faith Echols,Waco Midway,95.35,176.9,79.38,147.42,403.7,Unlimited,SBD,F,
Girls,100.02,9,Caitlyn Davis,Royse City,97.25,172.37,79.38,145.15,396.89,Unlimited,SBD,F,
Girls,100.02,10,Elena Benavides,Conroe Grand Oaks,95.93,142.88,68.04,145.15,356.07,Unlimited,SBD,F,
Girls,100.02,DQ,Isabella Alvarado,Weslaco,95.35,179.17,,,,Unlimited,SBD,F,
Girls,100.02,DQ,Trisha Cardenas,Weslaco,98.43,199.58,,,,Unlimited,SBD,F,
Girls,100.02,DQ,Ashlyn Ybarra,Clute Brazoswood,92.22,163.29,97.52,,,Unlimited,SBD,F,
Girls,100.02,DQ,Serenity Gildon,Odessa Permian,93.89,188.24,92.99,,,Unlimited,SBD,F,
Girls,100.02,DQ,Hailey James,Grand Prairie,94.53,,,,,Unlimited,SBD,F,
Girls,100.02,DQ,Jimena Lopez,Edinburg North,90.17,,,,,Unlimited,SBD,F,
Girls,100.02,DQ,Gabriela Hernandez,Wolfforth Frenship,91.72,,,,,Unlimited,SBD,F,
Girls,100.02,DQ,Payton Curlett,Waxahachie,99.79,,,,,Unlimited,SBD,F,
Girls,110,1,Aja Bostic,Royse City,100.92,238.14,133.81,222.26,594.21,Unlimited,SBD,F,
Girls,110,2,Ashley Grande,Buda Johnson,107.23,226.8,124.74,185.97,537.51,Unlimited,SBD,F,
Girls,110,3,Desi Coronado,Del Rio,108.73,210.92,145.15,167.83,523.9,Unlimited,SBD,F,
Girls,110,4,Breanna Amos,Weslaco,104.73,208.65,120.2,188.24,517.1,Unlimited,SBD,F,
Girls,110,5,Reagan Garcia,San Antonio East Central,109.09,179.17,131.54,154.22,464.93,Unlimited,SBD,F,
Girls,110,6,Kaelin Bynum,Edinburg,107.32,183.7,102.06,161.03,446.79,Unlimited,SBD,F,
Girls,110,7,Emilie Guggenberger,Wylie,106.5,165.56,106.59,151.95,424.11,Unlimited,SBD,F,
Girls,110,8,Nohemi Nave,Odessa,109.45,183.7,95.25,145.15,424.11,Unlimited,SBD,F,
Girls,110,9,Lynette Lopez,Weslaco,107.86,174.63,111.13,133.81,419.57,Unlimited,SBD,F,
Girls,110,10,Maya Bender,Midland Legacy,109.13,174.63,88.45,154.22,417.3,Unlimited,SBD,F,
Girls,110,11,Samantha Morin,Keller Central,106.14,138.35,111.13,151.95,401.43,Unlimited,SBD,F,
Girls,110,12,Nathalie Clay,Copperas Cove,103.92,154.22,97.52,142.88,394.63,Unlimited,SBD,F,
Girls,110,13,Kora Cornelius,Royse City,107.32,165.56,90.72,136.08,392.36,Unlimited,SBD,F,
Girls,110,DQ,Courtney Kimble,Alvin,107.73,,,,,Unlimited,SBD,F,
Girls,110,DQ,Kya Smith,San Antonio East Central,107.95,,,,,Unlimited,SBD,F,
Girls,110,DQ,Georgia Stephenson,Pearland,108.59,,,,,Unlimited,SBD,F,
Girls,110,DQ,Kyra Parker,San Angelo Central,109.77,,,,,Unlimited,SBD,F,
Girls,110,DQ,Maya Boykins,Wylie,104.14,195.04,102.06,,,Unlimited,SBD,F,
Girls,110+,1,Sanchez Ruthie,Keller Central,147.37,260.82,127.01,165.56,553.38,Unlimited,SBD,F,
Girls,110+,2,Jaslyn Estrella,San Benito,114.03,233.6,136.08,170.1,539.77,Unlimited,SBD,F,
Girls,110+,3,Maya Ruiz,Alvin,115.58,199.58,131.54,183.7,514.83,Unlimited,SBD,F,
Girls,110+,4,Julia Medellin,Edinburg North,128,217.72,131.54,151.95,501.22,Unlimited,SBD,F,
Girls,110+,5,Aaniya Pollard,Dickinson,119.16,188.24,113.4,181.44,483.08,Unlimited,SBD,F,
Girls,110+,6,Peyton Grady,Mesquite Horn,126.96,204.12,113.4,156.49,474,Unlimited,SBD,F,
Girls,110+,7,Jayla Solomon,Alvin Shadow Creek,110.45,172.37,79.38,181.44,433.18,Unlimited,SBD,F,
Girls,110+,8,Daniela Cedillo,Edinburg,129.27,199.58,74.84,158.76,433.18,Unlimited,SBD,F,
Girls,110+,9,Livia Bwakali,Northwest Eaton,117.75,179.17,88.45,158.76,426.38,Unlimited,SBD,F,
Girls,110+,10,Kai Payne,Conroe Oak Ridge,144.83,147.42,106.59,156.49,410.5,Unlimited,SBD,F,
Girls,110+,11,Cara Palmer,Royse City,117.12,165.56,111.13,131.54,408.23,Unlimited,SBD,F,
Girls,110+,12,Success Ihediwa,Midland Legacy,126.92,142.88,77.11,147.42,367.41,Unlimited,SBD,F,
Girls,110+,13,Danessa Cornish,Wolfforth Frenship,119.07,133.81,63.5,136.08,333.39,Unlimited,SBD,F,
Girls,110+,DQ,Jazaria Clinton,Temple,117.71,,,,,Unlimited,SBD,F,
Girls,110+,DQ,Johneeya Warren,Conroe,138.98,,,,,Unlimited,SBD,F,
Girls,110+,DQ,Mia Daboh,Waxahachie,110.22,,,,,Unlimited,SBD,F,
Girls,110+,DQ,Mariah Johnson,Grand Prairie,139.66,,,,,Unlimited,SBD,F,
Girls,110+,DQ,Hally Gochnour,Bryan,119.2,183.7,68.04,,,Unlimited,SBD,F,
