Place,Name,BirthDate,Sex,BodyweightKg,WeightClassKg,Division,Equipment,Event,Best3SquatKg,Best3BenchKg,Best3DeadliftKg,TotalKg
1,Magdolna Matolcsi,1988-11-14,F,61.4,67.5,FOE,Single-ply,B,,55,,55
1,Beáta Pusztai,1967-10-08,F,67.9,75,FEM2,Single-ply,B,,75,,75
1,Beáta Pusztai,1967-10-08,F,67.9,75,FOE,Single-ply,B,,75,,75
1,Klaudia Savanyu,2005-04-30,F,57.5,60,FET,Unlimited,B,,92.5,,92.5
1,Tál Lívia Némethné,1971-10-23,F,71.3,75,FEM2,Unlimited,B,,85,,85
1,Zsuzsanna Horváth,1962-06-03,F,43.2,44,FM3,Raw,B,,32.5,,32.5
1,Edina Somogyi,1991-12-23,F,46.9,48,FO,Raw,B,,55,,55
1,Anita Tímea Szűcs,2006-06-29,F,48,48,FT,Raw,B,,60,,60
1,Brigitta Rékási,2006-01-26,F,51.4,52,FT,Raw,B,,57.5,,57.5
1,Boglárka Horváth,2002-07-11,F,54.3,56,FJ,Raw,B,,62.5,,62.5
1,Gőz Erika Rékásiné,1976-03-21,F,55.2,56,FM1,Raw,B,,60,,60
1,Tímea Fekete-Horváth,1985-05-14,F,55,56,FO,Raw,B,,62.5,,62.5
1,Flóra Dudás,2007-08-21,F,54.4,56,FT,Raw,B,,67.5,,67.5
1,Anita Nagy,1974-03-05,F,59.3,60,FM2,Raw,B,,90,,90
2,Ilona Egri,1972-12-11,F,59.9,60,FM2,Raw,B,,60,,60
3,Mónika Hamana-Hinger,1972-11-15,F,58.6,60,FM2,Raw,B,,42.5,,42.5
1,Ilona Egri,1972-12-11,F,59.9,60,FO,Raw,B,,60,,60
1,Szandra Zachariás,2004-09-02,F,58.4,60,FT,Raw,B,,74,,74
2,Klaudia Savanyu,2005-04-30,F,57.5,60,FT,Raw,B,,55,,55
1,Johanna Paul,2004-01-06,F,61.9,67.5,FJ,Raw,B,,67.5,,67.5
1,Edit Gombos-Borka,1980-01-09,F,65.8,67.5,FM1,Raw,B,,70,,70
1,Mária Hegedűs,1965-02-14,F,66.7,67.5,FM2,Raw,B,,52.5,,52.5
1,Ilona Czinkó,2004-09-19,F,67.3,67.5,FT,Raw,B,,55,,55
1,Beáta Pusztai,1967-10-08,F,67.9,75,FM2,Raw,B,,65,,65
2,Mónika Molnár,1973-05-14,F,71.4,75,FM2,Raw,B,,57.5,,57.5
1,Vanda Savanyú,2009-11-11,F,71.1,75,FT,Raw,B,,67.5,,67.5
1,Beáta Szalay,1979-11-24,F,78.3,82.5,FM1,Raw,B,,80,,80
1,Mónika Bazsó,1974-02-01,F,79.8,82.5,FM2,Raw,B,,120,,120
1,Mónika Bazsó,1974-02-01,F,79.8,82.5,FO,Raw,B,,120,,120
1,Rebeka Makkai,2001-02-08,F,126.3,90+,FJ,Raw,B,,65,,65
1,Zsuzsanna Kertész,1981-09-10,F,98.9,90+,FM1,Raw,B,,95,,95
2,Mariann Tóth,1979-07-23,F,104.6,90+,FM1,Raw,B,,92.5,,92.5
3,Andrea Antal,1980-04-23,F,96.8,90+,FM1,Raw,B,,75,,75
1,Marianna Óvári,1973-04-17,F,99.2,90+,FM2,Raw,B,,70,,70
1,Mária Köteles,1992-11-18,F,170.3,90+,FO,Raw,B,,130,,130
1,Lilla Adamik,2009-03-11,F,41.4,44,FT,Raw,D,,,75,75
1,Ivett Gnotek,2003-03-04,F,45.4,48,FJ,Raw,D,,,100,100
1,Judit Poliák,1973-07-18,F,50.3,52,FM2,Raw,D,,,100,100
1,Kati Györökné,1973-11-02,F,54.4,56,FM2,Raw,D,,,127.5,127.5
1,Barbara Berta,1996-08-31,F,54.2,56,FO,Raw,D,,,117.5,117.5
2,Tímea Fekete-Horváth,1985-05-14,F,54.4,56,FO,Raw,D,,,100,100
1,Mercédesz Pankovics,2004-01-17,F,56.7,60,FJ,Raw,D,,,95,95
1,Ildikó Barna,1975-05-30,F,59.4,60,FM1,Raw,D,,,132.5,132.5
1,Viktória Angyal,2003-11-16,F,65.9,67.5,FJ,Raw,D,,,115,115
1,Seres Marianna Ráczné,1980-12-04,F,61.7,67.5,FM1,Raw,D,,,120,120
2,Sörös Andrea Megyesiné,1979-07-08,F,64,67.5,FM1,Raw,D,,,102.5,102.5
1,Anikó Csonka,1968-04-27,F,62.6,67.5,FM2,Raw,D,,,170,170
1,Luca Lukács,2007-08-05,F,64,67.5,FT,Raw,D,,,120,120
2,Zoé Sziklai,2006-02-21,F,67,67.5,FT,Raw,D,,,75,75
1,Petra Patai,2004-01-11,F,68.9,75,FJ,Raw,D,,,140,140
2,Ivett Tóth,2001-08-15,F,70.6,75,FJ,Raw,D,,,140,140
1,Szilvia Sebián,1982-02-17,F,68.1,75,FM1,Raw,D,,,110,110
1,Dóra Balogh,1994-12-30,F,74.5,75,FO,Raw,D,,,165,165
1,Ilona Czinkó,2004-09-19,F,68.4,75,FT,Raw,D,,,142.5,142.5
1,Melinda Ildikó Derdák,1975-01-02,F,79.1,82.5,FM1,Raw,D,,,120,120
1,Erika Juhász,1972-09-15,F,76.8,82.5,FM2,Raw,D,,,155,155
1,Letícia Udvardi,2003-09-26,F,85.4,90,FJ,Raw,D,,,125,125
1,Andrea Györki,1976-05-22,F,86.3,90,FM1,Raw,D,,,180,180
2,Anikó Elekes,1983-10-16,F,86.6,90,FM1,Raw,D,,,135,135
1,Zsófia Szűcs,1986-11-12,F,85.6,90,FO,Raw,D,,,122.5,122.5
1,Petra Szőcs,2004-09-22,F,83.5,90,FT,Raw,D,,,120,120
1,Anita Melinda Danicser,1979-05-21,F,95.8,90+,FM1,Raw,D,,,160,160
1,Zsófia Blaskó,1998-03-06,F,94,90+,FO,Raw,D,,,150,150
1,Cintia Csordás,1995-07-19,F,55.5,56,FO,Wraps,S,130,,,130
2,Tímea Fekete-Horváth,1985-05-14,F,54.4,56,FO,Wraps,S,85,,,85
1,Sörös Andrea Megyesiné,1979-07-08,F,64,67.5,FM1,Wraps,S,85,,,85
1,Dóra Balogh,1994-12-30,F,74.5,75,FO,Wraps,S,170,,,170
1,Andrea Györki,1976-05-22,F,86.3,90,FM1,Wraps,S,130,,,130
1,Laura Tomai,2003-05-12,F,53.9,56,FJ,Wraps,SBD,120,52.5,130,302.5
1,Katalin Ferkel,1971-07-12,F,55.5,56,FM2,Wraps,SBD,100,47.5,120,267.5
1,Fanni Tóth,1999-12-04,F,55.8,56,FO,Wraps,SBD,90,62.5,107.5,260
2,Tímea Fekete-Horváth,1985-05-14,F,54.4,56,FO,Wraps,SBD,85,60,100,245
1,Georgina Hazenfratz,2006-01-05,F,54.6,56,FT,Wraps,SBD,120,47.5,132.5,300
2,Mercédesz Miklósi,2007-02-09,F,54.8,56,FT,Wraps,SBD,100,45,120,265
3,Vanda Szalai,2005-11-07,F,54.2,56,FT,Wraps,SBD,70,50,102.5,222.5
1,Dorina Markó,2001-05-03,F,56.6,60,FJ,Wraps,SBD,80,50,100,230
1,Liza Kovács,1996-12-20,F,57.9,60,FO,Wraps,SBD,130,60,140,330
1,Anasztázia Rácz,2007-12-27,F,59.9,60,FT,Wraps,SBD,105,57.5,141,303.5
1,Mónika Dancsó,2004-03-10,F,63.8,67.5,FJ,Wraps,SBD,140,65,145,350
2,Dóra Kecső,2002-08-30,F,66.4,67.5,FJ,Wraps,SBD,112.5,50,117.5,280
1,Henrietta Tuba,1975-03-28,F,67.3,67.5,FM1,Wraps,SBD,125,96,180,401
1,Krisztina Majoros,1993-08-18,F,65.7,67.5,FO,Wraps,SBD,215,100,195,510
2,Orsolya Miskolczi,1999-12-24,F,67.1,67.5,FO,Wraps,SBD,110,67.5,127.5,305
3,Dóra Szabados,1999-09-02,F,67.4,67.5,FO,Wraps,SBD,110,50,120,280
1,Eszter Kendra Gunczer,2005-08-14,F,60.3,67.5,FT,Wraps,SBD,117.5,62.5,127.5,307.5
1,Luca Garami,2000-12-17,F,67.7,75,FJ,Wraps,SBD,120,57.5,147.5,325
1,Petra Orovecz,2004-12-17,F,69.4,75,FO,Wraps,SBD,140,60,155,355
1,Petra Orovecz,2004-12-17,F,69.4,75,FT,Wraps,SBD,140,60,155,355
1,Viktória Majoros,2000-05-13,F,80.7,82.5,FJ,Wraps,SBD,160,105,165,430
1,Tímea Ujvári,1980-05-07,F,76.8,82.5,FO,Wraps,SBD,85,60,125,270
1,Andrea Györki,1976-05-22,F,86.3,90,FM1,Wraps,SBD,130,82.5,180,392.5
1,József Kovács,1973-08-12,M,97.4,100,MEM2,Single-ply,B,,185,,185
1,Imre Kadenszki,1993-06-06,M,98,100,MOE,Single-ply,B,,160,,160
1,Zsolt Mohácsi,1966-03-12,M,101,110,MEM2,Single-ply,B,,175,,175
1,Tibor Horváth,1956-02-23,M,101.8,110,MEM3,Single-ply,B,,135,,135
1,Péter Juhász-Ilyés,1982-06-21,M,116.1,125,MEM1,Single-ply,B,,185,,185
1,László Haraszti,1971-09-13,M,112.8,125,MEM2,Single-ply,B,,225,,225
2,László Baross,1970-11-06,M,110.2,125,MEM2,Single-ply,B,,150,,150
1,István Dávid,1981-09-27,M,128.3,140,MEM1,Single-ply,B,,210,,210
1,Norbert Deli,1981-06-27,M,85.6,90,MEM1,Single-ply,B,,190,,190
2,Károly Tölli,1980-02-29,M,88.1,90,MEM1,Single-ply,B,,160,,160
1,Norbert Deli,1981-06-27,M,85.6,90,MOE,Single-ply,B,,190,,190
2,Gábor Bujdosó,1995-02-21,M,87.1,90,MOE,Single-ply,B,,165,,165
1,László Eck,1978-05-27,M,97.1,100,MEM1,Single-ply,D,,,230,230
1,Mátyás Sándor Mészáros,1995-02-18,M,98.3,100,MOE,Single-ply,D,,,285,285
1,Norbert Hablicsek,1974-01-15,M,109.5,110,MEM2,Single-ply,D,,,280,280
1,Tamás Kurcz,1988-12-05,M,123.7,125,MOE,Single-ply,D,,,300,300
1,István Dávid,1981-09-27,M,128.2,140,MOE,Single-ply,D,,,220,220
1,Huba Hablicsek,1998-01-06,M,59.7,60,MOE,Single-ply,D,,,187.5,187.5
1,Hunor Hablicsek,2007-08-08,M,63.2,67.5,MET,Single-ply,D,,,145,145
1,László Posnyák,1993-01-14,M,82.1,82.5,MOE,Single-ply,D,,,200,200
1,József Török,1970-06-29,M,88.8,90,MEM2,Single-ply,D,,,182.5,182.5
1,Norbert Hablicsek,1974-01-15,M,109.5,110,MOE,Single-ply,S,250,,,250
1,István Dávid,1981-09-27,M,128.2,140,MOE,Single-ply,S,235,,,235
1,László Posnyák,1993-01-14,M,82.1,82.5,MOE,Single-ply,S,130,,,130
1,Ádám Hunor Paczuk,1998-11-30,M,83.9,90,MOE,Single-ply,S,170,,,170
1,István Dávid,1981-09-27,M,128.2,140,MOE,Single-ply,SBD,235,200,220,655
1,Róbert Csetényi,1977-01-15,M,92.3,100,MEM1,Unlimited,B,,270,,270
2,Zoltán Győri,1975-05-27,M,96.7,100,MEM1,Unlimited,B,,230,,230
1,Attila Marosi,1972-12-22,M,98.8,100,MEM2,Unlimited,B,,290,,290
1,Dániel Oláh,1998-02-02,M,99.3,100,MOE,Unlimited,B,,355,,355
1,Ferenc Balázs,1970-06-18,M,108.6,110,MEM2,Unlimited,B,,305,,305
1,József Somogyi,1992-07-21,M,124,125,MOE,Unlimited,B,,280,,280
1,János Gábor Bialik,2000-12-21,M,127.5,140,MJE,Unlimited,B,,305,,305
1,Csaba Molnár,1964-08-29,M,132.3,140,MEM2,Unlimited,B,,285,,285
1,István József Szalai,2000-11-24,M,98.7,100,MJ,Raw,B,,170,,170
2,Marcell Péter Lázár,2004-04-30,M,97.4,100,MJ,Raw,B,,155,,155
1,József Tóth,1974-05-30,M,97.6,100,MM1,Raw,B,,205,,205
2,László Németh,1980-01-04,M,96.1,100,MM1,Raw,B,,190,,190
3,Károly Szalai,1977-09-03,M,97.5,100,MM1,Raw,B,,170,,170
1,Sándor Bíró,1972-04-11,M,96.8,100,MM2,Raw,B,,170,,170
2,Attila Marosi,1972-12-22,M,98.8,100,MM2,Raw,B,,165,,165
3,György Wimmer,1969-02-11,M,98.4,100,MM2,Raw,B,,130,,130
4,János Illés,1972-01-19,M,94.1,100,MM2,Raw,B,,125,,125
1,Miklós Pomázi,1963-09-27,M,96.1,100,MM3,Raw,B,,165,,165
1,Ottó Dallos,1952-11-09,M,97.4,100,MM4,Raw,B,,135,,135
2,Ujvári Ernő,1948-05-30,M,92.5,100,MM4,Raw,B,,105,,105
1,Ákos Oláh,1989-03-04,M,98.8,100,MO,Raw,B,,215,,215
2,Benjámín Móricz,1995-08-12,M,91.7,100,MO,Raw,B,,212.5,,212.5
3,Dániel Selymes,1990-12-01,M,99.4,100,MO,Raw,B,,207.5,,207.5
4,Krisztián Somogyi,1987-01-04,M,93.1,100,MO,Raw,B,,152.5,,152.5
1,Bertalan Kaliba,2008-06-05,M,92.7,100,MT,Raw,B,,100,,100
1,Márk Attila Saceanu,2001-12-04,M,101,110,MJ,Raw,B,,147.5,,147.5
1,István Szeifert,1977-01-13,M,100.3,110,MM1,Raw,B,,185,,185
2,András Sebők,1977-05-01,M,104.7,110,MM1,Raw,B,,182.5,,182.5
3,Sándor Vaszilkó,1982-06-06,M,107.9,110,MM1,Raw,B,,180,,180
4,Mihály Balázs,1982-03-13,M,106.9,110,MM1,Raw,B,,145,,145
5,János Lombosi,1983-12-01,M,108.5,110,MM1,Raw,B,,135,,135
1,Péter Ödön Takács,1973-09-22,M,106.9,110,MM2,Raw,B,,200,,200
2,Károly Willand,1972-09-24,M,106.9,110,MM2,Raw,B,,157.5,,157.5
1,Imre Nagy,1962-11-29,M,104.2,110,MM3,Raw,B,,130,,130
1,Csaba Mihály Kollár,1998-04-23,M,109.5,110,MO,Raw,B,,190,,190
2,József Nagy,1994-03-11,M,102.8,110,MO,Raw,B,,137.5,,137.5
1,Krisztofer Kosztics,2005-02-02,M,101,110,MT,Raw,B,,155,,155
1,Ferenc Som,1974-11-04,M,117,125,MM1,Raw,B,,200,,200
2,Gábor Somogyi #2,1980-06-09,M,113.3,125,MM1,Raw,B,,182.5,,182.5
3,Ferenc Klemm,1979-12-13,M,110.4,125,MM1,Raw,B,,175,,175
1,Tamás Bartalos,1973-04-09,M,122.9,125,MM2,Raw,B,,180,,180
2,László Baross,1970-11-06,M,110.2,125,MM2,Raw,B,,152.5,,152.5
3,Gábor Attila Kluk,1971-08-17,M,124.5,125,MM2,Raw,B,,152.5,,152.5
4,György Bálint Papp,1974-03-23,M,111.1,125,MM2,Raw,B,,130,,130
1,Antal Teveli,1962-08-09,M,119.3,125,MM3,Raw,B,,140,,140
2,Zoltán Varjú,1954-12-01,M,114.7,125,MM3,Raw,B,,100,,100
1,Sándor Csősz,1995-09-22,M,123.5,125,MO,Raw,B,,230,,230
2,Zsolt Ákos Kovács,1998-06-16,M,119,125,MO,Raw,B,,210,,210
3,Richárd Németh,1993-12-19,M,112.5,125,MO,Raw,B,,200,,200
4,Péter Forgács,1989-08-17,M,116.2,125,MO,Raw,B,,197.5,,197.5
5,Attila Bakos,1992-01-04,M,111.6,125,MO,Raw,B,,195,,195
6,Péter Kiss,1990-06-07,M,119.8,125,MO,Raw,B,,175,,175
7,Kristóf Mészáros,1994-08-08,M,119.9,125,MO,Raw,B,,165,,165
1,Ádám Róbert Zsombok,2005-05-06,M,111.1,125,MT,Raw,B,,140,,140
2,Márk Tóth,2009-02-11,M,118.1,125,MT,Raw,B,,112.5,,112.5
1,Roland Lukács,1975-02-28,M,134.3,140,MM1,Raw,B,,187.5,,187.5
1,László Horváth,1972-07-17,M,130.5,140,MM2,Raw,B,,205,,205
2,Gábor Minya,1969-10-30,M,132.7,140,MM2,Raw,B,,185,,185
3,Gábor Erdődi,1971-11-12,M,135.4,140,MM2,Raw,B,,142.5,,142.5
1,Pál Kovács,1962-09-03,M,139.1,140,MM3,Raw,B,,137.5,,137.5
1,László Bujdosó,1993-07-11,M,127.2,140,MO,Raw,B,,210,,210
2,Károly Erdődi,1969-08-29,M,131.4,140,MO,Raw,B,,145,,145
1,Gábor Salamon,1978-02-18,M,156.3,140+,MM1,Raw,B,,180,,180
1,Ferenc Kalauz,1971-12-28,M,145,140+,MM2,Raw,B,,195,,195
1,Ferenc Kalauz,1971-12-28,M,145,140+,MO,Raw,B,,195,,195
1,Kristóf Lajos Szalai,2006-01-24,M,146.2,140+,MT,Raw,B,,155,,155
1,Tamás Marosán,2000-08-16,M,54.8,56,MJ,Raw,B,,150.5,,150.5
1,Tamás Marosán,2000-08-16,M,54.8,56,MO,Raw,B,,150.5,,150.5
1,Donát Ferku,2009-04-27,M,54.1,56,MT,Raw,B,,100,,100
1,János Tóth,1974-03-19,M,58.2,60,MM2,Raw,B,,80,,80
1,Kadocsa Dér,2001-04-07,M,63.1,67.5,MJ,Raw,B,,80,,80
1,István Répás,1977-02-23,M,66.8,67.5,MM1,Raw,B,,140,,140
1,András Seletye,1959-11-12,M,65.4,67.5,MM3,Raw,B,,90,,90
1,László Kurucz,1953-01-16,M,62.6,67.5,MM4,Raw,B,,95,,95
1,Benjámin Áder,1998-11-15,M,67,67.5,MO,Raw,B,,147.5,,147.5
2,István Roland Botás,1991-06-14,M,65.5,67.5,MO,Raw,B,,115,,115
1,Márton Oravecz,2007-08-22,M,64.3,67.5,MT,Raw,B,,100,,100
2,Bernárd Márk Terzin,2006-12-10,M,67.1,67.5,MT,Raw,B,,75,,75
3,Áron Megyeri,2010-02-14,M,64.7,67.5,MT,Raw,B,,72.5,,72.5
4,Milán Dobai,2007-05-03,M,64.5,67.5,MT,Raw,B,,55,,55
1,Tamás Marosán,1975-09-19,M,73.4,75,MM1,Raw,B,,135,,135
2,Krisztián Kaiser,1977-01-27,M,74.6,75,MM1,Raw,B,,125,,125
1,Zsolt Karlik,1972-06-07,M,73.7,75,MM2,Raw,B,,155,,155
1,László Göbölös,1963-11-17,M,72.4,75,MM3,Raw,B,,95,,95
1,József Károly Gellért,1944-07-24,M,73.1,75,MM4,Raw,B,,70,,70
1,Dániel Csiszár,1988-12-07,M,74.2,75,MO,Raw,B,,150,,150
2,Tamás Gurbai,1994-08-06,M,69.6,75,MO,Raw,B,,145,,145
3,Gergely Kerecsényi,1990-04-20,M,74.3,75,MO,Raw,B,,142.5,,142.5
1,Áron János Baráth,2006-03-31,M,71.3,75,MT,Raw,B,,150,,150
2,Richárd Sós-Tóvizi,2007-05-08,M,72.8,75,MT,Raw,B,,112.5,,112.5
3,Zénó Czinkó,2009-09-09,M,74.5,75,MT,Raw,B,,72.5,,72.5
1,Ádám Koterlán,2001-12-28,M,82.1,82.5,MJ,Raw,B,,155,,155
2,Márk Horváth,2001-03-08,M,77.5,82.5,MJ,Raw,B,,130,,130
1,Péter Barkó,1974-09-27,M,79.4,82.5,MM1,Raw,B,,152.5,,152.5
2,Ödön Takács,1982-06-16,M,81.4,82.5,MM1,Raw,B,,147.5,,147.5
3,József Rezicska,1983-08-10,M,79.8,82.5,MM1,Raw,B,,120,,120
1,Korom Dezső Id,1971-03-05,M,80.9,82.5,MM2,Raw,B,,165,,165
2,Csaba Kecskés,,M,80.7,82.5,MM2,Raw,B,,162.5,,162.5
3,Gábor Győri,1971-11-19,M,75.8,82.5,MM2,Raw,B,,120,,120
4,István Bara,1968-12-05,M,75.8,82.5,MM2,Raw,B,,115,,115
1,István Verebi,1951-02-17,M,79.3,82.5,MM4,Raw,B,,70,,70
1,Bálint Száraz,1999-05-22,M,82.3,82.5,MO,Raw,B,,195,,195
2,László Ferenc Horváth,1992-02-12,M,78.2,82.5,MO,Raw,B,,132.5,,132.5
3,István Tanai,1993-12-04,M,81,82.5,MO,Raw,B,,130,,130
1,Dániel Sándor,2007-06-02,M,80.6,82.5,MT,Raw,B,,122.5,,122.5
2,Levente Joó,2009-03-11,M,76.6,82.5,MT,Raw,B,,120,,120
3,Tamás Csaba Antal,2006-01-03,M,82,82.5,MT,Raw,B,,120,,120
4,Dávid Lombosi,2007-08-13,M,80.4,82.5,MT,Raw,B,,85,,85
1,Péter Póhr,1979-10-13,M,86.1,90,MM1,Raw,B,,130,,130
1,Zsolt Kotrócz,1967-06-02,M,87.3,90,MM2,Raw,B,,152.5,,152.5
2,Péter Kukla,1973-01-07,M,87.8,90,MM2,Raw,B,,147.5,,147.5
3,Norbert Cseke,1971-04-24,M,88.9,90,MM2,Raw,B,,147.5,,147.5
1,István Ágoston,1962-05-28,M,88.3,90,MM3,Raw,B,,150,,150
2,István Fazekas,1960-03-05,M,86.4,90,MM3,Raw,B,,140,,140
1,István Kucsera,1954-02-21,M,87.6,90,MM4,Raw,B,,137.5,,137.5
2,György Kerékgyártó,1949-10-20,M,89.7,90,MM4,Raw,B,,135,,135
3,Sándor Busák,1952-04-26,M,85.8,90,MM4,Raw,B,,110,,110
1,Attila Lajos Jeremiás,1943-08-19,M,89.1,90,MM5,Raw,B,,97.5,,97.5
1,Gábor Molnár,1992-12-08,M,89,90,MO,Raw,B,,192.5,,192.5
2,Benjámin Laki,1996-12-28,M,87.4,90,MO,Raw,B,,160,,160
3,László István Koncz,1998-01-20,M,87.8,90,MO,Raw,B,,155,,155
1,Martin Varga,2007-05-02,M,83.2,90,MT,Raw,B,,152.5,,152.5
2,Marcell Tornyos,2007-08-15,M,89.2,90,MT,Raw,B,,145,,145
1,Bence Eklics,2003-07-10,M,91.8,100,MJ,Raw,D,,,310,310
1,László Németh,1980-01-04,M,95.8,100,MM1,Raw,D,,,220,220
1,Zoltán Karsai,1974-03-02,M,98.2,100,MM2,Raw,D,,,260,260
2,Szabolcs Szép,1973-06-19,M,99.1,100,MM2,Raw,D,,,232.5,232.5
3,János Illés,1972-01-19,M,93.2,100,MM2,Raw,D,,,202.5,202.5
1,József Imre Kovács,1948-09-26,M,90.1,100,MM4,Raw,D,,,150,150
1,Péter Czentye,1989-01-23,M,97.2,100,MO,Raw,D,,,325,325
2,Szabolcs Szatmári,1992-01-22,M,97.1,100,MO,Raw,D,,,307.5,307.5
3,Péter Menyhárt,1973-08-06,M,93.5,100,MO,Raw,D,,,240,240
4,Zoltán Debreczeni,1996-10-20,M,100,100,MO,Raw,D,,,240,240
1,József Nataniel Kreknyák,2005-02-27,M,98.8,100,MT,Raw,D,,,220,220
1,Lajos Bán,1976-11-27,M,107,110,MM1,Raw,D,,,240,240
2,Mihály Balázs,1982-03-13,M,106.8,110,MM1,Raw,D,,,220,220
3,Ákos Takács,1976-08-27,M,107.6,110,MM1,Raw,D,,,220,220
1,Attila Heizer,1965-12-26,M,100.9,110,MM2,Raw,D,,,180,180
1,Tóth Bence,1996-05-30,M,101.7,110,MO,Raw,D,,,330,330
2,Csaba Mihály Kollár,1998-04-23,M,106.6,110,MO,Raw,D,,,315,315
3,Norbert Gáli,1989-06-17,M,101.2,110,MO,Raw,D,,,275,275
4,Levente Bernáth,1992-09-30,M,108,110,MO,Raw,D,,,245,245
1,Attila Vámosi,2005-09-20,M,100.9,110,MT,Raw,D,,,195,195
1,Martin Gréczi,2001-05-23,M,114.7,125,MJ,Raw,D,,,240,240
1,Pál Gubicza,1980-11-29,M,121.5,125,MM1,Raw,D,,,280,280
2,Zsolt Viktór Szabó,1976-07-01,M,112.5,125,MM1,Raw,D,,,230,230
3,András Tóth,1983-08-28,M,123.4,125,MM1,Raw,D,,,185,185
1,Róbert Szabó,1973-01-27,M,113.7,125,MM2,Raw,D,,,245,245
2,Bálint Nácsa,1964-11-22,M,122.2,125,MM2,Raw,D,,,215,215
1,Gábor Palásti,1960-09-02,M,120.1,125,MM3,Raw,D,,,262.5,262.5
1,Tamás Kurcz,1988-12-05,M,123.7,125,MO,Raw,D,,,317.5,317.5
2,Gergő Grézál,1999-06-21,M,114.5,125,MO,Raw,D,,,315,315
3,Zsolt Viktór Szabó,1976-07-01,M,112.5,125,MO,Raw,D,,,230,230
4,Dávid Mader,1994-03-09,M,110.2,125,MO,Raw,D,,,165,165
1,Dániel Páder,2005-02-08,M,112.7,125,MT,Raw,D,,,250,250
2,Richárd Soma Tóth,2004-05-24,M,118.1,125,MT,Raw,D,,,230,230
3,Márk Tóth,2009-02-11,M,118.9,125,MT,Raw,D,,,175,175
1,László Bujdosó,1993-07-11,M,126.1,140,MO,Raw,D,,,275,275
1,Marcell Natovicz,2004-12-31,M,129.3,140,MT,Raw,D,,,260,260
1,Zoltán Csibrák,1980-01-23,M,142.7,140+,MM1,Raw,D,,,100,100
1,Tibor Karalyos,1973-12-26,M,141.8,140+,MM2,Raw,D,,,275,275
1,Péter Bana,2005-07-09,M,66.6,67.5,MO,Raw,D,,,205,205
2,Attila Horváth,1985-07-13,M,64.9,67.5,MO,Raw,D,,,170,170
1,Péter Bana,2005-07-09,M,66.6,67.5,MT,Raw,D,,,205,205
2,Áron Miklós Csatár,2004-11-11,M,62.8,67.5,MT,Raw,D,,,150,150
3,Illés Rácz,2009-01-11,M,63.3,67.5,MT,Raw,D,,,147.5,147.5
1,Dávid Boros,2001-03-14,M,70.7,75,MJ,Raw,D,,,180,180
1,Máté Kiss,1999-07-07,M,70.8,75,MO,Raw,D,,,270.5,270.5
2,Tibor Dobó,1997-07-29,M,73.5,75,MO,Raw,D,,,200,200
3,Bence Török,2006-08-12,M,72.5,75,MO,Raw,D,,,182.5,182.5
1,Benjámin Balogh,2006-02-21,M,71.9,75,MT,Raw,D,,,225,225
2,Levente Szabó,2006-08-23,M,73.1,75,MT,Raw,D,,,192.5,192.5
3,Bence Török,2006-08-12,M,72.5,75,MT,Raw,D,,,182.5,182.5
4,Zénó Czinkó,2009-09-09,M,73,75,MT,Raw,D,,,162.5,162.5
5,Dávid Dobos,2005-03-10,M,71.3,75,MT,Raw,D,,,150,150
1,Mihály Kalóczkai,1976-08-02,M,79.4,82.5,MM1,Raw,D,,,190,190
2,József Rezicska,1983-08-10,M,79.5,82.5,MM1,Raw,D,,,145,145
1,István Verebi,1951-02-17,M,79.1,82.5,MM4,Raw,D,,,110,110
1,Markó Mari,1994-08-09,M,81,82.5,MO,Raw,D,,,300,300
2,Máté Miklós Sajtos,1997-11-07,M,81.3,82.5,MO,Raw,D,,,255,255
3,István Tanai,1993-12-04,M,80.9,82.5,MO,Raw,D,,,190,190
4,Péter Pál Miklai,1996-07-29,M,80.4,82.5,MO,Raw,D,,,100,100
1,Dominik Görög,2006-06-25,M,75.5,82.5,MT,Raw,D,,,182.5,182.5
2,Adrián Fikner,2005-09-21,M,77.2,82.5,MT,Raw,D,,,160,160
1,Tamás Benedek Lóczi,2001-05-30,M,89.3,90,MJ,Raw,D,,,200,200
1,Szabolcs Érsek,1975-01-02,M,86.8,90,MM1,Raw,D,,,225,225
2,Péter Póhr,1979-10-13,M,86,90,MM1,Raw,D,,,177.5,177.5
3,Károly Tölli,1980-02-29,M,87.5,90,MM1,Raw,D,,,175,175
1,Ladislau Kiss,1948-05-22,M,89.7,90,MM4,Raw,D,,,230,230
1,Szilárd Andrási,1997-06-09,M,88.5,90,MO,Raw,D,,,290,290
2,Pál Tóth,1991-03-03,M,88.6,90,MO,Raw,D,,,282.5,282.5
3,Károly József Szuder,1987-03-16,M,89.2,90,MO,Raw,D,,,257.5,257.5
4,Norbert Gerhát,1991-09-11,M,88.8,90,MO,Raw,D,,,245,245
5,Miklós Mátyás Müller,1999-11-11,M,88.3,90,MO,Raw,D,,,240,240
6,Róbert Kutni,2000-02-28,M,86.5,90,MO,Raw,D,,,205,205
1,László Bogdán,2005-09-03,M,83.2,90,MT,Raw,D,,,225,225
2,Ádám Bendegúz Darázs,2008-08-19,M,86.5,90,MT,Raw,D,,,200,200
3,Benjámin Komondi,2006-07-23,M,84.2,90,MT,Raw,D,,,180,180
4,Nimród Nádasdi,2009-02-16,M,86.9,90,MT,Raw,D,,,180,180
1,Bence Eklics,2003-07-10,M,91.8,100,MJ,Wraps,S,250,,,250
1,Bertalan Kaliba,2008-06-05,M,93.6,100,MT,Wraps,S,170,,,170
1,Ákos Takács,1976-08-27,M,107.6,110,MM1,Wraps,S,200,,,200
1,Mátyás Végh,1996-07-15,M,104.2,110,MO,Wraps,S,265,,,265
2,Ákos Takács,1976-08-27,M,107.6,110,MO,Wraps,S,200,,,200
1,Dominik Lipták,2001-03-23,M,118.2,125,MJ,Wraps,S,260,,,260
1,Róbert Csaba Pintér,1978-07-12,M,118.7,125,MM1,Wraps,S,217.5,,,217.5
2,András Tóth,1983-08-28,M,123.4,125,MM1,Wraps,S,145,,,145
1,Krisztián Németh,1996-09-13,M,120.1,125,MO,Wraps,S,275,,,275
2,Dávid Mader,1994-03-09,M,110.2,125,MO,Wraps,S,130,,,130
1,Gábor Kocsis,1992-09-11,M,135.6,140,MO,Wraps,S,340,,,340
1,Tibor Karalyos,1973-12-26,M,141.8,140+,MM2,Wraps,S,225,,,225
1,Sándor Varjú,2000-03-03,M,151.9,140+,MO,Wraps,S,350.5,,,350.5
1,Titusz Lombosi,2009-01-30,M,64.2,67.5,MT,Wraps,S,110,,,110
1,Dávid Boros,2001-03-14,M,70.7,75,MJ,Wraps,S,165,,,165
1,Benjámin Balogh,2006-02-21,M,71.9,75,MT,Wraps,S,165,,,165
1,László Jantek,1965-12-15,M,80.6,82.5,MM2,Wraps,S,200,,,200
1,Gergő Petneházi,1991-12-18,M,82.2,82.5,MO,Wraps,S,230,,,230
1,Dominik Görög,2006-06-25,M,75.5,82.5,MT,Wraps,S,140,,,140
1,Tamás Benedek Lóczi,2001-05-30,M,89.3,90,MJ,Wraps,S,212.5,,,212.5
1,József Kovács,1977-01-16,M,88.6,90,MM1,Wraps,S,222.5,,,222.5
1,Károly József Szuder,1987-03-16,M,89.2,90,MO,Wraps,S,250,,,250
2,Norbert Gerhát,1991-09-11,M,88.8,90,MO,Wraps,S,200,,,200
3,Sohajda Kristóf,1993-05-12,M,89.5,90,MO,Wraps,S,180,,,180
1,László Bogdán,2005-09-03,M,83.2,90,MT,Wraps,S,160,,,160
1,Patrik Kiss,2001-09-07,M,98.8,100,MJ,Wraps,SBD,300,170,310,780
2,Bence Eklics,2003-07-10,M,91.8,100,MJ,Wraps,SBD,250,160,310,720
3,Tamás Zalán Péter,2002-03-29,M,94.4,100,MJ,Wraps,SBD,230,160,250,640
4,Robin Horváth,2001-09-04,M,98.3,100,MJ,Wraps,SBD,235,120,240,595
5,Ádám Bakonyi,2002-05-19,M,95.4,100,MJ,Wraps,SBD,215,150,225,590
6,Miklós Bence Bartha,2003-07-14,M,97.6,100,MJ,Wraps,SBD,200,120,250,570
7,Levente Bekő,2002-04-18,M,98.7,100,MJ,Wraps,SBD,180,97.5,192.5,470
1,Károly Horváth,1980-08-20,M,97.7,100,MM1,Wraps,SBD,277.5,130,240,647.5
1,István Bognár,1972-05-01,M,94.1,100,MM2,Wraps,SBD,190,120,200,510
2,Miklós Nagy,1970-06-02,M,93.5,100,MM2,Wraps,SBD,135,100,170,405
1,József Sztanke,1954-06-14,M,95.9,100,MM3,Wraps,SBD,170,125,200,495
1,Tamás Barna,1992-12-25,M,94.6,100,MO,Wraps,SBD,275,200,315,790
2,István Bakkancsos,1994-03-18,M,98.9,100,MO,Wraps,SBD,290,200,300,790
3,Viktor Kiss,1993-10-06,M,99.3,100,MO,Wraps,SBD,265,172.5,302.5,740
4,Zoltán Somi,1999-08-15,M,95.7,100,MO,Wraps,SBD,282.5,155,275,712.5
5,Tamás Jakabfi,1991-01-31,M,93.5,100,MO,Wraps,SBD,240,180,240,660
6,Kristóf Ádám Tánczos,1995-02-11,M,95.3,100,MO,Wraps,SBD,245,140,260,645
7,Attila Gonda,1995-07-18,M,100,100,MO,Wraps,SBD,240,142.5,257.5,640
8,Abbas Dhari,1995-10-27,M,99.5,100,MO,Wraps,SBD,220,142.5,275,637.5
9,Kálmán Szabó,1985-04-30,M,99.9,100,MO,Wraps,SBD,190,170,240,600
10,Bertalan Hajnal,1992-10-21,M,97.8,100,MO,Wraps,SBD,150,112.5,182.5,445
1,Dániel Bendegúz Kállai,2007-05-22,M,98.7,100,MT,Wraps,SBD,202.5,135,210,547.5
2,Marcell Ács,2006-07-01,M,96.2,100,MT,Wraps,SBD,195,137.5,210,542.5
3,József Tibor Kozma,2005-08-16,M,92.9,100,MT,Wraps,SBD,205,117.5,215,537.5
4,Marcell Bálint Dömötör,2004-06-14,M,99.9,100,MT,Wraps,SBD,200,100,207.5,507.5
5,Marcell Vollopich,2004-06-18,M,94.4,100,MT,Wraps,SBD,180,130,195,505
6,Ádám Porteleki,2006-05-29,M,98.9,100,MT,Wraps,SBD,150,140,200,490
7,Kornél Nagy,2007-07-04,M,95.3,100,MT,Wraps,SBD,160,90,213,463
8,Olivér Takács,2006-09-18,M,90.6,100,MT,Wraps,SBD,40,87.5,190,317.5
1,László Baji,2001-10-29,M,108,110,MJ,Wraps,SBD,245,145,260,650
2,Péter Forisek,2001-01-01,M,106.6,110,MJ,Wraps,SBD,155,110,210,475
1,Antal Tábor,1979-06-04,M,104.5,110,MM1,Wraps,SBD,250,175,270,695
1,Csaba Mihály Kollár,1998-04-23,M,106.6,110,MO,Wraps,SBD,270,195,315,780
2,Mátyás Végh,1996-07-15,M,104.2,110,MO,Wraps,SBD,265,160,277.5,702.5
3,Zoltán Patai,1997-07-14,M,106.6,110,MO,Wraps,SBD,257.5,140,265,662.5
4,Dávid Bakos,1987-08-07,M,108.5,110,MO,Wraps,SBD,212.5,190,230,632.5
5,Dávid Ordacsi,1998-11-19,M,106.8,110,MO,Wraps,SBD,150,137.5,180,467.5
1,Zsolt Viktór Szabó,2007-04-05,M,109,110,MT,Wraps,SBD,192.5,142.5,212.5,547.5
1,Dominik Lipták,2001-03-23,M,118.2,125,MJ,Wraps,SBD,260,195,320,775
2,Gergő Csibi,2001-04-26,M,114.1,125,MJ,Wraps,SBD,277.5,180,250,707.5
3,Martin Gréczi,2001-05-23,M,114.7,125,MJ,Wraps,SBD,250,150,240,640
4,Gáspár Sándor Sinka,2004-04-02,M,114.1,125,MJ,Wraps,SBD,170,110,215,495
1,Tibor Szántó,1976-01-26,M,117.9,125,MM1,Wraps,SBD,245,170,280,695
2,Róbert Csaba Pintér,1978-07-12,M,118.7,125,MM1,Wraps,SBD,217.5,152.5,230,600
1,János Tar,1998-12-25,M,114.3,125,MO,Wraps,SBD,362.5,197.5,365,925
2,János Rajmund Nagy,1993-11-06,M,114.9,125,MO,Wraps,SBD,330,212.5,340,882.5
3,Péter Szabó,1992-06-26,M,115.5,125,MO,Wraps,SBD,260,145,235,640
1,Alex Simon,2004-10-16,M,121.8,125,MT,Wraps,SBD,197.5,125,230,552.5
1,Gyula Ujvári,1978-03-21,M,136.4,140,MM1,Wraps,SBD,200,185,220,605
1,István Debus,1967-07-11,M,126.4,140,MM2,Wraps,SBD,200,170,240,610
1,István Debus,1967-07-11,M,126.4,140,MO,Wraps,SBD,200,170,240,610
1,Sándor Varjú,2000-03-03,M,151.9,140+,MO,Wraps,SBD,350.5,160,260,770.5
1,Bence József Csóka,2007-02-25,M,58.6,60,MT,Wraps,SBD,130,95,155,380
1,Gábor Csicsely,2002-03-19,M,67.5,67.5,MJ,Wraps,SBD,105,80,150,335
1,Dániel Rekecki,1994-07-21,M,66.8,67.5,MO,Wraps,SBD,222.5,150,240,612.5
2,Viktor Nagy,1995-06-23,M,66.1,67.5,MO,Wraps,SBD,190,120,215,525
3,Richárd György Vezér,1997-03-05,M,61.3,67.5,MO,Wraps,SBD,150,120,200,470
4,Soma Rádóczi,1994-09-24,M,60.3,67.5,MO,Wraps,SBD,155,115,180,450
1,László Zétény Nagy,2006-09-14,M,66,67.5,MT,Wraps,SBD,145,105,190,440
2,Zoltán Haga,2006-03-06,M,64.7,67.5,MT,Wraps,SBD,140,100,175,415
3,Titusz Lombosi,2009-01-30,M,64.2,67.5,MT,Wraps,SBD,110,60,115,285
1,Dávid Boros,2001-03-14,M,70.7,75,MJ,Wraps,SBD,165,125,180,470
1,Ferenc Hábetler,1973-02-09,M,73.2,75,MM2,Wraps,SBD,170,87.5,180,437.5
1,Máté Kiss,1999-07-07,M,70.8,75,MO,Wraps,SBD,228,122.5,270.5,621
1,Ágoston Lakatos,2007-03-12,M,72.5,75,MT,Wraps,SBD,187.5,115,177.5,480
2,Dominik Márk Kovács,2004-10-26,M,73,75,MT,Wraps,SBD,157.5,95,172.5,425
1,Róbert Makai,2002-11-16,M,78.8,82.5,MJ,Wraps,SBD,180,115,250,545
1,Gergő Petneházi,1991-12-18,M,82.2,82.5,MO,Wraps,SBD,230,147.5,230,607.5
2,Tamás Sipos,1986-09-09,M,81.7,82.5,MO,Wraps,SBD,225,137.5,242.5,605
3,Lajos Dávid Zsarnai,1987-11-09,M,79.1,82.5,MO,Wraps,SBD,200,120,220,540
1,Bence Takács,2008-11-19,M,78.7,82.5,MT,Wraps,SBD,182.5,90,177.5,450
2,Zoltán Barkó,2006-11-17,M,78.3,82.5,MT,Wraps,SBD,100,77.5,130,307.5
1,Nándor Mennich,2003-02-19,M,87.3,90,MJ,Wraps,SBD,210,125,220,555
2,Tamás Benedek Lóczi,2001-05-30,M,89.3,90,MJ,Wraps,SBD,212.5,125,200,537.5
3,Szabolcs Gimes,2003-12-31,M,84.9,90,MJ,Wraps,SBD,175,107.5,200,482.5
1,József Kovács,1977-01-16,M,88.6,90,MM1,Wraps,SBD,222.5,115,235,572.5
1,István Gyuricska Jr,1967-04-06,M,88.2,90,MM2,Wraps,SBD,200,155,220,575
2,Tibor Illés Rácz,1970-08-22,M,88,90,MM2,Wraps,SBD,155,90,220.5,465.5
3,József Török,1970-06-29,M,88.8,90,MM2,Wraps,SBD,140,95,150,385
1,Ferenc Smuk,1952-05-08,M,89.3,90,MM4,Wraps,SBD,225,85,245,555
1,Kornél Mengyi,1997-06-05,M,84,90,MO,Wraps,SBD,315,182.5,295,792.5
2,István Tar,1994-12-09,M,88.7,90,MO,Wraps,SBD,265,160,280,705
3,Miklós Kelemen,2000-05-04,M,88.5,90,MO,Wraps,SBD,265,172.5,265,702.5
4,Károly József Szuder,1987-03-16,M,89.2,90,MO,Wraps,SBD,250,175,257.5,682.5
5,István Bodó,1988-01-09,M,87.5,90,MO,Wraps,SBD,237.5,157.5,250,645
6,Gergő Kerekes,2000-01-24,M,88.4,90,MO,Wraps,SBD,250,140,235,625
7,Szilárd Andrási,1997-06-09,M,88.5,90,MO,Raw,SBD,170,140,290,600
8,Miklós Mátyás Müller,1999-11-11,M,88.3,90,MO,Wraps,SBD,200,142.5,240,582.5
9,Bence Gémes,1999-12-03,M,87.7,90,MO,Wraps,SBD,195,117.5,240,552.5
10,Sohajda Kristóf,1993-05-12,M,89.5,90,MO,Wraps,SBD,180,115,192.5,487.5
1,Levente Sipos,2006-08-07,M,87.9,90,MT,Wraps,SBD,226,127.5,250,603.5
2,Benjámin Farkas,2005-06-18,M,85.6,90,MT,Wraps,SBD,197.5,112.5,207.5,517.5
3,Ödön Holéczy,2008-08-17,M,88.4,90,MT,Wraps,SBD,150,75,175,400
4,Martin Sztanke,2005-07-31,M,84.6,90,MT,Wraps,SBD,100,50,120,270
