Place,Name,BirthYear,Team,BodyweightKg,Bench1Kg,Bench2Kg,Bench3Kg,Best3BenchKg,TotalKg,Event,WeightClassKg,Division,Equipment,Sex,BirthDate
1,Kovács Richárd,1997,RKA Erőm.,58.3,55.0,62.5,-65.0,62.5,62.5,B,59,Open,Raw,M,
1,Békési Norbert,1994,RKA Erőm.,64.5,-110.0,110.0,117.5,117.5,117.5,B,66,Open,Raw,M,
2,Képíró István,1984,Mérk SE,63.15,105.0,110.0,115.0,115.0,115.0,B,66,Open,Raw,M,
3,Szabó Dávid,1999,TIFIT,62.3,90.0,-95.0,95.0,95.0,95.0,B,66,Open,Raw,M,
1,Répás István,1977,Nagytétény,68.0,120.0,-125.0,-125.0,120.0,120.0,B,74,Open,Raw,M,
2,Onder Béla,1992,Mérk SE,70.1,115.0,117.5,120.0,120.0,120.0,B,74,Open,Raw,M,
3,Buda Róbert,1996,JÁTESZSE,70.95,110.0,120.0,-122.5,120.0,120.0,B,74,Open,Raw,M,
4,Dr. Matyusz Zsolt,1981,RKA Erőm.,71.9,110.0,112.5,-117.5,112.5,112.5,B,74,Open,Raw,M,
5,Keszthelyi Roland,1991,TabiFK,68.9,90.0,105.0,-110.0,105.0,105.0,B,74,Open,Raw,M,
6,Decsi Máté,1999,TabiFK,72.05,90.0,92.5,-95.0,92.5,92.5,B,74,Open,Raw,M,
1,Csalami Norbert,1987,RKA Erőm.,81.3,150.0,-157.5,-157.5,150.0,150.0,B,83,Open,Raw,M,
2,Sulyok Dávid,1988,ÓzdiSúlyem,82.45,125.0,130.0,-132.5,130.0,130.0,B,83,Open,Raw,M,
3,Francz István,1968,TabiFK,80.0,120.0,-125.0,-125.0,120.0,120.0,B,83,Open,Raw,M,
4,Paizs Bence,1996,KozmaGym,83.0,112.5,115.0,-117.5,115.0,115.0,B,83,Open,Raw,M,
5,Urbán István,1988,MAFC,81.75,97.5,-102.5,102.5,102.5,102.5,B,83,Open,Raw,M,
6,Decsi Attila,1999,TabiFK,80.9,80.0,-82.5,-82.5,80.0,80.0,B,83,Open,Raw,M,
1,Zakor Tibor,1979,RKA Erőm.,90.75,172.5,177.5,-182.5,177.5,177.5,B,93,Open,Raw,M,
2,Temesvári Tamás,1991,ThorPowerb,90.7,-172.5,172.5,-180.0,172.5,172.5,B,93,Open,Raw,M,
3,Bársony Attila,1966,SugóPower,90.75,157.5,162.5,165.0,165.0,165.0,B,93,Open,Raw,M,
4,Putyera Gábor,2013,TabiFK,89.3,150.0,157.5,-162.5,157.5,157.5,B,93,Open,Raw,M,
5,Márkovics Máté,1993,RKA Erőm.,90.2,145.0,152.5,-160.0,152.5,152.5,B,93,Open,Raw,M,
6,Bicskei László,2000,SugóPower,87.65,145.0,150.0,-155.0,150.0,150.0,B,93,Open,Raw,M,
7,P.Nagy Bálint,1994,RKA Erőm.,91.85,130.0,137.5,145.0,145.0,145.0,B,93,Open,Raw,M,
8,Mihálik Ádám,1994,TabiFK,92.75,137.5,145.0,-152.5,145.0,145.0,B,93,Open,Raw,M,
9,Simon Péter,1975,JÁTESZSE,92.7,135.0,140.0,-142.5,140.0,140.0,B,93,Open,Raw,M,
10,Finta Attila,1975,TIFIT,92.55,-110.0,110.0,112.5,112.5,112.5,B,93,Open,Raw,M,
11,Hortobágyi Tamás,1988,MAFC,90.7,105.0,110.0,-115.0,110.0,110.0,B,93,Open,Raw,M,
1,Szabadi Attila,1984,SugóPower,102.45,160.0,167.5,-170.0,167.5,167.5,B,105,Open,Raw,M,
2,Kelemen Richárd,1975,RKA Erőm.,96.8,145.0,155.0,160.0,160.0,160.0,B,105,Open,Raw,M,
3,Lugasi István,1973,RKA Erőm.,104.9,140.0,147.5,155.0,155.0,155.0,B,105,Open,Raw,M,
4,Kolompár Krisztián,1999,JÁTESZSE,101.35,110.0,115.0,120.0,120.0,120.0,B,105,Open,Raw,M,
5,Holenár Péter,,TabiFK,100.2,65.0,70.0,-80.0,70.0,70.0,B,105,Open,Raw,M,
DQ,Buk Tibor,1991,ThorPowerb,102.95,-170.0,-175.0,-175.0,,,B,105,Open,Raw,M,
1,Fórizs Zoltán,1980,TabiFK,107.55,180.0,187.5,-192.5,187.5,187.5,B,120,Open,Raw,M,
2,Feigl István,1988,RKA Erőm.,110.05,175.0,182.5,-190.0,182.5,182.5,B,120,Open,Raw,M,
3,Farkas Ádám,1992,Toldi SE,115.7,170.0,180.0,-185.0,180.0,180.0,B,120,Open,Raw,M,
4,Bársony Máté,1994,SugóPower,107.4,160.0,165.0,-170.0,165.0,165.0,B,120,Open,Raw,M,
5,Nagy Róbert,1972,TIFIT,118.1,160.0,165.0,-170.0,165.0,165.0,B,120,Open,Raw,M,
1,Fogas Károly,1981,TabiFK,127.7,160.0,170.0,175.0,175.0,175.0,B,120+,Open,Raw,M,
2,Tóth Zsolt,1975,Sebi Gym,123.35,162.5,167.5,-172.5,167.5,167.5,B,120+,Open,Raw,M,
3,Varga Endre,1991,Marvel,134.3,160.0,167.5,-172.5,167.5,167.5,B,120+,Open,Raw,M,
4,Farkas Béla,1992,RKA Erőm.,143.9,140.0,150.0,-172.5,150.0,150.0,B,120+,Open,Raw,M,
1,Szabó Anna,1964,RKA Erőm.,49.3,35.0,37.5,40.0,40.0,40.0,B,52,Open,Raw,F,
2,Horváth Nikolett,1998,TabiFK,50.45,32.5,35.0,-37.5,35.0,35.0,B,52,Open,Raw,F,
1,Tóth Maja,1998,TabiFK,56.05,42.5,47.5,50.0,50.0,50.0,B,57,Open,Raw,F,
2,Pusztai Cintia,1992,RKA Erőm.,56.45,45.0,47.5,-50.0,47.5,47.5,B,57,Open,Raw,F,
3,Csatos Mónika,1999,TabiFK,56.65,-42.5,42.5,-52.5,42.5,42.5,B,57,Open,Raw,F,
1,Valter Adrienn,1987,TabiFK,62.8,50.0,55.0,-60.0,55.0,55.0,B,63,Open,Raw,F,
2,Jóni Szonja,1989,RKA Erőm.,59.5,-45.0,47.5,50.0,50.0,50.0,B,63,Open,Raw,F,
1,Magyar Edina,1990,RKA Erőm.,71.45,77.5,82.5,-85.5,82.5,82.5,B,72,Open,Raw,F,
2,Pogány Andrea,1974,Toldi SE,64.9,70.0,75.0,80.0,80.0,80.0,B,72,Open,Raw,F,
3,Szabó Réka,1988,Sirius,68.4,65.0,70.0,-77.5,70.0,70.0,B,72,Open,Raw,F,
4,Mérhay Enikő,1980,KozmaGym,69.3,-65.0,65.0,-70.0,65.0,65.0,B,72,Open,Raw,F,
5,Jakus Enikő,1988,MAFC,66.05,55.0,60.0,-65.0,60.0,60.0,B,72,Open,Raw,F,
6,Simon Edina,1998,TabiFK,71.6,47.5,50.0,55.0,55.0,55.0,B,72,Open,Raw,F,
7,Firtelmeiszter Erika,1969,TIFIT,67.25,45.0,50.0,-52.5,50.0,50.0,B,72,Open,Raw,F,
8,Luca Orsolya Lilla,1985,MAFC,69.55,47.5,-52.5,-52.5,47.5,47.5,B,72,Open,Raw,F,
1,Olajos Tünde,1989,RKA Erőm.,82.59,82.5,87.5,-95.0,87.5,87.5,B,84,Open,Raw,F,
2,Schneider Erzsébet,1965,Toldi SE,80.2,57.5,62.5,65.0,65.0,65.0,B,84,Open,Raw,F,
