Place,Name,BirthYear,Team,BodyweightKg,Best3SquatKg,Best3BenchKg,Best3DeadliftKg,TotalKg,Event,WeightClassKg,Division,Equipment,Sex,BirthDate
1,Farkas József,2004,Famílya,68.2,105.0,65.0,120.0,290.0,SBD,74,Sub-Juniors,Raw,M,
1,Havai Patrik,2001,Sebi Gym,81.8,202.5,140.0,232.5,575.0,SBD,83,Sub-Juniors,Raw,M,
2,Füzesi Marcell,2003,Mérk SE,80.1,140.0,105.0,180.0,425.0,SBD,83,Sub-Juniors,Raw,M,
3,Susa Olivér,2004,Vasdisznó,81.8,110.0,130.0,125.0,365.0,SBD,83,Sub-Juniors,Raw,M,
1,Békési Márk,2001,RKA Erőm.,93.0,120.0,137.5,210.0,467.5,SBD,93,Sub-Juniors,Raw,M,
2,Szabó Ákos,2001,Famílya,91.4,160.0,90.0,165.0,415.0,SBD,93,Sub-Juniors,Raw,M,
DQ,Lőrincz Péter,2001,Mérk SE,90.7,,,,,SBD,93,Sub-Juniors,Raw,M,
1,Rajos Roland,2002,Toldi SE,96.6,145.0,97.5,175.0,417.5,SBD,105,Sub-Juniors,Raw,M,
1,Horváth Attila,2003,DucsaiSzeg,114.1,205.0,105.0,175.0,485.0,SBD,120,Sub-Juniors,Raw,M,
1,Horváth Mátyás Kolos,2003,Hagyma ZSE,165.8,170.0,92.5,200.0,462.5,SBD,120+,Sub-Juniors,Raw,M,
1,Posta Krisztián,2000,Vitalitás,73.2,187.5,115.0,236.0,538.5,SBD,74,Juniors,Raw,M,
2,Pétervári Patrik,1996,Powerbuild,73.1,190.0,127.5,210.0,527.5,SBD,74,Juniors,Raw,M,
3,Tatár Sándor,1999,RKA Erőm.,73.6,140.0,140.0,180.0,460.0,SBD,74,Juniors,Raw,M,
1,Rácz Dávid,1996,Mérk SE,79.8,205.0,155.0,215.0,575.0,SBD,83,Juniors,Raw,M,
2,Bökönyi László,1996,HajdúBirk,76.7,220.0,110.0,220.0,550.0,SBD,83,Juniors,Raw,M,
3,Füzesi Marcell,2003,Mérk SE,80.1,140.0,105.0,180.0,425.0,SBD,83,Juniors,Raw,M,
1,Serdült Csaba,1997,Mérk SE,91.0,170.0,125.0,235.0,530.0,SBD,93,Juniors,Raw,M,
2,Petlyánszki Ádám,1996,Westfit,90.0,152.5,115.0,210.0,477.5,SBD,93,Juniors,Raw,M,
3,Békési Márk,2001,RKA Erőm.,93.0,120.0,137.5,210.0,467.5,SBD,93,Juniors,Raw,M,
4,Kertész Balázs,1998,Powerbuild,88.1,172.5,110.0,180.0,462.5,SBD,93,Juniors,Raw,M,
DQ,Lőrincz Péter,2001,Mérk SE,90.7,,,,,SBD,93,Juniors,Raw,M,
1,Fábián Levente,1996,Westfit,102.9,278.0,142.5,262.5,683.0,SBD,105,Juniors,Raw,M,
2,Ledényi Balázs,1999,Vasdisznó,103.7,215.0,142.5,245.0,602.5,SBD,105,Juniors,Raw,M,
3,Szép Kristóf,1998,Hagyma ZSE,103.1,140.0,130.0,180.0,450.0,SBD,105,Juniors,Raw,M,
4,Rajos Roland,2002,Toldi SE,96.6,145.0,97.5,175.0,417.5,SBD,105,Juniors,Raw,M,
1,Horváth Attila,2003,DucsaiSzeg,114.1,205.0,105.0,175.0,485.0,SBD,120,Juniors,Raw,M,
1,Horváth Mátyás Kolos,2003,Hagyma ZSE,165.8,170.0,92.5,200.0,462.5,SBD,120+,Juniors,Raw,M,
1,Béres Zsolt,1978,Famílya,80.3,165.0,100.0,200.0,465.0,SBD,83,Masters 1,Raw,M,
1,Fekete Miklós,1973,Sirius,92.8,263.0,180.0,292.5,735.5,SBD,93,Masters 1,Raw,M,
2,Papp II Zsolt,1975,Powerbuild,89.7,127.5,90.0,165.0,382.5,SBD,93,Masters 1,Raw,M,
1,Dr. Budai Balázs,1979,TIFIT,98.3,172.5,135.0,200.0,507.5,SBD,105,Masters 1,Raw,M,
1,Bogdány György,1962,Powerbuild,89.2,150.0,100.0,150.0,400.0,SBD,93,Masters 2,Raw,M,
1,Zsoldos Péter,1969,Powerbuild,103.6,170.0,115.0,190.0,475.0,SBD,105,Masters 2,Raw,M,
1,Mamedov Iaman,1960,Ural SE,105.2,200.0,130.0,220.0,550.0,SBD,120,Masters 2,Raw,M,
2,Szathmáry Zoltán,1967,Powerbuild,108.9,185.0,140.0,220.0,545.0,SBD,120,Masters 2,Raw,M,
1,Lehotai Sándor,1959,DeltaBeled,100.9,190.0,102.5,251.0,543.5,SBD,105,Masters 3,Raw,M,
1,Fehér Krisztina,2001,Vitalitás,46.0,52.5,30.0,70.0,152.5,SBD,47,Sub-Juniors,Raw,F,
1,Béres Beatrix,2002,Famílya,62.3,82.5,45.0,95.0,222.5,SBD,63,Sub-Juniors,Raw,F,
2,Halaj Liza,2001,Vitalitás,61.5,40.0,50.0,85.0,175.0,SBD,63,Sub-Juniors,Raw,F,
1,Sallai Eszter,2001,Powerbuild,69.7,137.5,82.5,165.0,385.0,SBD,72,Sub-Juniors,Raw,F,
1,Fehér Krisztina,2001,Vitalitás,46.0,52.5,30.0,70.0,152.5,SBD,47,Juniors,Raw,F,
1,Bakó Mónika,1997,RKA Erőm.,60.0,122.5,70.0,143.0,335.5,SBD,63,Juniors,Raw,F,
2,Béres Beatrix,2002,Famílya,62.3,82.5,45.0,95.0,222.5,SBD,63,Juniors,Raw,F,
3,Halaj Liza,2001,Vitalitás,61.5,40.0,50.0,85.0,175.0,SBD,63,Juniors,Raw,F,
1,Katos Dorina,1999,Powerbuild,71.0,120.0,55.0,122.5,297.5,SBD,72,Juniors,Raw,F,
1,Juhász Anna Csilla,1996,MAFC,81.9,150.0,90.0,142.5,382.5,SBD,84,Juniors,Raw,F,
1,Nyers Mónika,1978,TabiFK,50.0,82.5,95.0,102.5,280.0,SBD,52,Masters 1,Raw,F,
1,Salamon Erika,1974,TabiFK,56.1,83.0,100.5,105.5,289.0,SBD,57,Masters 1,Raw,F,
1,Anett Kiss,1976,RKA Erőm.,62.1,133.5,72.5,170.0,376.0,SBD,63,Masters 1,Raw,F,
2,Makai Éva,1979,TabiFK,60.9,90.0,47.5,110.0,247.5,SBD,63,Masters 1,Raw,F,
1,Sashegyi Anna,1973,Vasdisznó,71.1,135.0,75.0,160.0,370.0,SBD,72,Masters 1,Raw,F,
2,Szabados Katalin Éva,1975,Fortius SE,70.0,105.0,55.0,140.0,300.0,SBD,72,Masters 1,Raw,F,
1,Szövérfi Júlia,1978,Fortius SE,83.9,120.0,70.0,160.0,350.0,SBD,84,Masters 1,Raw,F,
1,Farkas Lászlóné,1967,Fortius SE,70.0,125.0,82.5,140.0,347.5,SBD,72,Masters 2,Raw,F,
